PCBNEW-LibModule-V1  
# encoding utf-8
Units mm
$INDEX
SOIC127P600X175-8N
$EndINDEX
$MODULE SOIC127P600X175-8N
Po 0 0 0 15 00000000 00000000 ~~
Li SOIC127P600X175-8N
Cd 
Sc 00000000
At SMD
Op 0 0 0
.SolderMask 0
.SolderPaste 0
T0 -1.27398 -3.94933 1.00313 1.00313 0 0.05 N V 21 "SOIC127P600X175-8N"
T1 -0.636598 3.81964 1.00253 1.00253 0 0.05 N V 21 "VAL**"
DS -2 -2.52 2 -2.52 0.127 24
DS 2 -2.52 2 2.52 0.127 24
DS 2 2.52 -2 2.52 0.127 24
DS -2 2.52 -2 -2.52 0.127 24
DS -2 -2.52 2 -2.52 0.127 21
DS 2 2.52 -2 2.52 0.127 21
DC -4.123 -1.977 -4.0112 -1.977 0.3 21
DC -4.123 -1.977 -4.0112 -1.977 0.3 24
DS -3.71 -2.77 3.71 -2.77 0.05 26
DS 3.71 -2.77 3.71 2.77 0.05 26
DS 3.71 2.77 -3.71 2.77 0.05 26
DS -3.71 2.77 -3.71 -2.77 0.05 26
$PAD
Sh "1" R 1.65 0.61 0 0 0
At SMD N 00888000
.SolderMask 0
.SolderPaste 0
Ne 0 ""
Po -2.635 -1.905
$EndPAD
$PAD
Sh "2" R 1.65 0.61 0 0 0
At SMD N 00888000
.SolderMask 0
.SolderPaste 0
Ne 0 ""
Po -2.635 -0.635
$EndPAD
$PAD
Sh "3" R 1.65 0.61 0 0 0
At SMD N 00888000
.SolderMask 0
.SolderPaste 0
Ne 0 ""
Po -2.635 0.635
$EndPAD
$PAD
Sh "4" R 1.65 0.61 0 0 0
At SMD N 00888000
.SolderMask 0
.SolderPaste 0
Ne 0 ""
Po -2.635 1.905
$EndPAD
$PAD
Sh "5" R 1.65 0.61 0 0 0
At SMD N 00888000
.SolderMask 0
.SolderPaste 0
Ne 0 ""
Po 2.635 1.905
$EndPAD
$PAD
Sh "6" R 1.65 0.61 0 0 0
At SMD N 00888000
.SolderMask 0
.SolderPaste 0
Ne 0 ""
Po 2.635 0.635
$EndPAD
$PAD
Sh "7" R 1.65 0.61 0 0 0
At SMD N 00888000
.SolderMask 0
.SolderPaste 0
Ne 0 ""
Po 2.635 -0.635
$EndPAD
$PAD
Sh "8" R 1.65 0.61 0 0 0
At SMD N 00888000
.SolderMask 0
.SolderPaste 0
Ne 0 ""
Po 2.635 -1.905
$EndPAD
$EndMODULE SOIC127P600X175-8N
