M48
;DRILL file {KiCad 6.0.0-rc1-unknown-ef6f7e9~84~ubuntu16.04.1} date Sat Oct 20 15:01:14 2018
;FORMAT={-:-/ absolute / inch / decimal}
FMAT,2
INCH
T1C0.0118
T2C0.0197
T3C0.0276
T4C0.0394
T5C0.0400
T6C0.0433
T7C0.0551
T8C0.0937
%
G90
G05
M72
T1
X4.8756Y-3.7429
X4.8795Y-0.7555
X4.8795Y-0.8835
X4.8795Y-1.0114
X4.8795Y-1.139
X4.8795Y-1.2669
X4.8795Y-1.3949
X4.8795Y-1.5228
X4.8795Y-1.6504
X4.8795Y-1.7783
X4.8795Y-1.9063
X4.8795Y-2.0339
X4.8795Y-2.1618
X4.8795Y-2.2898
X4.8795Y-2.4177
X4.8795Y-2.5453
X4.8795Y-2.6732
X4.8795Y-2.8012
X4.8795Y-2.9264
X4.9197Y-3.9276
X4.9236Y-3.622
X4.9303Y-3.8362
X4.978Y-1.9965
X4.9791Y-3.7854
X4.989Y-1.9303
X5.0165Y-3.7421
X5.0642Y-3.8283
X5.0697Y-1.9677
X5.0732Y-1.8984
X5.0843Y-1.7713
X5.0854Y-0.9476
X5.0854Y-1.8374
X5.087Y-1.1035
X5.0894Y-0.8803
X5.0945Y-3.622
X5.1098Y-1.6031
X5.1134Y-1.1882
X5.1154Y-1.6563
X5.1571Y-1.9028
X5.1583Y-3.7406
X5.1591Y-1.972
X5.1614Y-1.8382
X5.163Y-0.6941
X5.163Y-0.7894
X5.1685Y-1.7768
X5.172Y-1.5394
X5.1843Y-1.6181
X5.202Y-3.8283
X5.2283Y-2.0268
X5.2406Y-1.6138
X5.2421Y-1.535
X5.2441Y-3.4252
X5.2535Y-1.085
X5.2634Y-1.1776
X5.2638Y-3.3976
X5.2976Y-3.7406
X5.3394Y-3.8283
X5.3433Y-2.2319
X5.3437Y-0.8858
X5.3445Y-0.6941
X5.3445Y-0.7894
X5.3469Y-3.928
X5.3524Y-2.3524
X5.363Y-2.189
X5.3717Y-4.2937
X5.3717Y-4.3594
X5.374Y-2.3701
X5.3957Y-2.3957
X5.3957Y-3.2598
X5.4173Y-3.2445
X5.437Y-3.7406
X5.4429Y-2.1043
X5.4547Y-1.2264
X5.4567Y-3.152
X5.4606Y-2.413
X5.4614Y-4.2937
X5.4626Y-4.3606
X5.4689Y-3.224
X5.4728Y-3.937
X5.4764Y-1.9429
X5.4772Y-3.8283
X5.4843Y-1.252
X5.487Y-2.2839
X5.4941Y-1.9139
X5.502Y-1.1457
X5.5039Y-1.9363
X5.5138Y-1.2815
X5.5154Y-2.4154
X5.5251Y-1.6954
X5.5256Y-1.1713
X5.5264Y-0.6941
X5.5264Y-0.7894
X5.5311Y-3.4614
X5.535Y-3.1469
X5.5354Y-1.1102
X5.5373Y-1.9587
X5.5374Y-1.3071
X5.5398Y-4.3606
X5.5409Y-4.2902
X5.5413Y-1.6024
X5.5512Y-1.1988
X5.5531Y-1.1555
X5.5547Y-3.2252
X5.5571Y-3.3
X5.5591Y-1.0846
X5.5618Y-2.1972
X5.5709Y-1.2244
X5.576Y-3.7406
X5.5768Y-1.1319
X5.5768Y-1.1811
X5.5795Y-2.4138
X5.5873Y-2.0145
X5.5908Y-1.5532
X5.5915Y-1.6219
X5.5925Y-1.0945
X5.5984Y-1.2028
X5.6043Y-1.1476
X5.6074Y-1.8563
X5.6077Y-1.534
X5.6083Y-1.252
X5.6102Y-3.937
X5.6146Y-3.8283
X5.6161Y-1.1161
X5.622Y-1.7677
X5.626Y-1.1732
X5.6331Y-3.1457
X5.6339Y-1.3406
X5.6378Y-1.2283
X5.6425Y-2.1154
X5.6469Y-3.2252
X5.6492Y-1.8846
X5.6496Y-1.1457
X5.6496Y-1.5079
X5.6504Y-3.3047
X5.6591Y-3.3882
X5.6673Y-1.2047
X5.689Y-1.1791
X5.7028Y-1.9547
X5.7047Y-2.2402
X5.7051Y-2.1173
X5.7055Y-1.7622
X5.7059Y-1.6969
X5.7083Y-0.6941
X5.7083Y-0.7894
X5.7154Y-3.7406
X5.7189Y-3.1382
X5.7323Y-1.9587
X5.7374Y-2.4117
X5.748Y-3.937
X5.7524Y-3.8283
X5.7576Y-2.2879
X5.7618Y-2.4193
X5.7728Y-1.6083
X5.7921Y-3.0575
X5.8157Y-3.1319
X5.8425Y-1.5709
X5.8426Y-2.5946
X5.8543Y-2.2815
X5.8547Y-3.7406
X5.8819Y-1.5295
X5.8854Y-3.937
X5.8878Y-1.5039
X5.889Y-0.7906
X5.8898Y-3.8283
X5.8902Y-0.6941
X5.8913Y-0.8917
X5.8992Y-3.0039
X5.9055Y-0.9134
X5.9055Y-3.1232
X5.9094Y-3.4331
X5.9154Y-0.8701
X5.9163Y-2.3297
X5.9363Y-1.483
X5.9374Y-3.2512
X5.9378Y-3.3311
X5.9394Y-4.2665
X5.9395Y-2.3509
X5.9606Y-1.4383
X5.9606Y-1.5079
X5.9705Y-1.1008
X5.9776Y-3.3957
X5.9815Y-2.8634
X6.0043Y-0.7315
X6.0118Y-1.3819
X6.0138Y-1.4646
X6.0189Y-4.178
X6.028Y-1.1563
X6.0354Y-1.3525
X6.0354Y-2.4665
X6.0442Y-1.3298
X6.0594Y-2.7862
X6.0724Y-1.2075
X6.0807Y-1.2913
X6.1059Y-4.2665
X6.1106Y-2.8831
X6.1122Y-1.3307
X6.1122Y-2.4272
X6.122Y-2.3976
X6.1319Y-3.3224
X6.1378Y-1.374
X6.1409Y-3.4406
X6.1457Y-1.4705
X6.1575Y-1.3976
X6.1614Y-1.4449
X6.1831Y-1.4213
X6.1949Y-1.6102
X6.1969Y-2.4016
X6.1988Y-4.178
X6.2024Y-2.7642
X6.2409Y-3.4201
X6.2421Y-1.2504
X6.2421Y-1.563
X6.2488Y-3.7602
X6.25Y-3.6862
X6.2512Y-3.824
X6.2524Y-2.7197
X6.2579Y-2.0197
X6.2732Y-4.2665
X6.2909Y-2.0547
X6.3067Y-2.4185
X6.3142Y-2.672
X6.335Y-2.5323
X6.3427Y-2.0709
X6.3563Y-2.4764
X6.3602Y-1.6713
X6.3622Y-1.2874
X6.3634Y-3.4382
X6.372Y-2.252
X6.3787Y-4.178
X6.3794Y-2.0236
X6.3799Y-1.0709
X6.4043Y-2.6417
X6.4094Y-1.6732
X6.4094Y-1.998
X6.4114Y-1.6413
X6.4272Y-2.4197
X6.4406Y-4.2665
X6.4532Y-1.6831
X6.4764Y-1.7382
X6.4793Y-1.9291
X6.4803Y-1.8602
X6.4839Y-2.1004
X6.4864Y-1.7935
X6.5079Y-1.7461
X6.5079Y-1.9016
X6.5138Y-1.2756
X6.5295Y-1.5827
X6.5295Y-1.7657
X6.5453Y-1.8543
X6.5558Y-1.6083
X6.5559Y-3.4563
X6.5563Y-2.0335
X6.5583Y-4.178
X6.563Y-2.2862
X6.5675Y-1.7928
X6.5815Y-3.7398
X6.5819Y-3.6854
X6.582Y-2.0039
X6.5823Y-3.7965
X6.5862Y-2.2677
X6.5862Y-2.2677
X6.5862Y-2.2677
X6.6051Y-2.2461
X6.6075Y-4.2665
X6.6378Y-2.435
X6.6398Y-1.4035
X6.6567Y-2.0642
X6.6752Y-1.3543
X6.6831Y-1.5413
X6.6925Y-2.1091
X6.6933Y-4.178
X6.7008Y-2.2555
X6.7126Y-1.4075
X6.7205Y-1.315
X6.726Y-3.4224
X6.7358Y-1.663
X6.7421Y-1.378
X6.748Y-2.2031
X6.7598Y-1.5492
X6.7618Y-1.2697
X6.7776Y-1.3445
X6.7815Y-2.6417
X6.7972Y-1.2323
X6.8031Y-2.1614
X6.8055Y-3.3453
X6.811Y-1.311
X6.815Y-1.5492
X6.815Y-2.7677
X6.815Y-3.7539
X6.8209Y-1.5079
X6.8366Y-1.8228
X6.8406Y-1.1969
X6.8445Y-1.2815
X6.8622Y-1.5492
X6.8622Y-2.8228
X6.8642Y-1.5098
X6.8642Y-1.8031
X6.8661Y-1.4685
X6.8661Y-1.8524
X6.8661Y-2.7736
X6.876Y-2.1654
X6.8819Y-1.248
X6.8827Y-3.2138
X6.8839Y-2.1051
X6.885Y-3.2886
X6.8878Y-1.8307
X6.8898Y-1.1772
X6.8996Y-1.8819
X6.9008Y-2.9051
X6.9016Y-1.5492
X6.9035Y-1.5098
X6.9075Y-1.4665
X6.9094Y-1.4252
X6.9134Y-2.748
X6.9154Y-2.7894
X6.9193Y-2.8268
X6.9213Y-1.8622
X6.928Y-2.1705
X6.9382Y-2.098
X6.985Y-3.928
X6.9945Y-3.7992
X7.0118Y-2.2688
X7.0181Y-1.1268
X7.0217Y-2.6476
X7.0217Y-2.6831
X7.0217Y-2.7185
X7.0217Y-2.7559
X7.0217Y-2.7913
X7.0217Y-2.8268
X7.0551Y-2.685
X7.0551Y-2.7165
X7.0551Y-2.7539
X7.0571Y-2.6476
X7.0571Y-2.7933
X7.0571Y-2.8248
X7.061Y-1.6181
X7.0626Y-1.6913
X7.0634Y-1.7614
X7.0689Y-2.1575
X7.0819Y-3.8559
X7.0827Y-2.2629
X7.0846Y-2.8681
X7.0996Y-1.4189
X7.1004Y-2.2362
X7.1102Y-1.315
X7.1161Y-1.2303
X7.1197Y-1.6913
X7.1201Y-3.4134
X7.122Y-1.6236
X7.122Y-2.0965
X7.1236Y-1.7571
X7.124Y-1.1929
X7.1244Y-0.7339
X7.1339Y-3.7126
X7.1752Y-0.7972
X7.1949Y-1.2343
X7.1969Y-1.1949
X7.2067Y-1.315
X7.2083Y-3.9319
X7.2323Y-3.2772
X7.2323Y-3.4331
X7.2362Y-1.1969
X7.237Y-3.1906
X7.2402Y-0.7429
X7.2402Y-1.2343
X7.2413Y-3.6335
X7.2543Y-1.1354
X7.2598Y-1.315
X7.2795Y-1.1969
X7.2795Y-1.2362
X7.2909Y-4.3709
X7.3087Y-3.8996
X7.3169Y-1.3189
X7.3189Y-1.4382
X7.3232Y-1.537
X7.3232Y-1.6402
X7.3248Y-1.1969
X7.3287Y-1.2382
X7.3331Y-3.1874
X7.3449Y-0.813
X7.3555Y-3.7752
X7.372Y-3.3102
X7.4114Y-1.6299
X7.4189Y-3.9319
X7.4346Y-0.887
X7.435Y-3.6709
X7.439Y-1.7539
X7.4465Y-3.1953
X7.4949Y-2.7209
X7.4961Y-2.5819
X7.5118Y-3.1161
X7.5256Y-1.6654
X7.5339Y-4.0783
X7.5354Y-4.2898
X7.5374Y-4.1795
X7.5417Y-3.602
X7.5496Y-2.9319
X7.5524Y-3.7752
X7.587Y-3.1933
X7.6059Y-1.0646
X7.6181Y-4.3283
X7.6268Y-2.7441
X7.6276Y-3.424
X7.6311Y-2.6039
X7.6335Y-3.0
X7.635Y-2.872
X7.6453Y-3.5906
X7.6465Y-1.1902
X7.6465Y-1.3177
X7.6465Y-1.4445
X7.6465Y-1.572
X7.6465Y-1.6988
X7.6465Y-1.8256
X7.6531Y-4.0157
X7.6949Y-0.6311
X7.6988Y-0.7154
X7.7016Y-0.8028
X7.7248Y-3.3398
X7.7299Y-1.4346
X7.7299Y-1.5476
X7.7299Y-1.6606
X7.7299Y-1.887
X7.7299Y-2.0
X7.7299Y-2.1134
X7.7299Y-2.2264
X7.7299Y-2.3394
X7.7299Y-2.4524
X7.7327Y-1.3217
X7.7343Y-3.7752
X7.7465Y-3.5969
X7.7846Y-0.878
X7.7965Y-3.2882
X7.8425Y-3.0925
X7.8606Y-3.3551
X7.8634Y-0.9378
X7.8638Y-3.9496
X7.8646Y-1.9252
X7.8646Y-2.048
X7.8646Y-2.1638
X7.8646Y-2.2795
X7.8646Y-2.3953
X7.865Y-3.2024
X7.8665Y-3.2839
X7.8685Y-0.8331
X7.8815Y-3.5913
X7.911Y-1.2232
X7.911Y-1.3067
X7.911Y-1.3898
X7.913Y-1.1339
X7.9173Y-3.1161
X7.9193Y-1.4654
X7.9193Y-1.5484
X7.9276Y-3.374
X7.9394Y-3.2917
X7.9598Y-3.1949
X7.9909Y-1.9421
X7.9925Y-2.0563
X7.9925Y-2.172
X7.9925Y-2.2878
X7.9937Y-2.4008
X7.9961Y-3.1106
X8.0047Y-2.8839
X8.0087Y-3.0067
X8.0547Y-1.2157
X8.0547Y-1.2988
X8.0547Y-1.3823
X8.0547Y-1.4654
X8.0681Y-3.0909
X8.0705Y-2.9992
X8.078Y-2.8409
X8.0787Y-2.9315
X8.1276Y-2.8913
X8.1307Y-3.0083
X8.1413Y-3.465
X8.1449Y-3.6327
X8.1449Y-3.7787
X8.1469Y-3.8957
X8.1512Y-3.35
X8.1547Y-1.2984
X8.1598Y-1.3827
X8.1646Y-3.1988
X8.187Y-2.839
X8.1878Y-2.9291
X8.1886Y-2.7524
X8.1886Y-2.9937
X8.2575Y-2.1157
X8.2575Y-2.3469
X8.2575Y-2.4228
X8.2575Y-2.4992
X8.2575Y-2.5756
X8.2575Y-2.6516
X8.2575Y-2.728
X8.2575Y-2.8043
X8.2575Y-2.8803
X8.2587Y-2.1929
X8.2587Y-2.2689
X8.2752Y-3.8917
X8.2803Y-3.6646
X8.2803Y-3.7854
X8.2835Y-3.5591
X8.2886Y-3.1941
X8.2913Y-3.348
X8.2933Y-3.4539
X8.2953Y-4.0339
X8.3732Y-0.9803
X8.3756Y-0.7976
X8.3756Y-0.8575
X8.3756Y-0.9217
X8.3772Y-1.6843
X8.3787Y-1.5862
X8.3815Y-1.4921
X8.3835Y-1.1154
X8.3843Y-1.3898
X8.3846Y-1.2425
X8.3846Y-1.3031
X8.3858Y-1.065
X8.3862Y-1.1843
X8.3894Y-2.2787
X8.3894Y-2.4079
X8.3917Y-2.5028
X8.3917Y-2.5917
X8.3917Y-2.6811
X8.3917Y-2.7705
X8.3917Y-2.8594
X8.3949Y-3.5677
X8.3953Y-3.0217
X8.3953Y-3.1307
X8.3953Y-3.2398
X8.3953Y-3.3492
X8.3953Y-3.4587
X8.3953Y-3.6764
X8.3953Y-3.7858
X8.3953Y-4.1413
X8.3957Y-3.8949
X8.3961Y-1.9795
X8.3961Y-2.9488
X8.3961Y-2.9488
X8.3961Y-2.9488
X8.3969Y-2.115
X8.3969Y-4.0386
X8.3972Y-1.8492
T2
X6.0512Y-2.1476
X6.0512Y-2.2067
X6.1043Y-1.4232
X6.1043Y-1.5157
X6.8898Y-2.439
X6.9114Y-2.6831
T3
X5.2598Y-1.3169
X5.2953Y-1.7244
X5.2953Y-2.5531
X5.2953Y-3.1319
X5.3681Y-3.378
X5.4232Y-1.1516
X5.6004Y-3.6102
X5.9173Y-3.6319
X6.0039Y-1.0039
X6.0827Y-1.0827
X6.1752Y-1.0709
X6.5492Y-3.6299
X6.8425Y-3.6299
X6.9783Y-1.4823
X6.9783Y-1.6417
X6.9783Y-1.9331
X7.2303Y-1.0039
X7.7933Y-1.0039
X8.0945Y-1.5492
X8.2598Y-1.6654
X8.2953Y-1.2165
T4
X4.9713Y-2.2579
X5.0713Y-2.2579
X5.1713Y-2.2579
X4.9713Y-2.5571
X5.0713Y-2.5571
X5.1713Y-2.5571
X4.9713Y-2.4154
X5.0713Y-2.4154
X5.1713Y-2.4154
X4.9732Y-2.8524
X5.0732Y-2.8524
X5.1732Y-2.8524
X5.0291Y-3.9941
X5.1472Y-4.1791
X5.2654Y-3.9941
X5.0492Y-3.1988
X5.0492Y-3.2988
X5.0492Y-3.3988
X5.0492Y-3.4988
X4.9713Y-2.1063
X5.0713Y-2.1063
X5.1713Y-2.1063
X6.476Y-2.4681
X6.5467Y-2.3974
X6.6174Y-2.3267
X4.9732Y-2.7047
X5.0732Y-2.7047
X5.1732Y-2.7047
X7.7846Y-4.0559
X7.8831Y-4.0559
X7.9618Y-4.0559
X8.0602Y-4.0559
X4.9732Y-2.998
X5.0732Y-2.998
X5.1732Y-2.998
X7.2024Y-0.6709
X7.3024Y-0.6709
X7.4024Y-0.6709
X7.5024Y-0.6709
X6.1209Y-0.6724
X6.1209Y-0.7724
X6.2209Y-0.6724
X6.2209Y-0.7724
X6.3209Y-0.6724
X6.3209Y-0.7724
X6.4209Y-0.6724
X6.4209Y-0.7724
X6.5209Y-0.6724
X6.5209Y-0.7724
X6.6209Y-0.6724
X6.6209Y-0.7724
X6.7209Y-0.6724
X6.7209Y-0.7724
X6.8209Y-0.6724
X6.8209Y-0.7724
X6.9209Y-0.6724
X6.9209Y-0.7724
X7.0209Y-0.6724
X7.0209Y-0.7724
X4.9827Y-0.828
X4.9827Y-0.928
X4.9827Y-1.028
X4.9827Y-1.128
X4.9827Y-1.228
X4.9827Y-1.328
X4.9827Y-1.428
X4.9827Y-1.528
X4.9827Y-1.628
X4.9827Y-1.728
X4.9827Y-1.828
T5
X7.2008Y-1.4705
X7.2008Y-1.5492
X7.2008Y-1.628
X7.2008Y-1.7067
X7.2008Y-1.7854
X7.2008Y-1.8642
X7.2008Y-1.9429
X7.2008Y-2.0217
X7.2008Y-2.1004
X7.2008Y-2.1791
X7.2008Y-2.2579
X7.2008Y-2.3366
X7.2008Y-2.4154
X7.2008Y-2.4941
X7.2008Y-2.5728
X7.2008Y-2.6516
X8.1614Y-1.4705
X8.1614Y-1.5492
X8.1614Y-1.628
X8.1614Y-1.7067
X8.1614Y-1.7854
X8.1614Y-1.8642
X8.1614Y-1.9429
X8.1614Y-2.0217
X8.1614Y-2.1004
X8.1614Y-2.1791
X8.1614Y-2.2579
X8.1614Y-2.3366
X8.1614Y-2.4154
X8.1614Y-2.4941
X8.1614Y-2.5728
X8.1614Y-2.6516
T6
X7.8585Y-0.6636
X8.0356Y-0.6636
X6.875Y-4.3321
X7.0522Y-4.3321
T7
X7.8093Y-0.762
X8.0848Y-0.762
X6.8258Y-4.2337
X7.1014Y-4.2337
T8
X7.6638Y-4.1626
X8.1811Y-4.1626
T0
M30
