(module SRF2012-900YA (layer F.Cu)
  (fp_text reference REF** (at 0 0) (layer F.SilkS)
    (effects (font (size 1 1) (thickness .15)))
  )
  (fp_text value IND_BOURNS_SRF2012A (at 0 0) (layer F.SilkS)
    (effects (font (size 1 1) (thickness .15)))
  )
  (fp_text user "Copyright 2016 Accelerated Designs. All rights reserved." (at 0 0) (layer Cmts.User)
    (effects (font (size .127 .127) (thickness .002)))
  )
  (fp_text user "*" (at 0 0) (layer F.SilkS)
    (effects (font (size 1 1) (thickness .15)))
  )
  (fp_text user "*" (at 0 0) (layer F.Fab)
    (effects (font (size 1 1) (thickness .15)))
  )
  (fp_line (start .8255 .11176) (end .8255 -.11176) (layer F.SilkS) (width .1524))
  (fp_line (start -.8255 -.11176) (end -.8255 .11176) (layer F.SilkS) (width .1524))
  (fp_line (start -.6985 1.1049) (end .6985 1.1049) (layer F.Fab) (width .1524))
  (fp_line (start .6985 1.1049) (end .6985 -1.1049) (layer F.Fab) (width .1524))
  (fp_line (start .6985 -1.1049) (end -.6985 -1.1049) (layer F.Fab) (width .1524))
  (fp_line (start -.6985 -1.1049) (end -.6985 1.1049) (layer F.Fab) (width .1524))
  (fp_line (start -1.2573 1.3589) (end -1.2573 -1.3589) (layer F.CrtYd) (width .1524))
  (fp_line (start -1.2573 -1.3589) (end -.9525 -1.3589) (layer F.CrtYd) (width .1524))
  (fp_line (start -.9525 -1.3589) (end -.9525 -1.3589) (layer F.CrtYd) (width .1524))
  (fp_line (start -.9525 -1.3589) (end .9525 -1.3589) (layer F.CrtYd) (width .1524))
  (fp_line (start .9525 -1.3589) (end .9525 -1.3589) (layer F.CrtYd) (width .1524))
  (fp_line (start .9525 -1.3589) (end 1.2573 -1.3589) (layer F.CrtYd) (width .1524))
  (fp_line (start 1.2573 -1.3589) (end 1.2573 1.3589) (layer F.CrtYd) (width .1524))
  (fp_line (start 1.2573 1.3589) (end .9525 1.3589) (layer F.CrtYd) (width .1524))
  (fp_line (start .9525 1.3589) (end .9525 1.3589) (layer F.CrtYd) (width .1524))
  (fp_line (start .9525 1.3589) (end -.9525 1.3589) (layer F.CrtYd) (width .1524))
  (fp_line (start -.9525 1.3589) (end -.9525 1.3589) (layer F.CrtYd) (width .1524))
  (fp_line (start -.9525 1.3589) (end -1.2573 1.3589) (layer F.CrtYd) (width .1524))
  (fp_circle (center -1.8796 -.7747) (end -1.8034 -.7747) (layer F.SilkS) (width .1524))
  (pad 1 smd rect (at -.5715 -.7747) (size .8636 .6604) (layers F.Cu F.Paste F.Mask))
  (pad 2 smd rect (at -.5715 .7747) (size .8636 .6604) (layers F.Cu F.Paste F.Mask))
  (pad 3 smd rect (at .5715 .7747) (size .8636 .6604) (layers F.Cu F.Paste F.Mask))
  (pad 4 smd rect (at .5715 -.7747) (size .8636 .6604) (layers F.Cu F.Paste F.Mask))
)
