PCBNEW-LibModule-V1  
# encoding utf-8
Units mm
$INDEX
SOT230P700X180-4N
$EndINDEX
$MODULE SOT230P700X180-4N
Po 0 0 0 15 00000000 00000000 ~~
Li SOT230P700X180-4N
Cd 
Sc 00000000
At SMD
Op 0 0 0
.SolderMask 0
.SolderPaste 0
T0 -0.761169 -5.24299 1.00153 1.00153 0 0.05 N V 21 "SOT230P700X180-4N"
T1 -0.52583 5.47363 1.00158 1.00158 0 0.05 N V 21 "VAL**"
DC -4.452 -2.3 -4.352 -2.3 0.2 21
DS -2.1 -3.6 -2.1 -3 0.05 26
DS -2.1 -3 -4.26 -3 0.05 26
DS -4.26 -3 -4.26 3 0.05 26
DS -4.26 3 -2.1 3 0.05 26
DS -2.1 3 -2.1 3.6 0.05 26
DS -2.1 3.6 2.1 3.6 0.05 26
DS 2.1 3.6 2.1 1.85 0.05 26
DS 2.1 1.85 4.26 1.85 0.05 26
DS 4.26 1.85 4.26 -1.85 0.05 26
DS 4.26 -1.85 2.1 -1.85 0.05 26
DS 2.1 -1.85 2.1 -3.6 0.05 26
DS 2.1 -3.6 -2.1 -3.6 0.05 26
DS -1.85 3.35 -1.85 -3.35 0.127 24
DS -1.85 -3.35 1.85 -3.35 0.127 24
DS 1.85 -3.35 1.85 3.35 0.127 24
DS -1.85 -2.9335 -1.85 -3.35 0.127 21
DS -1.85 -3.35 1.85 -3.35 0.127 21
DS 1.85 -3.35 1.85 -1.7785 0.127 21
DS -1.85 2.9335 -1.85 3.35 0.127 21
DS -1.85 3.35 1.85 3.35 0.127 21
DS 1.85 3.35 1.85 1.7785 0.127 21
DS -1.85 3.35 1.85 3.35 0.127 24
DC -1.277 -2.427 -1.177 -2.427 0.2 24
$PAD
Sh "1" R 1.86 0.9 0 0 1800
At SMD N 00888000
.SolderMask 0
.SolderPaste 0
Ne 0 ""
Po -3.075 -2.3
$EndPAD
$PAD
Sh "2" R 1.86 0.9 0 0 1800
At SMD N 00888000
.SolderMask 0
.SolderPaste 0
Ne 0 ""
Po -3.075 0
$EndPAD
$PAD
Sh "3" R 1.86 0.9 0 0 1800
At SMD N 00888000
.SolderMask 0
.SolderPaste 0
Ne 0 ""
Po -3.075 2.3
$EndPAD
$PAD
Sh "4" R 1.86 3.19 0 0 0
At SMD N 00888000
.SolderMask 0
.SolderPaste 0
Ne 0 ""
Po 3.075 0
$EndPAD
$EndMODULE SOT230P700X180-4N
