PCBNEW-LibModule-V1  
# encoding utf-8
Units mm
$INDEX
OSCSC320X250X100N
$EndINDEX
$MODULE OSCSC320X250X100N
Po 0 0 0 15 00000000 00000000 ~~
Li OSCSC320X250X100N
Cd 
Sc 00000000
At SMD
Op 0 0 0
.SolderMask 0
.SolderPaste 0
T0 -0.387633 -2.20569 0.320363 0.320363 0 0.05 N V 21 "OSCSC320X250X100N"
T1 -0.405404 2.30473 0.321105 0.321105 0 0.05 N V 21 "VAL**"
DS 1.25 -1.6 1.25 1.6 0.127 24
DS 1.25 1.6 -1.25 1.6 0.127 24
DS -1.25 1.6 -1.25 -1.6 0.127 24
DS -1.25 -1.6 1.25 -1.6 0.127 24
DS 1.61 1.96 -1.61 1.96 0.05 26
DS -1.61 1.96 -1.61 -1.96 0.05 26
DS -1.61 -1.96 1.61 -1.96 0.05 26
DC -1.75 -1.25 -1.66398 -1.25 0.127 21
DS 1.61 1.96 1.61 -1.96 0.05 26
$PAD
Sh "1" R 1.1 0.98 0 0 2700
At SMD N 00888000
.SolderMask 0
.SolderPaste 0
Ne 0 ""
Po -0.85 -1.1
$EndPAD
$PAD
Sh "2" R 1.1 0.98 0 0 2700
At SMD N 00888000
.SolderMask 0
.SolderPaste 0
Ne 0 ""
Po -0.85 1.1
$EndPAD
$PAD
Sh "3" R 1.1 0.98 0 0 2700
At SMD N 00888000
.SolderMask 0
.SolderPaste 0
Ne 0 ""
Po 0.85 1.1
$EndPAD
$PAD
Sh "4" R 1.1 0.98 0 0 2700
At SMD N 00888000
.SolderMask 0
.SolderPaste 0
Ne 0 ""
Po 0.85 -1.1
$EndPAD
$EndMODULE OSCSC320X250X100N
