PCBNEW-LibModule-V1  2018-10-18 20:25:26
# encoding utf-8
Units mm
$INDEX
EVQPF008K
$EndINDEX
$MODULE EVQPF008K
Po 0 0 0 15 5bc8de26 00000000 ~~
Li EVQPF008K
Cd EVQPF008K
Kw Switch
Sc 0
At STD
AR 
Op 0 0 0
T0 0.400 -0 1.27 1.27 0 0.254 N V 21 N "S**"
T1 0.400 -0 1.27 1.27 0 0.254 N I 21 N "EVQPF008K"
DS -3.325 -3.925 4.175 -3.925 0.2 24
DS 4.175 -3.925 4.175 3.925 0.2 24
DS 4.175 3.925 -3.325 3.925 0.2 24
DS -3.325 3.925 -3.325 -3.925 0.2 24
DS -5.175 -4.925 5.975 -4.925 0.1 24
DS 5.975 -4.925 5.975 4.925 0.1 24
DS 5.975 4.925 -5.175 4.925 0.1 24
DS -5.175 4.925 -5.175 -4.925 0.1 24
DS -3.325 -0.925 -3.325 3.925 0.1 21
DS -3.325 3.925 4.175 3.925 0.1 21
DS 4.175 3.925 4.175 -0.925 0.1 21
DS -3.325 -3.925 4.175 -3.925 0.1 21
DS -4.075 0.175 -4.075 0.175 0.2 21
DS -4.075 -0.025 -4.075 -0.025 0.2 21
DA -4.075 0.075 -4.075 0.175 1800 0.2 21
DA -4.075 0.075 -4.075 -0.025 1800 0.2 21
$PAD
Po -1.825 0.075
Sh "1" C 1.650 1.650 0 0 900
Dr 1.1 0 0
At STD N 00E0FFFF
Ne 0 ""
$EndPAD
$PAD
Po 2.675 0.075
Sh "2" C 1.650 1.650 0 0 900
Dr 1.1 0 0
At STD N 00E0FFFF
Ne 0 ""
$EndPAD
$PAD
Po -3.075 -2.425
Sh "3" C 2.100 2.100 0 0 900
Dr 1.4 0 0
At STD N 00E0FFFF
Ne 0 ""
$EndPAD
$PAD
Po 3.925 -2.425
Sh "4" C 2.100 2.100 0 0 900
Dr 1.4 0 0
At STD N 00E0FFFF
Ne 0 ""
$EndPAD
$EndMODULE EVQPF008K
$EndLIBRARY
