PCBNEW-LibModule-V1  2018-10-19 04:53:26
# encoding utf-8
Units mm
$INDEX
NX3215SA
$EndINDEX
$MODULE NX3215SA
Po 0 0 0 15 5bc95536 00000000 ~~
Li NX3215SA
Cd NX3215SA
Kw Crystal or Oscillator
Sc 0
At SMD
AR 
Op 0 0 0
T0 -0.323 -0.061 1.27 1.27 0 0.254 N V 21 N "Y**"
T1 -0.323 -0.061 1.27 1.27 0 0.254 N I 21 N "NX3215SA"
DS -1.6 -0.75 1.6 -0.75 0.254 24
DS 1.6 -0.75 1.6 0.75 0.254 24
DS 1.6 0.75 -1.6 0.75 0.254 24
DS -1.6 0.75 -1.6 -0.75 0.254 24
DS -0.5 0.75 0.5 0.75 0.254 21
DS -0.5 -0.75 0.5 -0.75 0.254 21
$PAD
Po -1.25 0
Sh "1" R 1 1.8 0 0 0
At SMD N 00888000
Ne 0 ""
$EndPAD
$PAD
Po 1.25 0
Sh "2" R 1 1.8 0 0 0
At SMD N 00888000
Ne 0 ""
$EndPAD
$EndMODULE NX3215SA
$EndLIBRARY
