PCBNEW-LibModule-V1  2018-10-18 20:06:24
# encoding utf-8
Units mm
$INDEX
UE27AC54100
$EndINDEX
$MODULE UE27AC54100
Po 0 0 0 15 5bc8d9b0 00000000 ~~
Li UE27AC54100
Cd UE27AC54100
Kw Connector
Sc 0
At STD
AR 
Op 0 0 0
T0 -0.313 4.31 1.27 1.27 0 0.254 N V 21 N "J**"
T1 -0.313 4.31 1.27 1.27 0 0.254 N I 21 N "UE27AC54100"
DS -6.55 -0.87 6.55 -0.87 0.254 24
DS 6.55 -0.87 6.55 12.98 0.254 24
DS 6.55 12.98 -6.55 12.98 0.254 24
DS -6.55 12.98 -6.55 -0.87 0.254 24
DS 6.55 12.98 -6.55 12.98 0.254 21
DS -6.55 12.98 -6.55 4.85 0.254 21
DS 6.55 12.98 6.55 4.827 0.254 21
DS -6.55 -0.87 -4.3 -0.87 0.254 21
DS 6.55 -0.87 4.3 -0.87 0.254 21
DC -4.182 -1.878 -4.29712 -1.878 0.254 21
$PAD
Po -3.5 0
Sh "1" C 1.5 1.5 0 0 900
Dr 1 0 0
At STD N 00E0FFFF
Ne 0 ""
$EndPAD
$PAD
Po -1 0
Sh "2" C 1.5 1.5 0 0 900
Dr 1 0 0
At STD N 00E0FFFF
Ne 0 ""
$EndPAD
$PAD
Po 1 0
Sh "3" C 1.5 1.5 0 0 900
Dr 1 0 0
At STD N 00E0FFFF
Ne 0 ""
$EndPAD
$PAD
Po 3.5 0
Sh "4" C 1.5 1.5 0 0 900
Dr 1 0 0
At STD N 00E0FFFF
Ne 0 ""
$EndPAD
$PAD
Po -6.57 2.71
Sh "5" C 3.58 3.58 0 0 900
Dr 2.38 0 0
At STD N 00E0FFFF
Ne 0 ""
$EndPAD
$PAD
Po 6.57 2.71
Sh "6" C 3.58 3.58 0 0 900
Dr 2.38 0 0
At STD N 00E0FFFF
Ne 0 ""
$EndPAD
$EndMODULE UE27AC54100
$EndLIBRARY
