EESchema Schematic File Version 4
LIBS:schematicProject-cache
EELAYER 29 0
EELAYER END
$Descr A1 33110 23386
encoding utf-8
Sheet 4 5
Title ""
Date ""
Rev ""
Comp ""
Comment1 ""
Comment2 ""
Comment3 ""
Comment4 ""
$EndDescr
NoConn ~ 17200 6200
Wire Wire Line
	16450 9200 16300 9200
Wire Wire Line
	16200 9300 16300 9300
Wire Wire Line
	16300 9300 16300 9200
Connection ~ 16300 9200
Wire Wire Line
	16300 9200 16200 9200
Wire Wire Line
	19200 9200 19250 9200
Wire Wire Line
	19200 9300 19250 9300
Wire Wire Line
	19250 9300 19250 9200
Connection ~ 19250 9200
Wire Wire Line
	19250 9200 19350 9200
Wire Wire Line
	18800 6500 18600 6500
Text GLabel 17200 9400 0    50   Input ~ 0
IOL_1A
Text GLabel 17200 9500 0    50   Input ~ 0
IOL_1B
Text GLabel 17200 9800 0    50   Input ~ 0
IOL_3A
Text GLabel 17200 10000 0    50   Input ~ 0
IOL_4A
Text GLabel 17200 10100 0    50   Input ~ 0
IOL_4B
Text GLabel 17200 10200 0    50   Input ~ 0
IOL_5A
Text GLabel 19200 9600 2    50   Input ~ 0
IOL_8B
Text GLabel 19200 10200 2    50   Input ~ 0
IOL_11B
Text GLabel 19200 10300 2    50   Input ~ 0
IOL_12A
Text GLabel 19200 10400 2    50   Input ~ 0
IOL_12B
$Comp
L schematicProject-rescue:Conn_02x10_Counter_Clockwise-Connector_Generic J?
U 1 1 5BB7B303
P 20200 7100
AR Path="/5BB72E68/5BB7B303" Ref="J?"  Part="1" 
AR Path="/5BB736EF/5BB7B303" Ref="J6"  Part="1" 
F 0 "J6" H 20250 7717 50  0000 C CNN
F 1 "Conn_02x10_Counter_Clockwise" H 20250 7626 50  0000 C CNN
F 2 "kicad footprints:PinHeader_2x10_P2.54mm_Vertical" H 20200 7100 50  0001 C CNN
F 3 "~" H 20200 7100 50  0001 C CNN
	1    20200 7100
	1    0    0    -1  
$EndComp
Wire Wire Line
	20900 6750 20900 6700
NoConn ~ 14600 9200
Text HLabel 19200 9700 2    50   Input ~ 0
ICE40_NOE
Text HLabel 19200 9800 2    50   Input ~ 0
ICE40_NWE
Text HLabel 17200 10500 0    50   Input ~ 0
ICE40_NE1
Text HLabel 17200 9900 0    50   Input ~ 0
ICE40_NL_NADV
Text GLabel 14600 8600 0    50   Input ~ 0
IOT_82
Text GLabel 14600 8700 0    50   Input ~ 0
IOT_83
Text GLabel 16400 8000 2    50   Input ~ 0
IOT_89
Text GLabel 16400 8100 2    50   Input ~ 0
IOT_90
Text GLabel 16400 8200 2    50   Input ~ 0
IOT_91
$Comp
L schematicProject-rescue:GND-power #PWR?
U 1 1 5BB7B398
P 18800 7100
AR Path="/5BB72E68/5BB7B398" Ref="#PWR?"  Part="1" 
AR Path="/5BB736EF/5BB7B398" Ref="#PWR0119"  Part="1" 
F 0 "#PWR0119" H 18800 6850 50  0001 C CNN
F 1 "GND" H 18805 6927 50  0000 C CNN
F 2 "" H 18800 7100 50  0001 C CNN
F 3 "" H 18800 7100 50  0001 C CNN
	1    18800 7100
	1    0    0    -1  
$EndComp
$Comp
L schematicProject-rescue:GND-power #PWR?
U 1 1 5BB7B39E
P 19550 6950
AR Path="/5BB72E68/5BB7B39E" Ref="#PWR?"  Part="1" 
AR Path="/5BB736EF/5BB7B39E" Ref="#PWR0125"  Part="1" 
F 0 "#PWR0125" H 19550 6700 50  0001 C CNN
F 1 "GND" H 19555 6777 50  0000 C CNN
F 2 "" H 19550 6950 50  0001 C CNN
F 3 "" H 19550 6950 50  0001 C CNN
	1    19550 6950
	1    0    0    -1  
$EndComp
$Comp
L schematicProject-rescue:GND-power #PWR?
U 1 1 5BB7B3A4
P 20900 6750
AR Path="/5BB72E68/5BB7B3A4" Ref="#PWR?"  Part="1" 
AR Path="/5BB736EF/5BB7B3A4" Ref="#PWR0126"  Part="1" 
F 0 "#PWR0126" H 20900 6500 50  0001 C CNN
F 1 "GND" H 20905 6577 50  0000 C CNN
F 2 "" H 20900 6750 50  0001 C CNN
F 3 "" H 20900 6750 50  0001 C CNN
	1    20900 6750
	1    0    0    -1  
$EndComp
Wire Wire Line
	14250 9400 14600 9400
Wire Wire Line
	14250 9500 14600 9500
Wire Wire Line
	14250 9600 14600 9600
Wire Wire Line
	14250 9700 14600 9700
Wire Wire Line
	14250 9800 14600 9800
Wire Wire Line
	14250 9900 14600 9900
Wire Wire Line
	14250 10000 14600 10000
Wire Wire Line
	14250 10100 14600 10100
Wire Wire Line
	14250 10200 14600 10200
Wire Wire Line
	14250 10300 14600 10300
Wire Wire Line
	14250 10400 14600 10400
Wire Wire Line
	14250 10500 14600 10500
Wire Wire Line
	14250 10600 14600 10600
Wire Wire Line
	16200 9500 16500 9500
Wire Wire Line
	16200 10600 16500 10600
Wire Wire Line
	16200 10500 16500 10500
Wire Wire Line
	16200 10400 16500 10400
Wire Wire Line
	16200 10300 16500 10300
Wire Wire Line
	16200 9600 16500 9600
Wire Wire Line
	16200 9700 16500 9700
Wire Wire Line
	16200 9800 16500 9800
Wire Wire Line
	16200 9900 16500 9900
Wire Wire Line
	16200 10000 16500 10000
Entry Wire Line
	13250 9900 13350 10000
Entry Wire Line
	13250 10000 13350 10100
Entry Wire Line
	13250 10100 13350 10200
Entry Wire Line
	13250 9600 13350 9700
Entry Wire Line
	13250 9700 13350 9800
Entry Wire Line
	13250 9800 13350 9900
Entry Wire Line
	13250 9300 13350 9400
Entry Wire Line
	13250 9400 13350 9500
Entry Wire Line
	13250 9500 13350 9600
Entry Wire Line
	13250 10500 13350 10600
Entry Wire Line
	13250 10600 13350 10700
Entry Wire Line
	13250 10700 13350 10800
Entry Wire Line
	13250 10200 13350 10300
Entry Wire Line
	13250 10300 13350 10400
Entry Wire Line
	13250 10400 13350 10500
Wire Bus Line
	13100 9150 13250 9150
Wire Wire Line
	13350 9400 13700 9400
Wire Wire Line
	13350 9500 13700 9500
Wire Wire Line
	13350 9600 13700 9600
Wire Wire Line
	13350 9700 13700 9700
Wire Wire Line
	13350 9800 13700 9800
Wire Wire Line
	13350 9900 13700 9900
Wire Wire Line
	13350 10000 13700 10000
Wire Wire Line
	13350 10100 13700 10100
Wire Wire Line
	13350 10200 13700 10200
Wire Wire Line
	13350 10300 13700 10300
Wire Wire Line
	13350 10400 13700 10400
Wire Wire Line
	13350 10500 13700 10500
Wire Wire Line
	13350 10600 13700 10600
Wire Wire Line
	13350 10700 13700 10700
Wire Wire Line
	13350 10800 13700 10800
Entry Wire Line
	12400 10300 12500 10400
Entry Wire Line
	12400 10400 12500 10500
Entry Wire Line
	12400 10500 12500 10600
Entry Wire Line
	12400 10000 12500 10100
Entry Wire Line
	12400 10100 12500 10200
Entry Wire Line
	12400 10200 12500 10300
Entry Wire Line
	12400 9700 12500 9800
Entry Wire Line
	12400 9800 12500 9900
Entry Wire Line
	12400 9900 12500 10000
Wire Bus Line
	12250 9550 12400 9550
Wire Wire Line
	12500 9800 12850 9800
Wire Wire Line
	12500 9900 12850 9900
Wire Wire Line
	12500 10000 12850 10000
Wire Wire Line
	12500 10100 12850 10100
Wire Wire Line
	12500 10200 12850 10200
Wire Wire Line
	12500 10300 12850 10300
Wire Wire Line
	12500 10400 12850 10400
Wire Wire Line
	12500 10500 12850 10500
Wire Wire Line
	12500 10600 12850 10600
Text Label 13700 9400 2    50   ~ 0
FMC_D0
Text Label 13700 9500 2    50   ~ 0
FMC_D1
Text Label 13700 9600 2    50   ~ 0
FMC_D2
Text Label 13700 9700 2    50   ~ 0
FMC_D3
Text Label 13700 9800 2    50   ~ 0
FMC_D4
Text Label 13700 9900 2    50   ~ 0
FMC_D5
Text Label 13700 10000 2    50   ~ 0
FMC_D6
Text Label 13700 10100 2    50   ~ 0
FMC_D7
Text Label 13700 10200 2    50   ~ 0
FMC_D8
Text Label 13700 10300 2    50   ~ 0
FMC_D9
Text Label 13700 10400 2    50   ~ 0
FMC_D10
Text Label 13700 10500 2    50   ~ 0
FMC_D11
Text Label 13700 10600 2    50   ~ 0
FMC_D12
Text Label 13700 10700 2    50   ~ 0
FMC_D13
Text Label 13700 10800 2    50   ~ 0
FMC_D14
Entry Wire Line
	13250 10800 13350 10900
Wire Wire Line
	13350 10900 13700 10900
Text Label 13700 10900 2    50   ~ 0
FMC_D15
Text Label 12850 9800 2    50   ~ 0
FMC_A16
Text Label 12850 9900 2    50   ~ 0
FMC_A17
Text Label 12850 10000 2    50   ~ 0
FMC_A18
Text Label 12850 10100 2    50   ~ 0
FMC_A19
Text Label 12850 10200 2    50   ~ 0
FMC_A20
Text Label 12850 10300 2    50   ~ 0
FMC_A21
Text Label 12850 10400 2    50   ~ 0
FMC_A22
Text Label 12850 10500 2    50   ~ 0
FMC_A23
Text Label 12850 10600 2    50   ~ 0
FMC_A24
Text HLabel 13100 9150 0    50   Input ~ 0
FMC_D[15:0]
Text HLabel 12250 9550 0    50   Input ~ 0
FMC_A[24:16]
Wire Wire Line
	16200 10200 16500 10200
Text Label 10900 14000 0    50   ~ 0
ICESPI_SCK
Text Label 12650 14050 2    50   ~ 0
ICESPI_SDI
Text Label 12650 13850 2    50   ~ 0
ICESPI_SO
Text Label 11300 14100 2    50   ~ 0
ICESPI_SS
Wire Wire Line
	16200 10100 16500 10100
Wire Wire Line
	16200 6700 16300 6700
$Comp
L schematicProject-rescue:GND-omega-dock-new-cache #PWR?
U 1 1 5BBAC2F1
P 11950 14250
AR Path="/5BB72E68/5BBAC2F1" Ref="#PWR?"  Part="1" 
AR Path="/5BB736EF/5BBAC2F1" Ref="#PWR0130"  Part="1" 
F 0 "#PWR0130" H 11950 14000 50  0001 C CNN
F 1 "GND" V 11955 14122 50  0000 R CNN
F 2 "" H 11950 14250 50  0001 C CNN
F 3 "" H 11950 14250 50  0001 C CNN
	1    11950 14250
	1    0    0    -1  
$EndComp
Wire Wire Line
	10550 14000 10550 13650
$Comp
L schematicProject-rescue:R-device R?
U 1 1 5BC18B1B
P 10300 13500
AR Path="/5BB72E68/5BC18B1B" Ref="R?"  Part="1" 
AR Path="/5BB736EF/5BC18B1B" Ref="R4"  Part="1" 
F 0 "R4" V 10200 13500 50  0000 C CNN
F 1 "10k" V 10400 13500 50  0000 C CNN
F 2 "Resistor_SMD:R_0603_1608Metric_Pad1.05x0.95mm_HandSolder" V 10230 13500 50  0001 C CNN
F 3 "" H 10300 13500 50  0001 C CNN
	1    10300 13500
	-1   0    0    1   
$EndComp
Wire Wire Line
	10300 13350 10300 12750
$Comp
L schematicProject-rescue:R-device R?
U 1 1 5BC18D6B
P 10550 13500
AR Path="/5BB72E68/5BC18D6B" Ref="R?"  Part="1" 
AR Path="/5BB736EF/5BC18D6B" Ref="R14"  Part="1" 
F 0 "R14" V 10450 13500 50  0000 C CNN
F 1 "10k" V 10650 13500 50  0000 C CNN
F 2 "Resistor_SMD:R_0603_1608Metric_Pad1.05x0.95mm_HandSolder" V 10480 13500 50  0001 C CNN
F 3 "" H 10550 13500 50  0001 C CNN
	1    10550 13500
	-1   0    0    1   
$EndComp
Wire Wire Line
	10550 13350 10550 12750
$Comp
L schematicProject-rescue:R-device R?
U 1 1 5BC18DA7
P 10800 13500
AR Path="/5BB72E68/5BC18DA7" Ref="R?"  Part="1" 
AR Path="/5BB736EF/5BC18DA7" Ref="R15"  Part="1" 
F 0 "R15" V 10700 13500 50  0000 C CNN
F 1 "10k" V 10900 13500 50  0000 C CNN
F 2 "Resistor_SMD:R_0603_1608Metric_Pad1.05x0.95mm_HandSolder" V 10730 13500 50  0001 C CNN
F 3 "" H 10800 13500 50  0001 C CNN
	1    10800 13500
	-1   0    0    1   
$EndComp
Wire Wire Line
	10800 13350 10800 12750
$Comp
L schematicProject-rescue:R-device R?
U 1 1 5BC4F6A3
P 11100 13500
AR Path="/5BB72E68/5BC4F6A3" Ref="R?"  Part="1" 
AR Path="/5BB736EF/5BC4F6A3" Ref="R16"  Part="1" 
F 0 "R16" V 11000 13500 50  0000 C CNN
F 1 "10k" V 11200 13500 50  0000 C CNN
F 2 "Resistor_SMD:R_0603_1608Metric_Pad1.05x0.95mm_HandSolder" V 11030 13500 50  0001 C CNN
F 3 "" H 11100 13500 50  0001 C CNN
	1    11100 13500
	-1   0    0    1   
$EndComp
Wire Wire Line
	11100 13350 11100 12750
$Comp
L schematicProject-rescue:C-Device CHF?
U 1 1 5BC57E82
P 12300 13100
AR Path="/5BB72E68/5BC57E82" Ref="CHF?"  Part="1" 
AR Path="/5BB736EF/5BC57E82" Ref="CHF1"  Part="1" 
F 0 "CHF1" V 12048 13100 50  0000 C CNN
F 1 "100nF" V 12139 13100 50  0000 C CNN
F 2 "Capacitor_SMD:C_0603_1608Metric_Pad1.05x0.95mm_HandSolder" H 12338 12950 50  0001 C CNN
F 3 "~" H 12300 13100 50  0001 C CNN
	1    12300 13100
	-1   0    0    1   
$EndComp
Wire Wire Line
	12300 12750 11950 12750
Wire Wire Line
	14250 6700 14600 6700
Wire Wire Line
	14250 6800 14600 6800
Wire Wire Line
	14250 6900 14600 6900
Wire Wire Line
	14250 7000 14600 7000
Text Label 14250 6900 0    50   ~ 0
ICESPI_SO
Text Label 14250 6800 0    50   ~ 0
ICESPI_SDI
Text Label 14250 6700 0    50   ~ 0
ICESPI_SCK
Text Label 14250 7000 0    50   ~ 0
ICESPI_SS
Text HLabel 14250 6800 0    50   Input ~ 0
ICE_SI
Text HLabel 14250 6900 0    50   Input ~ 0
ICE_SO
Text HLabel 14250 7000 0    50   Input ~ 0
ICE_SS
Text HLabel 17200 9700 0    50   Input ~ 0
NBL_0
Text HLabel 17200 9600 0    50   Input ~ 0
NBL_1
$Comp
L schematicProject-rescue:LED-device D?
U 1 1 5BCC9F54
P 16600 12700
AR Path="/5BB72E68/5BCC9F54" Ref="D?"  Part="1" 
AR Path="/5BB736EF/5BCC9F54" Ref="D8"  Part="1" 
F 0 "D8" H 16592 12445 50  0000 C CNN
F 1 "LED" H 16592 12536 50  0000 C CNN
F 2 "LED_SMD:LED_0603_1608Metric" H 16600 12700 50  0001 C CNN
F 3 "~" H 16600 12700 50  0001 C CNN
	1    16600 12700
	-1   0    0    1   
$EndComp
$Comp
L schematicProject-rescue:R-device R?
U 1 1 5BCC9F5B
P 16950 12700
AR Path="/5BB72E68/5BCC9F5B" Ref="R?"  Part="1" 
AR Path="/5BB736EF/5BCC9F5B" Ref="R19"  Part="1" 
F 0 "R19" V 16743 12700 50  0000 C CNN
F 1 "1k" V 16834 12700 50  0000 C CNN
F 2 "Resistor_SMD:R_0603_1608Metric_Pad1.05x0.95mm_HandSolder" V 16880 12700 50  0001 C CNN
F 3 "" H 16950 12700 50  0001 C CNN
	1    16950 12700
	0    1    1    0   
$EndComp
$Comp
L schematicProject-rescue:GND-omega-dock-new-cache #PWR?
U 1 1 5BCC9F62
P 17200 12700
AR Path="/5BB72E68/5BCC9F62" Ref="#PWR?"  Part="1" 
AR Path="/5BB736EF/5BCC9F62" Ref="#PWR0131"  Part="1" 
F 0 "#PWR0131" H 17200 12450 50  0001 C CNN
F 1 "GND" V 17205 12572 50  0000 R CNN
F 2 "" H 17200 12700 50  0001 C CNN
F 3 "" H 17200 12700 50  0001 C CNN
	1    17200 12700
	0    -1   -1   0   
$EndComp
Wire Wire Line
	16750 12700 16800 12700
Wire Wire Line
	17100 12700 17200 12700
Text Label 16150 12700 0    50   ~ 0
LED_0
Wire Wire Line
	16150 12700 16450 12700
Text Label 14600 8300 2    50   ~ 0
LED_0
Text GLabel 11950 12450 1    50   Input ~ 0
ICE_3.3V
Wire Wire Line
	16400 7500 16500 7500
Wire Wire Line
	16400 7600 16500 7600
Wire Wire Line
	16500 7600 16500 7500
Text GLabel 16500 7500 2    50   Input ~ 0
ICE_3.3V
$Comp
L schematicProject-rescue:C-Device CHF?
U 1 1 5BD3FA75
P 16100 14250
AR Path="/5BB72E68/5BD3FA75" Ref="CHF?"  Part="1" 
AR Path="/5BB736EF/5BD3FA75" Ref="C33"  Part="1" 
F 0 "C33" V 15848 14250 50  0000 C CNN
F 1 "0.1uF" V 15939 14250 50  0000 C CNN
F 2 "Capacitor_SMD:C_0603_1608Metric_Pad1.05x0.95mm_HandSolder" H 16138 14100 50  0001 C CNN
F 3 "~" H 16100 14250 50  0001 C CNN
	1    16100 14250
	-1   0    0    1   
$EndComp
$Comp
L schematicProject-rescue:C-Device CHF?
U 1 1 5BD3FBB0
P 16500 14250
AR Path="/5BB72E68/5BD3FBB0" Ref="CHF?"  Part="1" 
AR Path="/5BB736EF/5BD3FBB0" Ref="C35"  Part="1" 
F 0 "C35" V 16248 14250 50  0000 C CNN
F 1 "0.1uF" V 16339 14250 50  0000 C CNN
F 2 "Capacitor_SMD:C_0603_1608Metric_Pad1.05x0.95mm_HandSolder" H 16538 14100 50  0001 C CNN
F 3 "~" H 16500 14250 50  0001 C CNN
	1    16500 14250
	-1   0    0    1   
$EndComp
Text GLabel 15700 13950 1    50   Input ~ 0
ICE_3.3V
Text GLabel 16450 9200 2    50   Input ~ 0
ICE_3.3V
$Comp
L schematicProject-rescue:C-Device CHF?
U 1 1 5BD501C5
P 16950 14250
AR Path="/5BB72E68/5BD501C5" Ref="CHF?"  Part="1" 
AR Path="/5BB736EF/5BD501C5" Ref="C36"  Part="1" 
F 0 "C36" V 16698 14250 50  0000 C CNN
F 1 "0.1uF" V 16789 14250 50  0000 C CNN
F 2 "Capacitor_SMD:C_0603_1608Metric_Pad1.05x0.95mm_HandSolder" H 16988 14100 50  0001 C CNN
F 3 "~" H 16950 14250 50  0001 C CNN
	1    16950 14250
	-1   0    0    1   
$EndComp
$Comp
L schematicProject-rescue:C-Device CHF?
U 1 1 5BD5023D
P 17350 14250
AR Path="/5BB72E68/5BD5023D" Ref="CHF?"  Part="1" 
AR Path="/5BB736EF/5BD5023D" Ref="C37"  Part="1" 
F 0 "C37" V 17098 14250 50  0000 C CNN
F 1 "0.1uF" V 17189 14250 50  0000 C CNN
F 2 "Capacitor_SMD:C_0603_1608Metric_Pad1.05x0.95mm_HandSolder" H 17388 14100 50  0001 C CNN
F 3 "~" H 17350 14250 50  0001 C CNN
	1    17350 14250
	-1   0    0    1   
$EndComp
Wire Wire Line
	18800 7600 18900 7600
Wire Wire Line
	18900 7600 18900 7500
Wire Wire Line
	18800 7500 18900 7500
Wire Wire Line
	18900 7500 19000 7500
Connection ~ 18900 7500
Text GLabel 19000 7500 2    50   Input ~ 0
ICE_3.3V
$Comp
L schematicProject-rescue:C-Device CHF?
U 1 1 5BD606B0
P 17750 14250
AR Path="/5BB72E68/5BD606B0" Ref="CHF?"  Part="1" 
AR Path="/5BB736EF/5BD606B0" Ref="C38"  Part="1" 
F 0 "C38" V 17498 14250 50  0000 C CNN
F 1 "0.1uF" V 17589 14250 50  0000 C CNN
F 2 "Capacitor_SMD:C_0603_1608Metric_Pad1.05x0.95mm_HandSolder" H 17788 14100 50  0001 C CNN
F 3 "~" H 17750 14250 50  0001 C CNN
	1    17750 14250
	-1   0    0    1   
$EndComp
$Comp
L schematicProject-rescue:C-Device CHF?
U 1 1 5BD6070A
P 18150 14250
AR Path="/5BB72E68/5BD6070A" Ref="CHF?"  Part="1" 
AR Path="/5BB736EF/5BD6070A" Ref="C40"  Part="1" 
F 0 "C40" V 17898 14250 50  0000 C CNN
F 1 "0.1uF" V 17989 14250 50  0000 C CNN
F 2 "Capacitor_SMD:C_0603_1608Metric_Pad1.05x0.95mm_HandSolder" H 18188 14100 50  0001 C CNN
F 3 "~" H 18150 14250 50  0001 C CNN
	1    18150 14250
	-1   0    0    1   
$EndComp
Wire Wire Line
	17200 7600 16950 7600
Wire Wire Line
	17200 7500 16950 7500
Text Label 16950 7500 0    50   ~ 0
CDONE
Wire Wire Line
	23700 12700 23400 12700
$Comp
L schematicProject-rescue:C-Device C?
U 1 1 5BD8AE88
P 23400 13000
AR Path="/5BB72E68/5BD8AE88" Ref="C?"  Part="1" 
AR Path="/5BB736EF/5BD8AE88" Ref="C48"  Part="1" 
F 0 "C48" V 23148 13000 50  0000 C CNN
F 1 "0.1uF" V 23239 13000 50  0000 C CNN
F 2 "Capacitor_SMD:C_0603_1608Metric_Pad1.05x0.95mm_HandSolder" H 23438 12850 50  0001 C CNN
F 3 "~" H 23400 13000 50  0001 C CNN
	1    23400 13000
	-1   0    0    1   
$EndComp
$Comp
L Switch:SW_Push SW2
U 1 1 5BD8B124
P 22800 13050
F 0 "SW2" V 22754 13198 50  0000 L CNN
F 1 "SW_Push" V 22845 13198 50  0000 L CNN
F 2 "EVQPF008K:EVQPF008K" H 22800 13250 50  0001 C CNN
F 3 "" H 22800 13250 50  0001 C CNN
	1    22800 13050
	0    1    1    0   
$EndComp
$Comp
L schematicProject-rescue:R-device R?
U 1 1 5BD8B223
P 22350 12700
AR Path="/5BB72E68/5BD8B223" Ref="R?"  Part="1" 
AR Path="/5BB736EF/5BD8B223" Ref="R20"  Part="1" 
F 0 "R20" V 22143 12700 50  0000 C CNN
F 1 "1k" V 22234 12700 50  0000 C CNN
F 2 "Resistor_SMD:R_0603_1608Metric_Pad1.05x0.95mm_HandSolder" V 22280 12700 50  0001 C CNN
F 3 "" H 22350 12700 50  0001 C CNN
	1    22350 12700
	0    1    1    0   
$EndComp
Text GLabel 21550 12700 0    50   Input ~ 0
ICE_3.3V
Wire Wire Line
	22200 12700 21550 12700
Wire Wire Line
	22800 12850 22800 12700
Connection ~ 22800 12700
Wire Wire Line
	22800 12700 22500 12700
Wire Wire Line
	23400 12700 23400 12850
Connection ~ 23400 12700
Wire Wire Line
	23400 12700 22800 12700
Wire Wire Line
	22800 13250 22800 13400
Wire Wire Line
	23400 13150 23400 13400
$Comp
L schematicProject-rescue:GND-power #PWR?
U 1 1 5BDBFFB8
P 22800 13400
AR Path="/5BB72E68/5BDBFFB8" Ref="#PWR?"  Part="1" 
AR Path="/5BB736EF/5BDBFFB8" Ref="#PWR0156"  Part="1" 
F 0 "#PWR0156" H 22800 13150 50  0001 C CNN
F 1 "GND" H 22805 13227 50  0000 C CNN
F 2 "" H 22800 13400 50  0001 C CNN
F 3 "" H 22800 13400 50  0001 C CNN
	1    22800 13400
	1    0    0    -1  
$EndComp
$Comp
L schematicProject-rescue:GND-power #PWR?
U 1 1 5BDC005E
P 23400 13400
AR Path="/5BB72E68/5BDC005E" Ref="#PWR?"  Part="1" 
AR Path="/5BB736EF/5BDC005E" Ref="#PWR0157"  Part="1" 
F 0 "#PWR0157" H 23400 13150 50  0001 C CNN
F 1 "GND" H 23405 13227 50  0000 C CNN
F 2 "" H 23400 13400 50  0001 C CNN
F 3 "" H 23400 13400 50  0001 C CNN
	1    23400 13400
	1    0    0    -1  
$EndComp
Text HLabel 19200 9900 2    50   Input ~ 0
FMC_CLK
Text GLabel 19350 9200 2    50   Input ~ 0
ICE_3.3V
$Comp
L schematicProject-rescue:C-Device C?
U 1 1 5BDD3843
P 18600 14250
AR Path="/5BB72E68/5BDD3843" Ref="C?"  Part="1" 
AR Path="/5BB736EF/5BDD3843" Ref="C41"  Part="1" 
F 0 "C41" V 18348 14250 50  0000 C CNN
F 1 "0.1uF" V 18439 14250 50  0000 C CNN
F 2 "Capacitor_SMD:C_0603_1608Metric_Pad1.05x0.95mm_HandSolder" H 18638 14100 50  0001 C CNN
F 3 "~" H 18600 14250 50  0001 C CNN
	1    18600 14250
	-1   0    0    1   
$EndComp
$Comp
L schematicProject-rescue:C-Device C?
U 1 1 5BDD38A5
P 19000 14250
AR Path="/5BB72E68/5BDD38A5" Ref="C?"  Part="1" 
AR Path="/5BB736EF/5BDD38A5" Ref="C42"  Part="1" 
F 0 "C42" V 18748 14250 50  0000 C CNN
F 1 "0.1uF" V 18839 14250 50  0000 C CNN
F 2 "Capacitor_SMD:C_0603_1608Metric_Pad1.05x0.95mm_HandSolder" H 19038 14100 50  0001 C CNN
F 3 "~" H 19000 14250 50  0001 C CNN
	1    19000 14250
	-1   0    0    1   
$EndComp
Text GLabel 20000 6800 0    50   Input ~ 0
ICE_3.3V
Text GLabel 16300 6550 1    50   Input ~ 0
ICE_3.3V
Wire Wire Line
	16300 6550 16300 6700
Wire Wire Line
	18800 6000 18800 6200
Wire Wire Line
	18600 6000 18800 6000
Connection ~ 18800 6500
Wire Wire Line
	18800 6500 18800 6600
Wire Wire Line
	18600 6200 18800 6200
Connection ~ 18800 6200
Wire Wire Line
	18800 6200 18800 6300
Wire Wire Line
	18600 6300 18800 6300
Connection ~ 18800 6300
Wire Wire Line
	18800 6300 18800 6400
Wire Wire Line
	18600 6400 18800 6400
Connection ~ 18800 6400
Wire Wire Line
	18800 6400 18800 6500
Wire Wire Line
	18600 6600 18800 6600
Connection ~ 18800 6600
Wire Wire Line
	18800 6600 18800 6700
Wire Wire Line
	18600 6700 18800 6700
Connection ~ 18800 6700
Wire Wire Line
	18800 6700 18800 6800
Wire Wire Line
	18600 6800 18800 6800
Connection ~ 18800 6800
Wire Wire Line
	18800 6800 18800 6900
Wire Wire Line
	18600 6900 18800 6900
Connection ~ 18800 6900
Wire Wire Line
	18800 6900 18800 7000
Wire Wire Line
	18600 7000 18800 7000
Connection ~ 18800 7000
Wire Wire Line
	18800 7000 18800 7100
Text GLabel 16500 6000 0    50   Input ~ 0
ICE_1.2V
Text GLabel 20450 13850 1    50   Input ~ 0
ICE_1.2V
$Comp
L schematicProject-rescue:C-Device C?
U 1 1 5BE67602
P 21100 14300
AR Path="/5BB72E68/5BE67602" Ref="C?"  Part="1" 
AR Path="/5BB736EF/5BE67602" Ref="C43"  Part="1" 
F 0 "C43" V 20848 14300 50  0000 C CNN
F 1 "0.1uF" V 20939 14300 50  0000 C CNN
F 2 "Capacitor_SMD:C_0603_1608Metric_Pad1.05x0.95mm_HandSolder" H 21138 14150 50  0001 C CNN
F 3 "~" H 21100 14300 50  0001 C CNN
	1    21100 14300
	-1   0    0    1   
$EndComp
Wire Wire Line
	16850 6300 17200 6300
Text Label 16850 6300 0    50   ~ 0
VPP_2V5
Text Label 16800 15600 2    50   ~ 0
VPP_2V5
$Comp
L Device:D_Zener D9
U 1 1 5BE71F4B
P 17450 15600
F 0 "D9" V 17404 15679 50  0000 L CNN
F 1 "1N5819" V 17495 15679 50  0000 L CNN
F 2 "Diode_SMD:D_SOD-123" H 17450 15600 50  0001 C CNN
F 3 "~" H 17450 15600 50  0001 C CNN
	1    17450 15600
	1    0    0    -1  
$EndComp
$Comp
L schematicProject-rescue:C-Device C?
U 1 1 5BE72616
P 17850 15950
AR Path="/5BB72E68/5BE72616" Ref="C?"  Part="1" 
AR Path="/5BB736EF/5BE72616" Ref="C39"  Part="1" 
F 0 "C39" V 17598 15950 50  0000 C CNN
F 1 "0.1uF" V 17689 15950 50  0000 C CNN
F 2 "Capacitor_SMD:C_0603_1608Metric_Pad1.05x0.95mm_HandSolder" H 17888 15800 50  0001 C CNN
F 3 "~" H 17850 15950 50  0001 C CNN
	1    17850 15950
	-1   0    0    1   
$EndComp
Text GLabel 18750 15600 2    50   Input ~ 0
ICE_3.3V
Wire Wire Line
	17850 15800 17850 15600
Connection ~ 17850 15600
Wire Wire Line
	17850 15600 18750 15600
Wire Wire Line
	17850 16100 17850 16250
$Comp
L schematicProject-rescue:GND-power #PWR?
U 1 1 5BEB0339
P 17850 16250
AR Path="/5BB72E68/5BEB0339" Ref="#PWR?"  Part="1" 
AR Path="/5BB736EF/5BEB0339" Ref="#PWR0160"  Part="1" 
F 0 "#PWR0160" H 17850 16000 50  0001 C CNN
F 1 "GND" H 17855 16077 50  0000 C CNN
F 2 "" H 17850 16250 50  0001 C CNN
F 3 "" H 17850 16250 50  0001 C CNN
	1    17850 16250
	1    0    0    -1  
$EndComp
Wire Wire Line
	16650 6600 16650 6500
Wire Wire Line
	16650 6000 16500 6000
Wire Wire Line
	16650 6600 17200 6600
Wire Wire Line
	16650 6000 17200 6000
Connection ~ 16650 6000
Wire Wire Line
	17200 6500 16650 6500
Connection ~ 16650 6500
Wire Wire Line
	16650 6500 16650 6000
Wire Wire Line
	17200 6700 16650 6700
Wire Wire Line
	16650 6700 16650 6600
Connection ~ 16650 6600
Wire Wire Line
	17200 6800 16650 6800
Wire Wire Line
	16650 6800 16650 6700
Connection ~ 16650 6700
$Comp
L schematicProject-rescue:C-Device C?
U 1 1 5BEE31D8
P 21500 14300
AR Path="/5BB72E68/5BEE31D8" Ref="C?"  Part="1" 
AR Path="/5BB736EF/5BEE31D8" Ref="C44"  Part="1" 
F 0 "C44" V 21248 14300 50  0000 C CNN
F 1 "0.1uF" V 21339 14300 50  0000 C CNN
F 2 "Capacitor_SMD:C_0603_1608Metric_Pad1.05x0.95mm_HandSolder" H 21538 14150 50  0001 C CNN
F 3 "~" H 21500 14300 50  0001 C CNN
	1    21500 14300
	-1   0    0    1   
$EndComp
$Comp
L schematicProject-rescue:C-Device C?
U 1 1 5BEE323A
P 21900 14300
AR Path="/5BB72E68/5BEE323A" Ref="C?"  Part="1" 
AR Path="/5BB736EF/5BEE323A" Ref="C45"  Part="1" 
F 0 "C45" V 21648 14300 50  0000 C CNN
F 1 "0.1uF" V 21739 14300 50  0000 C CNN
F 2 "Capacitor_SMD:C_0603_1608Metric_Pad1.05x0.95mm_HandSolder" H 21938 14150 50  0001 C CNN
F 3 "~" H 21900 14300 50  0001 C CNN
	1    21900 14300
	-1   0    0    1   
$EndComp
$Comp
L schematicProject-rescue:C-Device C?
U 1 1 5BEE32A2
P 22350 14300
AR Path="/5BB72E68/5BEE32A2" Ref="C?"  Part="1" 
AR Path="/5BB736EF/5BEE32A2" Ref="C46"  Part="1" 
F 0 "C46" V 22098 14300 50  0000 C CNN
F 1 "0.1uF" V 22189 14300 50  0000 C CNN
F 2 "Capacitor_SMD:C_0603_1608Metric_Pad1.05x0.95mm_HandSolder" H 22388 14150 50  0001 C CNN
F 3 "~" H 22350 14300 50  0001 C CNN
	1    22350 14300
	-1   0    0    1   
$EndComp
$Comp
L schematicProject-rescue:C-Device C?
U 1 1 5BEE3803
P 22850 14300
AR Path="/5BB72E68/5BEE3803" Ref="C?"  Part="1" 
AR Path="/5BB736EF/5BEE3803" Ref="C47"  Part="1" 
F 0 "C47" V 22598 14300 50  0000 C CNN
F 1 "0.1uF" V 22689 14300 50  0000 C CNN
F 2 "Capacitor_SMD:C_0603_1608Metric_Pad1.05x0.95mm_HandSolder" H 22888 14150 50  0001 C CNN
F 3 "~" H 22850 14300 50  0001 C CNN
	1    22850 14300
	-1   0    0    1   
$EndComp
Wire Wire Line
	15700 13950 16100 13950
Wire Wire Line
	19000 13950 19000 14100
Wire Wire Line
	19000 14400 19000 14600
Wire Wire Line
	19000 14600 18600 14600
Wire Wire Line
	16100 14600 16100 14400
Wire Wire Line
	16100 14100 16100 13950
Connection ~ 16100 13950
Wire Wire Line
	16100 13950 16500 13950
Wire Wire Line
	16500 13950 16500 14100
Connection ~ 16500 13950
Wire Wire Line
	16500 13950 16950 13950
Wire Wire Line
	16950 14100 16950 13950
Connection ~ 16950 13950
Wire Wire Line
	16950 13950 17350 13950
Wire Wire Line
	17350 14100 17350 13950
Connection ~ 17350 13950
Wire Wire Line
	17350 13950 17750 13950
Wire Wire Line
	17750 14100 17750 13950
Connection ~ 17750 13950
Wire Wire Line
	17750 13950 18150 13950
Wire Wire Line
	18150 14100 18150 13950
Connection ~ 18150 13950
Wire Wire Line
	18150 13950 18600 13950
Wire Wire Line
	18600 14100 18600 13950
Connection ~ 18600 13950
Wire Wire Line
	18600 13950 19000 13950
Wire Wire Line
	18600 14400 18600 14600
Connection ~ 18600 14600
Wire Wire Line
	18600 14600 18150 14600
Wire Wire Line
	18150 14400 18150 14600
Connection ~ 18150 14600
Wire Wire Line
	18150 14600 17750 14600
Wire Wire Line
	17750 14400 17750 14600
Connection ~ 17750 14600
Wire Wire Line
	17750 14600 17350 14600
Wire Wire Line
	17350 14400 17350 14600
Connection ~ 17350 14600
Wire Wire Line
	17350 14600 16950 14600
Wire Wire Line
	16950 14400 16950 14600
Connection ~ 16950 14600
Wire Wire Line
	16950 14600 16500 14600
Wire Wire Line
	16500 14400 16500 14600
Connection ~ 16500 14600
Wire Wire Line
	16500 14600 16100 14600
Wire Wire Line
	22850 14150 22850 13850
Wire Wire Line
	21100 14150 21100 13850
Connection ~ 21100 13850
Wire Wire Line
	21100 13850 20450 13850
Wire Wire Line
	21500 14150 21500 13850
Connection ~ 21500 13850
Wire Wire Line
	21500 13850 21100 13850
Wire Wire Line
	21900 14150 21900 13850
Connection ~ 21900 13850
Wire Wire Line
	21900 13850 21500 13850
Wire Wire Line
	22350 14150 22350 13850
Wire Wire Line
	21900 13850 22350 13850
Connection ~ 22350 13850
Wire Wire Line
	22350 13850 22850 13850
Wire Wire Line
	21100 14450 21100 14750
Wire Wire Line
	21500 14450 21500 14750
Connection ~ 21500 14750
Wire Wire Line
	21500 14750 21100 14750
Wire Wire Line
	21900 14450 21900 14750
Connection ~ 21900 14750
Wire Wire Line
	21900 14750 21500 14750
Wire Wire Line
	22350 14450 22350 14750
Wire Wire Line
	21900 14750 22350 14750
Connection ~ 22350 14750
Wire Wire Line
	22350 14750 22850 14750
Wire Wire Line
	22850 14450 22850 14750
$Comp
L schematicProject-rescue:GND-power #PWR?
U 1 1 5C080CD7
P 21900 14850
AR Path="/5BB72E68/5C080CD7" Ref="#PWR?"  Part="1" 
AR Path="/5BB736EF/5C080CD7" Ref="#PWR0162"  Part="1" 
F 0 "#PWR0162" H 21900 14600 50  0001 C CNN
F 1 "GND" H 21905 14677 50  0000 C CNN
F 2 "" H 21900 14850 50  0001 C CNN
F 3 "" H 21900 14850 50  0001 C CNN
	1    21900 14850
	1    0    0    -1  
$EndComp
$Comp
L schematicProject-rescue:GND-power #PWR?
U 1 1 5C080D2E
P 17350 14800
AR Path="/5BB72E68/5C080D2E" Ref="#PWR?"  Part="1" 
AR Path="/5BB736EF/5C080D2E" Ref="#PWR0163"  Part="1" 
F 0 "#PWR0163" H 17350 14550 50  0001 C CNN
F 1 "GND" H 17355 14627 50  0000 C CNN
F 2 "" H 17350 14800 50  0001 C CNN
F 3 "" H 17350 14800 50  0001 C CNN
	1    17350 14800
	1    0    0    -1  
$EndComp
Wire Wire Line
	21900 14750 21900 14850
Wire Wire Line
	17350 14800 17350 14600
NoConn ~ 17200 9300
NoConn ~ 17200 9200
Text HLabel 19200 9500 2    50   Input ~ 0
FMC_NWAIT
$Comp
L schematicProject-rescue:S25FL11GK U6
U 1 1 5BBA21E2
P 11650 14200
F 0 "U6" H 11550 14950 50  0000 C CNN
F 1 "S25FL11GK" H 11550 14850 50  0000 C CNN
F 2 "SOIC127P600X175-8N:SOIC127P600X175-8N" H 11650 14250 50  0001 C CNN
F 3 "" H 11650 14250 50  0001 C CNN
	1    11650 14200
	1    0    0    -1  
$EndComp
Wire Wire Line
	11450 13800 11100 13800
Wire Wire Line
	11100 13650 11100 13800
Wire Wire Line
	11450 13900 10800 13900
Wire Wire Line
	10800 13650 10800 13900
Wire Wire Line
	11450 14000 10550 14000
Wire Wire Line
	11450 14100 10300 14100
Wire Wire Line
	10300 14100 10300 13650
Wire Wire Line
	11950 13550 11950 12750
Wire Wire Line
	11950 12750 11100 12750
Connection ~ 10550 12750
Wire Wire Line
	10550 12750 10300 12750
Connection ~ 10800 12750
Wire Wire Line
	10800 12750 10550 12750
Connection ~ 11100 12750
Wire Wire Line
	11100 12750 10800 12750
Wire Wire Line
	11950 12750 11950 12450
Connection ~ 11950 12750
Wire Wire Line
	12250 13850 12650 13850
Wire Wire Line
	12250 14050 12650 14050
Wire Wire Line
	12300 12950 12300 12750
$Comp
L schematicProject-rescue:GND-omega-dock-new-cache #PWR?
U 1 1 5BC59FDB
P 12300 13250
AR Path="/5BB72E68/5BC59FDB" Ref="#PWR?"  Part="1" 
AR Path="/5BB736EF/5BC59FDB" Ref="#PWR0166"  Part="1" 
F 0 "#PWR0166" H 12300 13000 50  0001 C CNN
F 1 "GND" V 12305 13122 50  0000 R CNN
F 2 "" H 12300 13250 50  0001 C CNN
F 3 "" H 12300 13250 50  0001 C CNN
	1    12300 13250
	1    0    0    -1  
$EndComp
Wire Wire Line
	17600 15600 17850 15600
Wire Wire Line
	16800 15600 17300 15600
Text Label 16700 8700 2    50   ~ 0
FMC_A23
Text Label 16700 8600 2    50   ~ 0
FMC_A19
Text Label 16700 8500 2    50   ~ 0
FMC_A20
Text Label 16700 8400 2    50   ~ 0
FMC_A21
Text Label 16700 8300 2    50   ~ 0
FMC_A22
Text Label 14250 10100 0    50   ~ 0
FMC_D5
Text Label 14250 10200 0    50   ~ 0
FMC_D6
Text Label 14250 10000 0    50   ~ 0
FMC_D4
Text Label 14250 9900 0    50   ~ 0
FMC_D8
Text Label 14250 9800 0    50   ~ 0
FMC_D9
Text Label 14250 9700 0    50   ~ 0
FMC_D10
Text Label 14250 9600 0    50   ~ 0
FMC_D11
Text Label 16500 10500 2    50   ~ 0
FMC_D7
Text Label 16500 10300 2    50   ~ 0
FMC_D12
Text Label 16500 10400 2    50   ~ 0
FMC_D13
Text Label 16500 10600 2    50   ~ 0
FMC_D14
Text Label 19100 8700 2    50   ~ 0
FMC_A17
Text Label 19100 8600 2    50   ~ 0
FMC_A18
Text Label 19100 8500 2    50   ~ 0
FMC_D15
Text Label 19100 8400 2    50   ~ 0
FMC_A16
Text Label 19100 8300 2    50   ~ 0
FMC_D0
Text Label 16900 8100 0    50   ~ 0
FMC_D1
Text Label 19550 10100 2    50   ~ 0
FMC_D2
Text Label 19550 10000 2    50   ~ 0
FMC_D3
Text Label 17200 10400 2    50   ~ 0
FMC_A24
Text GLabel 17200 8200 0    50   Input ~ 0
IOA_1
Text GLabel 17200 8300 0    50   Input ~ 0
IOA_2
Text GLabel 17200 8400 0    50   Input ~ 0
IOA_3
Text GLabel 17200 8500 0    50   Input ~ 0
IOA_4
Text GLabel 17200 8600 0    50   Input ~ 0
IOA_5
Text GLabel 17200 8700 0    50   Input ~ 0
IOA_6
Text GLabel 18800 7800 2    50   Input ~ 0
IOA_7
Text GLabel 18800 7900 2    50   Input ~ 0
IOA_8
Text GLabel 18800 8000 2    50   Input ~ 0
IOA_9
Text GLabel 18800 8100 2    50   Input ~ 0
IOA_10
Text GLabel 17200 7900 0    50   Input ~ 0
IOA_11
Text GLabel 17200 8000 0    50   Input ~ 0
IOA_12
Text GLabel 17200 7800 0    50   Input ~ 0
IOA_13
Text GLabel 18800 8200 2    50   Input ~ 0
IOA_14
Text GLabel 20000 7100 0    50   Input ~ 0
IOA_1
Text GLabel 20000 7300 0    50   Input ~ 0
IOA_3
Text GLabel 20000 7500 0    50   Input ~ 0
IOA_5
Text GLabel 20500 7600 2    50   Input ~ 0
IOA_7
Text GLabel 20500 7400 2    50   Input ~ 0
IOA_9
Text GLabel 20500 7200 2    50   Input ~ 0
IOA_11
Text GLabel 20500 7000 2    50   Input ~ 0
IOA_13
Text GLabel 20000 7200 0    50   Input ~ 0
IOA_2
Text GLabel 20000 7400 0    50   Input ~ 0
IOA_4
Text GLabel 20000 7600 0    50   Input ~ 0
IOA_6
Text GLabel 20500 7500 2    50   Input ~ 0
IOA_8
Text GLabel 20500 7300 2    50   Input ~ 0
IOA_10
Text GLabel 20500 7100 2    50   Input ~ 0
IOA_12
Text GLabel 20500 6900 2    50   Input ~ 0
IOA_14
Text GLabel 20000 6700 0    50   Input ~ 0
ICE_3.3V
Wire Wire Line
	20000 6900 20000 7000
Wire Wire Line
	20000 6900 19550 6900
Wire Wire Line
	19550 6900 19550 6950
Connection ~ 20000 6900
Wire Wire Line
	20500 6700 20500 6800
Wire Wire Line
	20500 6700 20900 6700
Connection ~ 20500 6700
Text HLabel 14250 6700 0    50   Input ~ 0
ICE_SCK
Wire Wire Line
	16400 8300 16700 8300
Wire Wire Line
	16400 8400 16700 8400
Wire Wire Line
	16400 8500 16700 8500
Wire Wire Line
	16400 8600 16700 8600
Wire Wire Line
	16400 8700 16700 8700
Wire Wire Line
	17200 8100 16900 8100
Wire Wire Line
	18800 8300 19100 8300
Wire Wire Line
	18800 8400 19100 8400
Wire Wire Line
	18800 8500 19100 8500
Wire Wire Line
	18800 8600 19100 8600
Wire Wire Line
	18800 8700 19100 8700
Wire Wire Line
	19200 10000 19550 10000
Wire Wire Line
	19200 10100 19550 10100
Text HLabel 16500 7800 2    50   Input ~ 0
ICE_SCL
Text HLabel 16500 7900 2    50   Input ~ 0
ICE_SDA
Wire Wire Line
	16500 7800 16400 7800
Wire Wire Line
	16400 7900 16500 7900
$Comp
L schematicProject-rescue:C-Device C?
U 1 1 5BCFC895
P 19450 14250
AR Path="/5BB72E68/5BCFC895" Ref="C?"  Part="1" 
AR Path="/5BB736EF/5BCFC895" Ref="C52"  Part="1" 
F 0 "C52" V 19198 14250 50  0000 C CNN
F 1 "0.1uF" V 19289 14250 50  0000 C CNN
F 2 "Capacitor_SMD:C_0603_1608Metric_Pad1.05x0.95mm_HandSolder" H 19488 14100 50  0001 C CNN
F 3 "~" H 19450 14250 50  0001 C CNN
	1    19450 14250
	-1   0    0    1   
$EndComp
Wire Wire Line
	19450 14100 19450 13950
Wire Wire Line
	19450 13950 19000 13950
Connection ~ 19000 13950
Wire Wire Line
	19450 14400 19450 14600
Wire Wire Line
	19450 14600 19000 14600
Connection ~ 19000 14600
$Comp
L ICE40HX1K-TQ144:ICE40HX1K-TQ144 U?
U 1 1 5BB7B3B9
P 16800 8100
AR Path="/5BB72E68/5BB7B3B9" Ref="U?"  Part="1" 
AR Path="/5BB736EF/5BB7B3B9" Ref="U7"  Part="1" 
F 0 "U7" H 16900 10588 50  0000 C CNN
F 1 "ICE40HX1K-TQ144" H 16900 10497 50  0000 C CNN
F 2 "ICE40HX1K-TQ144:QFP50P2200X2200X160-144N" H 16800 8100 50  0001 L BNN
F 3 "None" H 16800 8100 50  0001 L BNN
F 4 "Lattice Semiconductor" H 16800 8100 50  0001 L BNN "Field4"
F 5 "TQFP-144 Lattice Semiconductor" H 16800 8100 50  0001 L BNN "Field5"
F 6 "Unavailable" H 16800 8100 50  0001 L BNN "Field6"
F 7 "HX Series 1280 LUTs 95 I/O 64 kBit RAM 1.2 V Surface Mount FPGA - TQFP-144" H 16800 8100 50  0001 L BNN "Field7"
F 8 "ICE40HX1K-TQ144" H 16800 8100 50  0001 L BNN "Field8"
	1    16800 8100
	1    0    0    -1  
$EndComp
$Comp
L schematicProject-rescue:LED-device D?
U 1 1 5C90A41A
P 16600 12100
AR Path="/5BB72E68/5C90A41A" Ref="D?"  Part="1" 
AR Path="/5BB736EF/5C90A41A" Ref="D6"  Part="1" 
F 0 "D6" H 16592 11845 50  0000 C CNN
F 1 "LED" H 16592 11936 50  0000 C CNN
F 2 "LED_SMD:LED_0603_1608Metric" H 16600 12100 50  0001 C CNN
F 3 "~" H 16600 12100 50  0001 C CNN
	1    16600 12100
	-1   0    0    1   
$EndComp
$Comp
L schematicProject-rescue:R-device R?
U 1 1 5C90A420
P 16950 12100
AR Path="/5BB72E68/5C90A420" Ref="R?"  Part="1" 
AR Path="/5BB736EF/5C90A420" Ref="R23"  Part="1" 
F 0 "R23" V 16743 12100 50  0000 C CNN
F 1 "1k" V 16834 12100 50  0000 C CNN
F 2 "Resistor_SMD:R_0603_1608Metric_Pad1.05x0.95mm_HandSolder" V 16880 12100 50  0001 C CNN
F 3 "" H 16950 12100 50  0001 C CNN
	1    16950 12100
	0    1    1    0   
$EndComp
$Comp
L schematicProject-rescue:GND-omega-dock-new-cache #PWR?
U 1 1 5C90A426
P 17200 12100
AR Path="/5BB72E68/5C90A426" Ref="#PWR?"  Part="1" 
AR Path="/5BB736EF/5C90A426" Ref="#PWR0112"  Part="1" 
F 0 "#PWR0112" H 17200 11850 50  0001 C CNN
F 1 "GND" V 17205 11972 50  0000 R CNN
F 2 "" H 17200 12100 50  0001 C CNN
F 3 "" H 17200 12100 50  0001 C CNN
	1    17200 12100
	0    -1   -1   0   
$EndComp
Wire Wire Line
	16750 12100 16800 12100
Wire Wire Line
	17100 12100 17200 12100
Wire Wire Line
	16150 12100 16450 12100
Text Label 16150 12100 0    50   ~ 0
CDONE
Text HLabel 23700 12700 2    50   Input ~ 0
CRST
Text HLabel 16950 7600 0    50   Input ~ 0
CRST
$Comp
L schematicProject-rescue:R-device R?
U 1 1 5C901980
P 21800 11350
AR Path="/5BB72E68/5C901980" Ref="R?"  Part="1" 
AR Path="/5BB736EF/5C901980" Ref="R24"  Part="1" 
F 0 "R24" V 21593 11350 50  0000 C CNN
F 1 "1k" V 21684 11350 50  0000 C CNN
F 2 "Resistor_SMD:R_0603_1608Metric_Pad1.05x0.95mm_HandSolder" V 21730 11350 50  0001 C CNN
F 3 "" H 21800 11350 50  0001 C CNN
	1    21800 11350
	0    1    1    0   
$EndComp
$Comp
L schematicProject-rescue:C-Device C?
U 1 1 5C902528
P 22000 11950
AR Path="/5BB72E68/5C902528" Ref="C?"  Part="1" 
AR Path="/5BB736EF/5C902528" Ref="C34"  Part="1" 
F 0 "C34" V 21748 11950 50  0000 C CNN
F 1 "0.1uF" V 21839 11950 50  0000 C CNN
F 2 "Capacitor_SMD:C_0603_1608Metric_Pad1.05x0.95mm_HandSolder" H 22038 11800 50  0001 C CNN
F 3 "~" H 22000 11950 50  0001 C CNN
	1    22000 11950
	0    -1   -1   0   
$EndComp
$Comp
L Oscillator:SG-210SDD X2
U 1 1 5C904B01
P 22400 11350
F 0 "X2" H 22800 11600 50  0000 L CNN
F 1 "SG-210SDD" H 22700 11500 50  0000 L CNN
F 2 "Oscillator:Oscillator_SMD_SeikoEpson_SG210-4Pin_2.5x2.0mm" H 22850 11000 50  0001 C CNN
F 3 "https://support.epson.biz/td/api/doc_check.php?mode=dl&lang=en&Parts=SG-210SED" H 22300 11350 50  0001 C CNN
	1    22400 11350
	1    0    0    -1  
$EndComp
Text GLabel 22550 10850 2    50   Input ~ 0
ICE_3.3V
Wire Wire Line
	22400 11050 22400 10850
Wire Wire Line
	22400 10850 22550 10850
Wire Wire Line
	21950 11350 22100 11350
Wire Wire Line
	21650 11350 21650 10850
Wire Wire Line
	21650 10850 22400 10850
Connection ~ 22400 10850
Wire Wire Line
	21650 11950 21650 11350
Connection ~ 21650 11350
$Comp
L schematicProject-rescue:GND-power #PWR?
U 1 1 5C941787
P 22250 12050
AR Path="/5BB72E68/5C941787" Ref="#PWR?"  Part="1" 
AR Path="/5BB736EF/5C941787" Ref="#PWR0113"  Part="1" 
F 0 "#PWR0113" H 22250 11800 50  0001 C CNN
F 1 "GND" H 22255 11877 50  0000 C CNN
F 2 "" H 22250 12050 50  0001 C CNN
F 3 "" H 22250 12050 50  0001 C CNN
	1    22250 12050
	1    0    0    -1  
$EndComp
Wire Wire Line
	22250 12050 22250 11950
Wire Wire Line
	21850 11950 21650 11950
Wire Wire Line
	22400 11650 22400 11950
Wire Wire Line
	22150 11950 22250 11950
Connection ~ 22250 11950
Wire Wire Line
	22250 11950 22400 11950
Wire Wire Line
	14600 7600 14500 7600
Text Label 14500 7600 2    50   ~ 0
ICECLK
Text Label 22900 11350 0    50   ~ 0
ICECLK
Wire Wire Line
	22700 11350 22900 11350
Wire Bus Line
	12400 9550 12400 10500
Wire Bus Line
	13250 9150 13250 10800
$EndSCHEMATC
