M48
;DRILL file {KiCad 6.0.0-rc1-unknown-ef6f7e9~84~ubuntu16.04.1} date Wed Oct 17 20:40:02 2018
;FORMAT={-:-/ absolute / inch / decimal}
FMAT,2
INCH
T1C0.0118
T2C0.0197
T3C0.0276
T4C0.0362
T5C0.0390
T6C0.0394
T7C0.0400
T8C0.0512
T9C0.0906
T10C0.0787
T11C0.0886
%
G90
G05
M72
T1
X5.2441Y-3.4252
X5.2638Y-3.3976
X5.3524Y-2.3524
X5.374Y-2.3701
X5.3957Y-2.3957
X5.3957Y-3.2598
X5.4173Y-3.2445
X5.4429Y-2.1043
X5.4547Y-1.2264
X5.4764Y-1.9429
X5.4795Y-2.035
X5.4843Y-1.252
X5.4941Y-1.9139
X5.502Y-1.1457
X5.5039Y-1.9363
X5.5138Y-1.2815
X5.5251Y-1.6954
X5.5256Y-1.1713
X5.5354Y-1.1102
X5.5373Y-1.9587
X5.5374Y-1.3071
X5.5413Y-1.6024
X5.5512Y-1.1988
X5.5531Y-1.1555
X5.5591Y-1.0846
X5.5709Y-1.2244
X5.5768Y-1.1319
X5.5768Y-1.1811
X5.5873Y-2.0145
X5.5908Y-1.5532
X5.5915Y-1.6219
X5.5925Y-1.0945
X5.5984Y-1.2028
X5.6043Y-1.1476
X5.6074Y-1.8563
X5.6077Y-1.534
X5.6083Y-1.252
X5.6161Y-1.1161
X5.622Y-1.7677
X5.626Y-1.1732
X5.6339Y-1.3406
X5.6378Y-1.2283
X5.6492Y-1.8846
X5.6496Y-1.1457
X5.6496Y-1.5079
X5.6673Y-1.2047
X5.689Y-1.1791
X5.7028Y-1.9547
X5.7047Y-2.2402
X5.7051Y-2.1173
X5.7055Y-1.7622
X5.7059Y-1.6969
X5.7323Y-1.9587
X5.7374Y-2.4117
X5.7576Y-2.2879
X5.7618Y-2.4193
X5.7728Y-1.6083
X5.8425Y-1.5709
X5.8426Y-2.5946
X5.8543Y-2.2815
X5.8819Y-1.5295
X5.8878Y-1.5039
X5.8913Y-0.8917
X5.9055Y-0.9134
X5.9094Y-3.4331
X5.9154Y-0.8701
X5.9163Y-2.3297
X5.9363Y-1.483
X5.9395Y-2.3509
X5.9606Y-1.4383
X5.9606Y-1.5079
X6.0118Y-1.3819
X6.0138Y-1.4646
X6.0354Y-1.3525
X6.0354Y-2.4665
X6.0442Y-1.3298
X6.0807Y-1.2913
X6.1122Y-1.3307
X6.1122Y-2.4272
X6.122Y-2.3976
X6.1378Y-1.374
X6.1457Y-1.4705
X6.1575Y-1.3976
X6.1614Y-1.4449
X6.1831Y-1.4213
X6.1949Y-1.6102
X6.1969Y-2.4016
X6.2421Y-1.2504
X6.2421Y-1.563
X6.2579Y-2.0197
X6.2787Y-2.3138
X6.2909Y-2.0547
X6.335Y-2.5323
X6.3427Y-2.0709
X6.3563Y-2.4764
X6.3602Y-1.6713
X6.3622Y-1.2874
X6.3794Y-2.0236
X6.3799Y-1.0709
X6.4094Y-1.6732
X6.4094Y-1.998
X6.4114Y-1.6413
X6.4532Y-1.6831
X6.4764Y-1.7382
X6.4793Y-1.9291
X6.4803Y-1.8602
X6.4839Y-2.1004
X6.4864Y-1.7935
X6.5079Y-1.7461
X6.5079Y-1.9016
X6.5138Y-1.2756
X6.5295Y-1.5827
X6.5295Y-1.7657
X6.5453Y-1.8543
X6.5558Y-1.6083
X6.5563Y-2.0335
X6.563Y-2.2862
X6.5675Y-1.7928
X6.5768Y-2.3839
X6.582Y-2.0039
X6.5862Y-2.2677
X6.5862Y-2.2677
X6.5862Y-2.2677
X6.6051Y-2.2461
X6.6063Y-2.4094
X6.6083Y-2.3622
X6.6378Y-2.3937
X6.6378Y-2.435
X6.6398Y-1.4035
X6.6752Y-1.3543
X6.6831Y-1.5413
X6.7126Y-1.4075
X6.7205Y-1.315
X6.7358Y-1.663
X6.7421Y-1.378
X6.7598Y-1.5492
X6.7618Y-1.2697
X6.7776Y-1.3445
X6.7815Y-2.6417
X6.7972Y-1.2323
X6.811Y-1.311
X6.815Y-1.5492
X6.815Y-2.7677
X6.8189Y-2.6535
X6.8209Y-1.5079
X6.8366Y-1.8228
X6.8406Y-1.1969
X6.8445Y-1.2815
X6.8622Y-1.5492
X6.8622Y-2.8228
X6.8642Y-1.5098
X6.8642Y-1.8031
X6.8661Y-1.4685
X6.8661Y-1.8524
X6.8661Y-2.7736
X6.8819Y-1.248
X6.8878Y-1.8307
X6.8898Y-1.1772
X6.8996Y-1.8819
X6.9016Y-1.5492
X6.9035Y-1.5098
X6.9075Y-1.4665
X6.9094Y-1.4252
X6.9134Y-2.748
X6.9154Y-2.7894
X6.9193Y-2.8268
X6.9213Y-1.8622
X7.0118Y-2.2688
X7.0217Y-2.6476
X7.0217Y-2.6831
X7.0217Y-2.7185
X7.0217Y-2.7559
X7.0217Y-2.7913
X7.0217Y-2.8268
X7.0551Y-2.685
X7.0551Y-2.7165
X7.0551Y-2.7539
X7.0571Y-2.6476
X7.0571Y-2.7933
X7.0571Y-2.8248
X7.0689Y-2.1575
X7.0827Y-2.2629
X7.0846Y-2.8681
X7.1004Y-2.2362
X7.1102Y-1.315
X7.1161Y-1.2303
X7.1201Y-3.4134
X7.122Y-2.0965
X7.124Y-1.1929
X7.1339Y-3.7126
X7.1949Y-1.2343
X7.1969Y-1.1949
X7.2067Y-1.315
X7.2362Y-1.1969
X7.2402Y-1.2343
X7.2598Y-1.315
X7.2795Y-1.1969
X7.2795Y-1.2362
X7.3169Y-1.3189
X7.3248Y-1.1969
X7.3287Y-1.2382
X7.4114Y-1.6299
X7.439Y-1.7539
X7.5118Y-3.1161
X7.5256Y-1.6654
X7.8425Y-3.0925
X7.9173Y-0.6705
X7.9173Y-3.1161
X8.3886Y-1.2713
T2
X6.0512Y-2.1476
X6.0512Y-2.2067
X6.1043Y-1.4232
X6.1043Y-1.5157
X6.8898Y-2.439
X6.9114Y-2.6831
X6.4508Y-2.4291
X6.4786Y-2.4013
X6.5065Y-2.3735
T3
X5.2598Y-1.3169
X5.2953Y-1.7244
X5.2953Y-2.5531
X5.2953Y-3.1319
X5.3681Y-3.378
X5.4232Y-1.1516
X5.6004Y-3.6102
X5.9173Y-3.6319
X6.0039Y-1.0039
X6.0827Y-1.0827
X6.1752Y-1.0709
X6.5492Y-3.6299
X6.8425Y-3.6299
X6.9783Y-1.4823
X6.9783Y-1.6417
X6.9783Y-1.9331
X7.2303Y-1.0039
X7.7933Y-1.0039
X8.0945Y-1.5492
X8.2598Y-1.6654
X8.2953Y-1.2165
T4
X7.7854Y-4.0374
X7.7854Y-4.1406
X7.8839Y-4.0374
X7.8839Y-4.1406
X7.9626Y-4.0374
X7.9626Y-4.1406
X8.061Y-4.0374
X8.061Y-4.1406
T5
X7.8248Y-0.6634
X8.002Y-0.6634
X6.7283Y-4.3661
X6.9055Y-4.3661
T6
X4.9713Y-2.1063
X5.0713Y-2.1063
X5.1713Y-2.1063
X4.9713Y-2.5571
X5.0713Y-2.5571
X5.1713Y-2.5571
X4.9713Y-2.2579
X5.0713Y-2.2579
X5.1713Y-2.2579
X4.9732Y-2.998
X5.0732Y-2.998
X5.1732Y-2.998
X6.1209Y-0.6724
X6.1209Y-0.7724
X6.2209Y-0.6724
X6.2209Y-0.7724
X6.3209Y-0.6724
X6.3209Y-0.7724
X6.4209Y-0.6724
X6.4209Y-0.7724
X6.5209Y-0.6724
X6.5209Y-0.7724
X6.6209Y-0.6724
X6.6209Y-0.7724
X6.7209Y-0.6724
X6.7209Y-0.7724
X6.8209Y-0.6724
X6.8209Y-0.7724
X6.9209Y-0.6724
X6.9209Y-0.7724
X7.0209Y-0.6724
X7.0209Y-0.7724
X4.9732Y-2.8524
X5.0732Y-2.8524
X5.1732Y-2.8524
X4.9713Y-2.4154
X5.0713Y-2.4154
X5.1713Y-2.4154
X5.0492Y-3.1988
X5.0492Y-3.2988
X5.0492Y-3.3988
X5.0492Y-3.4988
X7.2024Y-0.6709
X7.3024Y-0.6709
X7.4024Y-0.6709
X7.5024Y-0.6709
X4.9732Y-2.7047
X5.0732Y-2.7047
X5.1732Y-2.7047
X4.9827Y-0.828
X4.9827Y-0.928
X4.9827Y-1.028
X4.9827Y-1.128
X4.9827Y-1.228
X4.9827Y-1.328
X4.9827Y-1.428
X4.9827Y-1.528
X4.9827Y-1.628
X4.9827Y-1.728
X4.9827Y-1.828
T7
X7.2008Y-1.4705
X7.2008Y-1.5492
X7.2008Y-1.628
X7.2008Y-1.7067
X7.2008Y-1.7854
X7.2008Y-1.8642
X7.2008Y-1.9429
X7.2008Y-2.0217
X7.2008Y-2.1004
X7.2008Y-2.1791
X7.2008Y-2.2579
X7.2008Y-2.3366
X7.2008Y-2.4154
X7.2008Y-2.4941
X7.2008Y-2.5728
X7.2008Y-2.6516
X8.1614Y-1.4705
X8.1614Y-1.5492
X8.1614Y-1.628
X8.1614Y-1.7067
X8.1614Y-1.7854
X8.1614Y-1.8642
X8.1614Y-1.9429
X8.1614Y-2.0217
X8.1614Y-2.1004
X8.1614Y-2.1791
X8.1614Y-2.2579
X8.1614Y-2.3366
X8.1614Y-2.4154
X8.1614Y-2.4941
X8.1614Y-2.5728
X8.1614Y-2.6516
T8
X7.7756Y-0.7614
X8.0516Y-0.7614
X6.6787Y-4.2681
X6.9547Y-4.2681
T9
X7.6646Y-4.0236
X7.6646Y-4.2472
X8.1819Y-4.0236
X8.1819Y-4.2472
T10
X4.8937Y-4.0512
T11
X7.2874Y-2.7461
X8.0748Y-2.7421
T0
M30
