EESchema Schematic File Version 4
LIBS:schematicProject-cache
EELAYER 29 0
EELAYER END
$Descr A1 33110 23386
encoding utf-8
Sheet 1 5
Title "schematic"
Date ""
Rev ""
Comp ""
Comment1 ""
Comment2 ""
Comment3 ""
Comment4 ""
$EndDescr
$Sheet
S 13750 10300 2550 2850
U 5BA1DFB2
F0 "Sheet5BA1DFB1" 50
F1 "OMEGA2.sch" 50
F2 "ON1_RX" I L 13750 11900 50 
F3 "ON1_TX" I L 13750 12100 50 
F4 "ON_MISO" I R 16300 12300 50 
F5 "ON_MOSI" I R 16300 12450 50 
F6 "ONSPI_CLK" I R 16300 12600 50 
F7 "JTMS" I L 13750 11500 50 
F8 "JTCK" I L 13750 11100 50 
F9 "JTDI" I L 13750 11300 50 
F10 "JTDO" I L 13750 10700 50 
F11 "JTRST" I L 13750 10900 50 
F12 "BOOT0" I L 13750 11700 50 
F13 "JNRST" I L 13750 10500 50 
F14 "SCL" I R 16300 11650 50 
F15 "SDA" I R 16300 11500 50 
F16 "ON_3V3" I L 13750 12500 50 
F17 "ONSPI_CS" I R 16300 12750 50 
F18 "fpgaRST" I R 16300 12050 50 
$EndSheet
Wire Wire Line
	13750 10500 11350 10500
Wire Wire Line
	13750 10700 11350 10700
Wire Wire Line
	13750 10900 11350 10900
Wire Wire Line
	13750 11100 11350 11100
Wire Wire Line
	13750 11300 11350 11300
Wire Wire Line
	13750 11500 11350 11500
Wire Wire Line
	13750 11700 11350 11700
Wire Wire Line
	13750 11900 11350 11900
Wire Wire Line
	11350 12100 13750 12100
Wire Wire Line
	16300 11500 16650 11500
Wire Wire Line
	16300 11650 16650 11650
Text Label 16650 11500 2    50   ~ 0
SDA
Text Label 16650 11650 2    50   ~ 0
SCL
$Comp
L schematicProject-rescue:Conn_01x04-Connector_Generic J2
U 1 1 5B9AF69A
P 6850 8200
F 0 "J2" H 6770 7775 50  0000 C CNN
F 1 "Conn_01x04" H 6770 7866 50  0000 C CNN
F 2 "Connector_PinSocket_2.54mm:PinSocket_1x04_P2.54mm_Horizontal" H 6850 8200 50  0001 C CNN
F 3 "~" H 6850 8200 50  0001 C CNN
	1    6850 8200
	-1   0    0    1   
$EndComp
Wire Wire Line
	8050 8200 7050 8200
Wire Wire Line
	7050 8100 8050 8100
$Comp
L schematicProject-rescue:GND-power #PWR0108
U 1 1 5B9B5494
P 7100 8400
F 0 "#PWR0108" H 7100 8150 50  0001 C CNN
F 1 "GND" H 7105 8227 50  0000 C CNN
F 2 "" H 7100 8400 50  0001 C CNN
F 3 "" H 7100 8400 50  0001 C CNN
	1    7100 8400
	1    0    0    -1  
$EndComp
Wire Wire Line
	7050 8300 7100 8300
Wire Wire Line
	7100 8300 7100 8400
Wire Wire Line
	7050 8000 7200 8000
Wire Wire Line
	7200 8000 7200 7800
Text Label 7600 8100 0    50   ~ 0
SCL
Text Label 7600 8200 0    50   ~ 0
SDA
$Sheet
S 3900 9200 2550 2400
U 5BB31CB8
F0 "power" 59
F1 "power.sch" 67
$EndSheet
$Sheet
S 13750 6650 2050 3350
U 5BB736EF
F0 "FPGAice40x1" 50
F1 "FPGAice40.sch" 50
F2 "FMC_D[15:0]" B L 13750 9300 50 
F3 "FMC_A[24:16]" I L 13750 9500 50 
F4 "ICE40_NOE" I L 13750 7750 50 
F5 "ICE40_NWE" I L 13750 8200 50 
F6 "ICE40_NE1" I L 13750 8050 50 
F7 "ICE40_NL_NADV" I L 13750 8350 50 
F8 "ICE_SCK" I R 15800 9100 50 
F9 "ICE_SI" I R 15800 9250 50 
F10 "ICE_SO" I R 15800 9400 50 
F11 "ICE_SS" I R 15800 8950 50 
F12 "NBL_0" I L 13750 7450 50 
F13 "NBL_1" I L 13750 7600 50 
F14 "FMC_CLK" I L 13750 8500 50 
F15 "ICE_SDA" I R 15800 8150 50 
F16 "ICE_SCL" I R 15800 8300 50 
F17 "FMC_NWAIT" I L 13750 7900 50 
F18 "CRST" I R 15800 9600 50 
$EndSheet
$Sheet
S 8050 7200 3300 5700
U 5B7D7B54
F0 "stm32f446re" 60
F1 "stm32f446re.sch" 60
F2 "JTDI" I R 11350 11300 50 
F3 "JTMS" I R 11350 11500 50 
F4 "JTCK" I R 11350 11100 50 
F5 "JTRST" I R 11350 10900 50 
F6 "JNRST" I R 11350 10500 50 
F7 "BOOT0" T R 11350 11700 50 
F8 "JTDO" I R 11350 10700 50 
F9 "ONUART_TX" I R 11350 11900 50 
F10 "ONUART_RX" I R 11350 12100 50 
F11 "SDA" I L 8050 8200 50 
F12 "SCL" I L 8050 8100 50 
F13 "FMC_NBL1" O R 11350 7600 50 
F14 "FMC_NBL0" O R 11350 7450 50 
F15 "FMC_D[15:0]" B R 11350 9300 50 
F16 "FMC_NOE" O R 11350 7750 50 
F17 "FMC_NWAIT" O R 11350 7900 50 
F18 "FMC_NE1" O R 11350 8050 50 
F19 "FMC_NWE" O R 11350 8200 50 
F20 "FMC_NADV" O R 11350 8350 50 
F21 "FMC_A[24:16]" O R 11350 9500 50 
F22 "STM3V3" I L 8050 8850 50 
F23 "FMC_CLK" O R 11350 8500 50 
$EndSheet
Wire Wire Line
	11350 7450 13750 7450
Wire Wire Line
	11350 7600 13750 7600
Wire Wire Line
	11350 7750 13750 7750
Wire Wire Line
	11350 7900 13750 7900
Wire Wire Line
	11350 8050 13750 8050
Wire Wire Line
	11350 8200 13750 8200
Wire Wire Line
	11350 8350 13750 8350
Wire Wire Line
	11350 8500 13750 8500
Wire Bus Line
	11350 9300 13750 9300
Wire Bus Line
	11350 9500 13750 9500
Wire Wire Line
	16300 12750 18150 12750
Wire Wire Line
	18150 12750 18150 8950
Wire Wire Line
	18150 8950 15800 8950
Wire Wire Line
	15800 9100 17950 9100
Wire Wire Line
	17950 9100 17950 12600
Wire Wire Line
	17950 12600 16300 12600
Wire Wire Line
	16300 12450 17750 12450
Wire Wire Line
	17750 12450 17750 9250
Wire Wire Line
	17750 9250 15800 9250
Wire Wire Line
	15800 9400 17600 9400
Wire Wire Line
	17600 9400 17600 12300
Wire Wire Line
	17600 12300 16300 12300
Wire Wire Line
	15800 8150 16150 8150
Wire Wire Line
	15800 8300 16150 8300
Text Label 16150 8150 2    50   ~ 0
SDA
Text Label 16150 8300 2    50   ~ 0
SCL
Wire Wire Line
	13750 12500 13500 12500
Text GLabel 13500 12500 0    50   Input ~ 0
3V3_PRIN
Text GLabel 7750 8850 0    50   Input ~ 0
3V3_PRIN
Wire Wire Line
	8050 8850 7750 8850
Text GLabel 7200 7800 1    50   Input ~ 0
3V3_PRIN
Wire Wire Line
	15800 9600 17350 9600
Wire Wire Line
	17350 9600 17350 12050
Wire Wire Line
	17350 12050 16300 12050
$EndSCHEMATC
