EESchema Schematic File Version 4
LIBS:schematicProject-cache
EELAYER 29 0
EELAYER END
$Descr A2 23386 16535
encoding utf-8
Sheet 5 5
Title ""
Date ""
Rev ""
Comp ""
Comment1 ""
Comment2 ""
Comment3 ""
Comment4 ""
$EndDescr
Text HLabel 3650 9700 0    50   Output ~ 0
FMC_NBL1
Text HLabel 3650 9600 0    50   Output ~ 0
FMC_NBL0
Text HLabel 3500 11350 0    50   BiDi ~ 0
FMC_D[15:0]
Entry Wire Line
	3650 10700 3750 10600
Entry Wire Line
	3650 10700 3750 10600
Entry Wire Line
	3650 10600 3750 10500
Entry Wire Line
	3650 10800 3750 10700
Entry Wire Line
	3650 10900 3750 10800
Entry Wire Line
	3650 11000 3750 10900
Entry Wire Line
	3650 11100 3750 11000
Entry Wire Line
	3650 11200 3750 11100
Text Label 3800 10300 0    50   ~ 0
FMC_D4
Text Label 3800 10400 0    50   ~ 0
FMC_D5
Text Label 3800 10500 0    50   ~ 0
FMC_D6
Text Label 3800 10600 0    50   ~ 0
FMC_D7
Text Label 3800 10700 0    50   ~ 0
FMC_D8
Text Label 3800 10800 0    50   ~ 0
FMC_D9
Text Label 3750 10900 0    50   ~ 0
FMC_D10
Text Label 3750 11000 0    50   ~ 0
FMC_D11
Text Label 3750 11100 0    50   ~ 0
FMC_D12
Entry Wire Line
	13950 10500 13850 10600
Entry Wire Line
	13950 10400 13850 10500
Entry Wire Line
	13950 10300 13850 10400
Entry Wire Line
	14250 10800 14150 10900
Text Label 13500 10900 0    50   ~ 0
FMC_A18
Entry Wire Line
	14250 10700 14150 10800
Text Label 13500 10800 0    50   ~ 0
FMC_A17
Entry Wire Line
	14250 10600 14150 10700
Text Label 13500 10700 0    50   ~ 0
FMC_A16
Text Label 3700 9800 0    50   ~ 0
FMC_A23
Text Label 3700 9900 0    50   ~ 0
FMC_A19
Text Label 3700 10000 0    50   ~ 0
FMC_A20
Text Label 3700 10200 0    50   ~ 0
FMC_A22
Text Label 3700 10100 0    50   ~ 0
FMC_A21
Entry Wire Line
	3750 10300 3650 10400
Entry Wire Line
	3650 10500 3750 10400
Entry Wire Line
	3650 10500 3750 10400
Wire Wire Line
	13500 9900 14150 9900
Text HLabel 14150 10000 2    60   Output ~ 0
FMC_NOE
Wire Wire Line
	13500 10000 14150 10000
Text HLabel 14150 10200 2    60   Output ~ 0
FMC_NWAIT
Wire Wire Line
	13500 10200 14150 10200
Text HLabel 14150 10300 2    60   Output ~ 0
FMC_NE1
Wire Wire Line
	13500 10100 14150 10100
Text HLabel 14150 10100 2    60   Output ~ 0
FMC_NWE
Text Label 3750 7500 0    50   ~ 0
FCM_A24
Wire Wire Line
	13500 6900 14150 6900
Text HLabel 14150 6900 2    60   Output ~ 0
FMC_NADV
$Comp
L schematicProject-rescue:GND-power #PWR0132
U 1 1 5B878C9A
P 16200 9300
F 0 "#PWR0132" H 16200 9050 50  0001 C CNN
F 1 "GND" H 16205 9127 50  0000 C CNN
F 2 "" H 16200 9300 50  0001 C CNN
F 3 "" H 16200 9300 50  0001 C CNN
	1    16200 9300
	0    -1   -1   0   
$EndComp
Wire Wire Line
	3650 9700 4100 9700
Wire Wire Line
	3650 9600 4100 9600
Wire Wire Line
	9200 3900 9200 3750
Wire Wire Line
	9000 3750 9000 3900
Wire Wire Line
	9100 3900 9100 3750
Wire Wire Line
	9000 3750 9100 3750
Connection ~ 9100 3750
Wire Wire Line
	9100 3750 9200 3750
Wire Wire Line
	8200 3900 8200 3750
Connection ~ 9000 3750
Wire Wire Line
	8300 3900 8300 3750
Wire Wire Line
	8200 3750 8300 3750
Connection ~ 8300 3750
Wire Wire Line
	8300 3750 8400 3750
Wire Wire Line
	8400 3900 8400 3750
Connection ~ 8400 3750
Wire Wire Line
	8500 3900 8500 3750
Wire Wire Line
	8400 3750 8500 3750
Connection ~ 8500 3750
Wire Wire Line
	8500 3750 8600 3750
Wire Wire Line
	8600 3900 8600 3750
Connection ~ 8600 3750
Wire Wire Line
	8600 3750 8700 3750
Wire Wire Line
	8700 3900 8700 3750
Connection ~ 8700 3750
Wire Wire Line
	8700 3750 8800 3750
Wire Wire Line
	8800 3900 8800 3750
Connection ~ 8800 3750
Wire Wire Line
	8800 3750 8900 3750
Wire Wire Line
	8900 3900 8900 3750
Connection ~ 8900 3750
Wire Wire Line
	8900 3750 9000 3750
Wire Wire Line
	8600 3550 8700 3550
Wire Wire Line
	8700 3550 8700 3750
$Comp
L schematicProject-rescue:C-device C29
U 1 1 5B8A98C9
P 16000 8900
F 0 "C29" H 15850 8800 50  0000 C CNN
F 1 "7pF" H 15800 8900 50  0000 C CNN
F 2 "Capacitor_SMD:C_0603_1608Metric_Pad1.05x0.95mm_HandSolder" H 16038 8750 50  0001 C CNN
F 3 "" H 16000 8900 50  0001 C CNN
	1    16000 8900
	0    1    1    0   
$EndComp
$Comp
L schematicProject-rescue:C-device C30
U 1 1 5B8E7F7A
P 16000 9700
F 0 "C30" H 15800 9800 50  0000 C CNN
F 1 "7pF" H 15800 9700 50  0000 C CNN
F 2 "Capacitor_SMD:C_0603_1608Metric_Pad1.05x0.95mm_HandSolder" H 16038 9550 50  0001 C CNN
F 3 "" H 16000 9700 50  0001 C CNN
	1    16000 9700
	0    -1   -1   0   
$EndComp
Connection ~ 16200 9300
Wire Wire Line
	13500 9300 14950 9300
Wire Wire Line
	13500 9400 14950 9400
Wire Wire Line
	13500 6000 14150 6000
Text HLabel 14150 6000 2    60   Input ~ 0
JTDI
Wire Wire Line
	13500 5800 14150 5800
Text HLabel 14150 5800 2    60   Input ~ 0
JTMS
Wire Wire Line
	13500 5900 14150 5900
Text HLabel 14150 5900 2    60   Input ~ 0
JTCK
Wire Wire Line
	13500 6600 14150 6600
Text HLabel 14150 6600 2    60   Input ~ 0
JTRST
Wire Wire Line
	4100 4500 3450 4500
Text HLabel 3450 4500 0    60   Input ~ 0
JNRST
Connection ~ 9200 3750
$Comp
L schematicProject-rescue:C-device C21
U 1 1 5B894013
P 5700 2650
F 0 "C21" H 5815 2696 50  0000 L CNN
F 1 "100nF" H 5815 2605 50  0000 L CNN
F 2 "Capacitor_SMD:C_0603_1608Metric_Pad1.05x0.95mm_HandSolder" H 5738 2500 50  0001 C CNN
F 3 "" H 5700 2650 50  0001 C CNN
	1    5700 2650
	1    0    0    -1  
$EndComp
$Comp
L schematicProject-rescue:C-device C23
U 1 1 5B894088
P 6200 2650
F 0 "C23" H 6315 2696 50  0000 L CNN
F 1 "1uF" H 6315 2605 50  0000 L CNN
F 2 "Capacitor_SMD:C_0603_1608Metric_Pad1.05x0.95mm_HandSolder" H 6238 2500 50  0001 C CNN
F 3 "" H 6200 2650 50  0001 C CNN
	1    6200 2650
	1    0    0    -1  
$EndComp
$Comp
L schematicProject-rescue:GND-power #PWR0134
U 1 1 5B896EA5
P 5950 2900
F 0 "#PWR0134" H 5950 2650 50  0001 C CNN
F 1 "GND" H 5955 2727 50  0000 C CNN
F 2 "" H 5950 2900 50  0001 C CNN
F 3 "" H 5950 2900 50  0001 C CNN
	1    5950 2900
	1    0    0    -1  
$EndComp
Connection ~ 5950 2900
Wire Wire Line
	8300 11600 8300 11700
Wire Wire Line
	8400 11600 8400 11700
Wire Wire Line
	8300 11700 8400 11700
Connection ~ 8400 11700
Wire Wire Line
	8400 11700 8500 11700
Wire Wire Line
	8500 11600 8500 11700
Connection ~ 8500 11700
Wire Wire Line
	8500 11700 8600 11700
Wire Wire Line
	8600 11600 8600 11700
Connection ~ 8600 11700
Wire Wire Line
	8600 11700 8700 11700
Wire Wire Line
	8700 11600 8700 11700
Connection ~ 8700 11700
Wire Wire Line
	8700 11700 8800 11700
Wire Wire Line
	8800 11600 8800 11700
Connection ~ 8800 11700
Wire Wire Line
	8800 11700 8900 11700
Wire Wire Line
	8900 11600 8900 11700
Connection ~ 8900 11700
Wire Wire Line
	8900 11700 9000 11700
Wire Wire Line
	9000 11600 9000 11700
Connection ~ 9000 11700
Wire Wire Line
	9000 11700 9100 11700
Wire Wire Line
	9100 11600 9100 11700
$Comp
L schematicProject-rescue:GND-power #PWR0135
U 1 1 5B8C4B67
P 8800 11700
F 0 "#PWR0135" H 8800 11450 50  0001 C CNN
F 1 "GND" H 8805 11527 50  0000 C CNN
F 2 "" H 8800 11700 50  0001 C CNN
F 3 "" H 8800 11700 50  0001 C CNN
	1    8800 11700
	1    0    0    -1  
$EndComp
Wire Wire Line
	3750 10300 4100 10300
Wire Wire Line
	3750 10400 4100 10400
Wire Wire Line
	3750 10500 4100 10500
Wire Wire Line
	3750 10600 4100 10600
Wire Wire Line
	3750 10700 4100 10700
Wire Wire Line
	3750 10800 4100 10800
Wire Wire Line
	3750 10900 4100 10900
Wire Wire Line
	3750 11000 4100 11000
Wire Wire Line
	3750 11100 4100 11100
Wire Wire Line
	13500 11100 13850 11100
Wire Wire Line
	13500 11000 13850 11000
Wire Wire Line
	13500 9600 13850 9600
Wire Wire Line
	13500 9700 13850 9700
Text Label 13500 9600 0    50   ~ 0
FMC_D2
Text Label 13500 9700 0    50   ~ 0
FMC_D3
Text Label 13500 11000 0    50   ~ 0
FMC_D0
Text Label 13500 11100 0    50   ~ 0
FMC_D1
Wire Wire Line
	13500 10400 13850 10400
Wire Wire Line
	13500 10500 13850 10500
Wire Wire Line
	13500 10600 13850 10600
Text Label 13500 10400 0    50   ~ 0
FMC_D13
Text Label 13500 10500 0    50   ~ 0
FMC_D14
Text Label 13500 10600 0    50   ~ 0
FMC_D15
Entry Wire Line
	13950 9600 13850 9700
Entry Wire Line
	13950 9500 13850 9600
Entry Wire Line
	13950 11000 13850 11100
Entry Wire Line
	13950 10900 13850 11000
Wire Bus Line
	3500 11350 3650 11350
Text HLabel 14100 11250 2    50   BiDi ~ 0
FMC_D[15:0]
Wire Bus Line
	14100 11250 13950 11250
Wire Wire Line
	13500 10800 14150 10800
Wire Wire Line
	13500 10700 14150 10700
Entry Wire Line
	3450 10000 3350 10100
Entry Wire Line
	3450 9900 3350 10000
Entry Wire Line
	3450 9800 3350 9900
Wire Wire Line
	3450 9900 4100 9900
Wire Wire Line
	3450 9800 4100 9800
Wire Wire Line
	3450 10000 4100 10000
Wire Wire Line
	3450 10200 4100 10200
Wire Wire Line
	3450 10100 4100 10100
Entry Wire Line
	3450 10200 3350 10300
Entry Wire Line
	3450 10100 3350 10200
Wire Bus Line
	3350 10450 3200 10450
Text HLabel 3200 10450 0    50   Output ~ 0
FMC_A[24:16]
Entry Wire Line
	3450 7500 3350 7600
Wire Wire Line
	3450 7500 4100 7500
Wire Bus Line
	3350 7600 3200 7600
Text HLabel 3200 7600 0    50   Output ~ 0
FMC_A[24:16]
Wire Bus Line
	14250 10950 14400 10950
Text HLabel 14400 10950 2    50   Output ~ 0
FMC_A[24:16]
$Comp
L schematicProject-rescue:C-device C18
U 1 1 5B8E02D7
P 4750 12900
F 0 "C18" H 4865 12946 50  0000 L CNN
F 1 "0.1u" H 4865 12855 50  0000 L CNN
F 2 "Capacitor_SMD:C_0603_1608Metric_Pad1.05x0.95mm_HandSolder" H 4788 12750 50  0001 C CNN
F 3 "" H 4750 12900 50  0001 C CNN
	1    4750 12900
	1    0    0    -1  
$EndComp
$Comp
L schematicProject-rescue:C-device C20
U 1 1 5B8E0482
P 5550 12900
F 0 "C20" H 5665 12946 50  0000 L CNN
F 1 "0.1u" H 5665 12855 50  0000 L CNN
F 2 "Capacitor_SMD:C_0603_1608Metric_Pad1.05x0.95mm_HandSolder" H 5588 12750 50  0001 C CNN
F 3 "" H 5550 12900 50  0001 C CNN
	1    5550 12900
	1    0    0    -1  
$EndComp
$Comp
L schematicProject-rescue:C-device C22
U 1 1 5B8E04DC
P 6000 12900
F 0 "C22" H 6115 12946 50  0000 L CNN
F 1 "0.1u" H 6115 12855 50  0000 L CNN
F 2 "Capacitor_SMD:C_0603_1608Metric_Pad1.05x0.95mm_HandSolder" H 6038 12750 50  0001 C CNN
F 3 "" H 6000 12900 50  0001 C CNN
	1    6000 12900
	1    0    0    -1  
$EndComp
$Comp
L schematicProject-rescue:C-device C24
U 1 1 5B8E0510
P 6400 12900
F 0 "C24" H 6515 12946 50  0000 L CNN
F 1 "0.1u" H 6515 12855 50  0000 L CNN
F 2 "Capacitor_SMD:C_0603_1608Metric_Pad1.05x0.95mm_HandSolder" H 6438 12750 50  0001 C CNN
F 3 "" H 6400 12900 50  0001 C CNN
	1    6400 12900
	1    0    0    -1  
$EndComp
$Comp
L schematicProject-rescue:C-device C17
U 1 1 5B8E0544
P 4350 12900
F 0 "C17" H 4465 12946 50  0000 L CNN
F 1 "0.1u" H 4465 12855 50  0000 L CNN
F 2 "Capacitor_SMD:C_0603_1608Metric_Pad1.05x0.95mm_HandSolder" H 4388 12750 50  0001 C CNN
F 3 "" H 4350 12900 50  0001 C CNN
	1    4350 12900
	1    0    0    -1  
$EndComp
$Comp
L schematicProject-rescue:C-device C16
U 1 1 5B8E0595
P 3950 12900
F 0 "C16" H 4065 12946 50  0000 L CNN
F 1 "0.1u" H 4065 12855 50  0000 L CNN
F 2 "Capacitor_SMD:C_0603_1608Metric_Pad1.05x0.95mm_HandSolder" H 3988 12750 50  0001 C CNN
F 3 "" H 3950 12900 50  0001 C CNN
	1    3950 12900
	1    0    0    -1  
$EndComp
$Comp
L schematicProject-rescue:C-device C25
U 1 1 5B8E0777
P 6850 12900
F 0 "C25" H 6965 12946 50  0000 L CNN
F 1 "0.1u" H 6965 12855 50  0000 L CNN
F 2 "Capacitor_SMD:C_0603_1608Metric_Pad1.05x0.95mm_HandSolder" H 6888 12750 50  0001 C CNN
F 3 "" H 6850 12900 50  0001 C CNN
	1    6850 12900
	1    0    0    -1  
$EndComp
$Comp
L schematicProject-rescue:C-device C26
U 1 1 5B91323A
P 7300 12900
F 0 "C26" H 7415 12946 50  0000 L CNN
F 1 "0.1u" H 7415 12855 50  0000 L CNN
F 2 "Capacitor_SMD:C_0603_1608Metric_Pad1.05x0.95mm_HandSolder" H 7338 12750 50  0001 C CNN
F 3 "" H 7300 12900 50  0001 C CNN
	1    7300 12900
	1    0    0    -1  
$EndComp
$Comp
L schematicProject-rescue:C-device C14
U 1 1 5B9132AC
P 3550 12900
F 0 "C14" H 3665 12946 50  0000 L CNN
F 1 "0.1u" H 3665 12855 50  0000 L CNN
F 2 "Capacitor_SMD:C_0603_1608Metric_Pad1.05x0.95mm_HandSolder" H 3588 12750 50  0001 C CNN
F 3 "" H 3550 12900 50  0001 C CNN
	1    3550 12900
	1    0    0    -1  
$EndComp
Wire Wire Line
	3950 12750 3950 12650
Wire Wire Line
	3950 12650 4350 12650
Wire Wire Line
	4350 12650 4350 12750
Wire Wire Line
	4350 12650 4750 12650
Wire Wire Line
	4750 12650 4750 12750
Connection ~ 4350 12650
Wire Wire Line
	5550 12750 5550 12650
Wire Wire Line
	6000 12750 6000 12650
Wire Wire Line
	6400 12750 6400 12650
Wire Wire Line
	6400 12650 6000 12650
Wire Wire Line
	6850 12750 6850 12650
Wire Wire Line
	6850 12650 6400 12650
Connection ~ 6400 12650
Wire Wire Line
	7300 12750 7300 12650
Wire Wire Line
	7300 13050 7300 13150
Wire Wire Line
	6850 13150 6850 13050
Wire Wire Line
	6400 13050 6400 13150
Wire Wire Line
	6400 13150 6850 13150
Wire Wire Line
	6000 13050 6000 13150
Wire Wire Line
	6000 13150 6400 13150
Connection ~ 6400 13150
Connection ~ 6000 13150
Wire Wire Line
	5550 13050 5550 13150
Wire Wire Line
	3950 13050 3950 13150
Wire Wire Line
	3950 13150 4350 13150
Wire Wire Line
	4350 13150 4350 13050
Wire Wire Line
	4750 13050 4750 13150
Wire Wire Line
	4350 13150 4750 13150
Connection ~ 4350 13150
Connection ~ 4750 13150
Wire Wire Line
	3550 12750 3550 12650
Wire Wire Line
	3550 12650 3950 12650
Wire Wire Line
	3950 13150 3550 13150
Wire Wire Line
	3550 13150 3550 13050
$Comp
L schematicProject-rescue:GND-omega-dock-new-cache #PWR0136
U 1 1 5B97F26D
P 5550 13250
F 0 "#PWR0136" H 5550 13000 50  0001 C CNN
F 1 "GND" H 5555 13077 50  0000 C CNN
F 2 "" H 5550 13250 50  0001 C CNN
F 3 "" H 5550 13250 50  0001 C CNN
	1    5550 13250
	1    0    0    -1  
$EndComp
Wire Wire Line
	5550 13250 5550 13150
Wire Wire Line
	5550 12550 5550 12650
Wire Wire Line
	3850 4800 4100 4800
Text Label 3850 4800 0    50   ~ 0
BOOT0
Wire Wire Line
	13750 6400 13500 6400
Text Label 13750 6400 2    50   ~ 0
BOOT1
$Comp
L schematicProject-rescue:C-device C27
U 1 1 5B8E9E00
P 7700 12900
F 0 "C27" H 7815 12946 50  0000 L CNN
F 1 "0.1u" H 7815 12855 50  0000 L CNN
F 2 "Capacitor_SMD:C_0603_1608Metric_Pad1.05x0.95mm_HandSolder" H 7738 12750 50  0001 C CNN
F 3 "" H 7700 12900 50  0001 C CNN
	1    7700 12900
	1    0    0    -1  
$EndComp
$Comp
L schematicProject-rescue:C-device C28
U 1 1 5B8E9E07
P 8100 12900
F 0 "C28" H 8215 12946 50  0000 L CNN
F 1 "0.1u" H 8215 12855 50  0000 L CNN
F 2 "Capacitor_SMD:C_0603_1608Metric_Pad1.05x0.95mm_HandSolder" H 8138 12750 50  0001 C CNN
F 3 "" H 8100 12900 50  0001 C CNN
	1    8100 12900
	1    0    0    -1  
$EndComp
Wire Wire Line
	7700 12750 7700 12650
Wire Wire Line
	8100 12750 8100 12650
Wire Wire Line
	8100 13050 8100 13150
Wire Wire Line
	7700 13150 7700 13050
Connection ~ 6000 12650
Wire Wire Line
	6850 12650 7300 12650
Connection ~ 6850 12650
Wire Wire Line
	7300 12650 7700 12650
Connection ~ 7300 12650
Wire Wire Line
	7700 12650 8100 12650
Connection ~ 7700 12650
Wire Wire Line
	7700 13150 8100 13150
Wire Wire Line
	7700 13150 7300 13150
Connection ~ 7700 13150
Connection ~ 7300 13150
Wire Wire Line
	6850 13150 7300 13150
Connection ~ 6850 13150
Wire Wire Line
	5550 12650 6000 12650
Connection ~ 5550 12650
Connection ~ 5550 13150
Connection ~ 3950 13150
Connection ~ 3950 12650
$Comp
L schematicProject-rescue:C-device C12
U 1 1 5B9B0AAB
P 3150 12900
F 0 "C12" H 3265 12946 50  0000 L CNN
F 1 "0.1u" H 3265 12855 50  0000 L CNN
F 2 "Capacitor_SMD:C_0603_1608Metric_Pad1.05x0.95mm_HandSolder" H 3188 12750 50  0001 C CNN
F 3 "" H 3150 12900 50  0001 C CNN
	1    3150 12900
	1    0    0    -1  
$EndComp
Wire Wire Line
	3150 12750 3150 12650
Wire Wire Line
	3150 12650 3550 12650
Wire Wire Line
	3550 13150 3150 13150
Wire Wire Line
	3150 13150 3150 13050
Wire Wire Line
	5550 13150 6000 13150
Connection ~ 3550 12650
Connection ~ 3550 13150
Wire Wire Line
	9400 3750 9400 3900
Wire Wire Line
	3850 5100 4100 5100
Text HLabel 18300 9550 0    50   3State ~ 0
BOOT0
Text Label 18300 9550 0    50   ~ 0
BOOT0
$Comp
L schematicProject-rescue:R-device R12
U 1 1 5BABDD36
P 19950 10050
F 0 "R12" H 20020 10096 50  0000 L CNN
F 1 "1k" H 20020 10005 50  0000 L CNN
F 2 "Resistor_SMD:R_0603_1608Metric_Pad1.05x0.95mm_HandSolder" V 19880 10050 50  0001 C CNN
F 3 "" H 19950 10050 50  0001 C CNN
	1    19950 10050
	1    0    0    -1  
$EndComp
Wire Wire Line
	19950 10200 19950 10300
Wire Wire Line
	19800 9550 19450 9550
Wire Wire Line
	19950 9800 19950 9900
Text Label 19500 9550 0    50   ~ 0
BOOT1
Wire Wire Line
	13500 6500 14150 6500
Text HLabel 14150 6500 2    60   Input ~ 0
JTDO
Wire Wire Line
	13500 8900 13950 8900
Wire Wire Line
	13500 9000 13950 9000
Text HLabel 13950 8900 2    50   Input ~ 0
ONUART_TX
Text HLabel 13950 9000 2    50   Input ~ 0
ONUART_RX
Wire Wire Line
	4100 7900 3700 7900
Wire Wire Line
	4100 8000 3700 8000
Text Label 3700 7900 2    50   ~ 0
STI2C_SDA
Text Label 3700 8000 2    50   ~ 0
STI2C_SCL
$Comp
L schematicProject-rescue:R-device R7
U 1 1 5B9B4C3C
P 12250 12700
F 0 "R7" H 12320 12746 50  0000 L CNN
F 1 "4K7" H 12320 12655 50  0000 L CNN
F 2 "Resistor_SMD:R_0603_1608Metric_Pad1.05x0.95mm_HandSolder" V 12180 12700 50  0001 C CNN
F 3 "" H 12250 12700 50  0001 C CNN
	1    12250 12700
	-1   0    0    1   
$EndComp
$Comp
L schematicProject-rescue:R-device R8
U 1 1 5B9BF946
P 12600 12700
F 0 "R8" H 12670 12746 50  0000 L CNN
F 1 "4K7" H 12670 12655 50  0000 L CNN
F 2 "Resistor_SMD:R_0603_1608Metric_Pad1.05x0.95mm_HandSolder" V 12530 12700 50  0001 C CNN
F 3 "" H 12600 12700 50  0001 C CNN
	1    12600 12700
	-1   0    0    1   
$EndComp
Wire Wire Line
	12600 12550 12600 12350
Wire Wire Line
	12250 12550 12250 12350
Wire Wire Line
	12250 12350 12600 12350
Connection ~ 12600 12350
Wire Wire Line
	12600 12350 12600 12150
Wire Wire Line
	12250 12850 12250 13100
Wire Wire Line
	11550 13100 12250 13100
Wire Wire Line
	12600 12850 12600 13250
Wire Wire Line
	12600 13250 11550 13250
Text HLabel 11550 13100 0    50   Input ~ 0
SDA
Text HLabel 11550 13250 0    50   Input ~ 0
SCL
Text Label 12100 13100 2    50   ~ 0
STI2C_SDA
Text Label 12050 13250 2    50   ~ 0
STI2C_SCL
Wire Wire Line
	13500 8600 14100 8600
Wire Wire Line
	13500 8500 14100 8500
Text Label 14100 8600 2    50   ~ 0
CM2B
Text Label 14100 8500 2    50   ~ 0
CM2D
$Comp
L schematicProject-rescue:Conn_01x03-Connector_Generic J13
U 1 1 5B9C583F
P 13900 1750
F 0 "J13" H 13850 1500 50  0000 L CNN
F 1 "SEN5" H 13800 1950 50  0000 L CNN
F 2 "Connector_PinHeader_2.54mm:PinHeader_1x03_P2.54mm_Vertical" H 13900 1750 50  0001 C CNN
F 3 "~" H 13900 1750 50  0001 C CNN
	1    13900 1750
	1    0    0    -1  
$EndComp
$Comp
L schematicProject-rescue:Conn_01x03-Connector_Generic J14
U 1 1 5B9C5CE8
P 14700 1750
F 0 "J14" H 14650 1500 50  0000 L CNN
F 1 "SEN6" H 14600 1950 50  0000 L CNN
F 2 "Connector_PinHeader_2.54mm:PinHeader_1x03_P2.54mm_Vertical" H 14700 1750 50  0001 C CNN
F 3 "~" H 14700 1750 50  0001 C CNN
	1    14700 1750
	1    0    0    -1  
$EndComp
$Comp
L schematicProject-rescue:Conn_01x03-Connector_Generic J15
U 1 1 5B9D21FC
P 15350 1750
F 0 "J15" H 15300 1500 50  0000 L CNN
F 1 "SEN7" H 15250 1950 50  0000 L CNN
F 2 "Connector_PinHeader_2.54mm:PinHeader_1x03_P2.54mm_Vertical" H 15350 1750 50  0001 C CNN
F 3 "~" H 15350 1750 50  0001 C CNN
	1    15350 1750
	1    0    0    -1  
$EndComp
$Comp
L schematicProject-rescue:Conn_01x03-Connector_Generic J9
U 1 1 5BA1D9D4
P 11050 1750
F 0 "J9" H 11000 1500 50  0000 L CNN
F 1 "SEN1" H 10950 1950 50  0000 L CNN
F 2 "Connector_PinHeader_2.54mm:PinHeader_1x03_P2.54mm_Vertical" H 11050 1750 50  0001 C CNN
F 3 "~" H 11050 1750 50  0001 C CNN
	1    11050 1750
	1    0    0    -1  
$EndComp
$Comp
L schematicProject-rescue:Conn_01x03-Connector_Generic J10
U 1 1 5BA1D9DB
P 11850 1750
F 0 "J10" H 11800 1500 50  0000 L CNN
F 1 "SEN2" H 11750 1950 50  0000 L CNN
F 2 "Connector_PinHeader_2.54mm:PinHeader_1x03_P2.54mm_Vertical" H 11850 1750 50  0001 C CNN
F 3 "~" H 11850 1750 50  0001 C CNN
	1    11850 1750
	1    0    0    -1  
$EndComp
$Comp
L schematicProject-rescue:Conn_01x03-Connector_Generic J11
U 1 1 5BA1D9E2
P 12500 1750
F 0 "J11" H 12450 1500 50  0000 L CNN
F 1 "SEN3" H 12400 1950 50  0000 L CNN
F 2 "Connector_PinHeader_2.54mm:PinHeader_1x03_P2.54mm_Vertical" H 12500 1750 50  0001 C CNN
F 3 "~" H 12500 1750 50  0001 C CNN
	1    12500 1750
	1    0    0    -1  
$EndComp
$Comp
L schematicProject-rescue:Conn_01x03-Connector_Generic J12
U 1 1 5BA1D9E9
P 13150 1750
F 0 "J12" H 13100 1500 50  0000 L CNN
F 1 "SEN4" H 13050 1950 50  0000 L CNN
F 2 "Connector_PinHeader_2.54mm:PinHeader_1x03_P2.54mm_Vertical" H 13150 1750 50  0001 C CNN
F 3 "~" H 13150 1750 50  0001 C CNN
	1    13150 1750
	1    0    0    -1  
$EndComp
Wire Wire Line
	10850 1650 10750 1650
Wire Wire Line
	10750 1650 10750 1250
Connection ~ 10750 1250
Wire Wire Line
	10750 1250 10350 1250
Wire Wire Line
	11650 1650 11550 1650
Wire Wire Line
	11550 1650 11550 1250
Connection ~ 11550 1250
Wire Wire Line
	11550 1250 10750 1250
Wire Wire Line
	12300 1650 12200 1650
Wire Wire Line
	12200 1650 12200 1250
Wire Wire Line
	11550 1250 12200 1250
Connection ~ 12200 1250
Wire Wire Line
	12200 1250 12900 1250
Wire Wire Line
	12950 1650 12900 1650
Wire Wire Line
	12900 1650 12900 1250
Connection ~ 12900 1250
Wire Wire Line
	13700 1650 13600 1650
Wire Wire Line
	13600 1650 13600 1250
Connection ~ 13600 1250
Wire Wire Line
	14500 1650 14450 1650
Wire Wire Line
	14450 1650 14450 1250
Connection ~ 14450 1250
Wire Wire Line
	14450 1250 15050 1250
Wire Wire Line
	15150 1650 15050 1650
Wire Wire Line
	15050 1650 15050 1250
$Comp
L schematicProject-rescue:GND-power #PWR0138
U 1 1 5BAAFD23
P 10850 2050
F 0 "#PWR0138" H 10850 1800 50  0001 C CNN
F 1 "GND" H 10855 1877 50  0000 C CNN
F 2 "" H 10850 2050 50  0001 C CNN
F 3 "" H 10850 2050 50  0001 C CNN
	1    10850 2050
	1    0    0    -1  
$EndComp
$Comp
L schematicProject-rescue:GND-power #PWR0139
U 1 1 5BAAFE02
P 11650 2050
F 0 "#PWR0139" H 11650 1800 50  0001 C CNN
F 1 "GND" H 11655 1877 50  0000 C CNN
F 2 "" H 11650 2050 50  0001 C CNN
F 3 "" H 11650 2050 50  0001 C CNN
	1    11650 2050
	1    0    0    -1  
$EndComp
$Comp
L schematicProject-rescue:GND-power #PWR0140
U 1 1 5BABE45B
P 12300 2050
F 0 "#PWR0140" H 12300 1800 50  0001 C CNN
F 1 "GND" H 12305 1877 50  0000 C CNN
F 2 "" H 12300 2050 50  0001 C CNN
F 3 "" H 12300 2050 50  0001 C CNN
	1    12300 2050
	1    0    0    -1  
$EndComp
$Comp
L schematicProject-rescue:GND-power #PWR0141
U 1 1 5BACCABA
P 12950 2050
F 0 "#PWR0141" H 12950 1800 50  0001 C CNN
F 1 "GND" H 12955 1877 50  0000 C CNN
F 2 "" H 12950 2050 50  0001 C CNN
F 3 "" H 12950 2050 50  0001 C CNN
	1    12950 2050
	1    0    0    -1  
$EndComp
$Comp
L schematicProject-rescue:GND-power #PWR0142
U 1 1 5BADB2D1
P 13700 2050
F 0 "#PWR0142" H 13700 1800 50  0001 C CNN
F 1 "GND" H 13705 1877 50  0000 C CNN
F 2 "" H 13700 2050 50  0001 C CNN
F 3 "" H 13700 2050 50  0001 C CNN
	1    13700 2050
	1    0    0    -1  
$EndComp
$Comp
L schematicProject-rescue:GND-power #PWR0143
U 1 1 5BAE99F8
P 14500 2050
F 0 "#PWR0143" H 14500 1800 50  0001 C CNN
F 1 "GND" H 14505 1877 50  0000 C CNN
F 2 "" H 14500 2050 50  0001 C CNN
F 3 "" H 14500 2050 50  0001 C CNN
	1    14500 2050
	1    0    0    -1  
$EndComp
$Comp
L schematicProject-rescue:GND-power #PWR0144
U 1 1 5BAF7FDF
P 15150 2050
F 0 "#PWR0144" H 15150 1800 50  0001 C CNN
F 1 "GND" H 15155 1877 50  0000 C CNN
F 2 "" H 15150 2050 50  0001 C CNN
F 3 "" H 15150 2050 50  0001 C CNN
	1    15150 2050
	1    0    0    -1  
$EndComp
Wire Wire Line
	10850 1850 10850 2050
Wire Wire Line
	11650 1850 11650 2050
Wire Wire Line
	12300 1850 12300 2050
Wire Wire Line
	12950 1850 12950 2050
Wire Wire Line
	13700 1850 13700 2050
Wire Wire Line
	14500 1850 14500 2050
Wire Wire Line
	15150 1850 15150 2050
Wire Wire Line
	15150 1750 14900 1750
Wire Wire Line
	14500 1750 14250 1750
Wire Wire Line
	13700 1750 13450 1750
Wire Wire Line
	12950 1750 12750 1750
Wire Wire Line
	12300 1750 12100 1750
Wire Wire Line
	11650 1750 11400 1750
Wire Wire Line
	10600 1750 10850 1750
Text Label 10600 1750 0    50   ~ 0
SEN1
Text Label 11400 1750 0    50   ~ 0
SEN2
Text Label 12100 1750 0    50   ~ 0
SEN3
Text Label 12750 1750 0    50   ~ 0
SEN4
Text Label 13450 1750 0    50   ~ 0
SEN5
Text Label 14250 1750 0    50   ~ 0
SEN6
Text Label 14900 1750 0    50   ~ 0
SEN7
$Comp
L schematicProject-rescue:Jumper_3_Open-Jumper JP1
U 1 1 5BC14089
P 19950 9550
F 0 "JP1" V 19996 9636 50  0000 L CNN
F 1 "Jumper_3_Open" V 19905 9636 50  0000 L CNN
F 2 "Connector_PinHeader_2.54mm:PinHeader_1x03_P2.54mm_Vertical" H 19950 9550 50  0001 C CNN
F 3 "~" H 19950 9550 50  0001 C CNN
	1    19950 9550
	0    1    1    0   
$EndComp
$Comp
L schematicProject-rescue:R-device R10
U 1 1 5BB03935
P 18650 9300
F 0 "R10" H 18720 9346 50  0000 L CNN
F 1 "1k" H 18720 9255 50  0000 L CNN
F 2 "Resistor_SMD:R_0603_1608Metric_Pad1.05x0.95mm_HandSolder" V 18580 9300 50  0001 C CNN
F 3 "" H 18650 9300 50  0001 C CNN
	1    18650 9300
	-1   0    0    1   
$EndComp
$Comp
L schematicProject-rescue:GND-omega-dock-new-cache #PWR0145
U 1 1 5BB0393C
P 18650 10050
F 0 "#PWR0145" H 18650 9800 50  0001 C CNN
F 1 "GND" H 18655 9877 50  0000 C CNN
F 2 "" H 18650 10050 50  0001 C CNN
F 3 "" H 18650 10050 50  0001 C CNN
	1    18650 10050
	1    0    0    -1  
$EndComp
Wire Wire Line
	18650 9150 18650 9050
$Comp
L schematicProject-rescue:R-device R11
U 1 1 5BB03943
P 18650 9800
F 0 "R11" H 18720 9846 50  0000 L CNN
F 1 "1k" H 18720 9755 50  0000 L CNN
F 2 "Resistor_SMD:R_0603_1608Metric_Pad1.05x0.95mm_HandSolder" V 18580 9800 50  0001 C CNN
F 3 "" H 18650 9800 50  0001 C CNN
	1    18650 9800
	1    0    0    -1  
$EndComp
Wire Wire Line
	18650 9950 18650 10050
Text HLabel 19450 9550 0    50   3State ~ 0
BOOT1
Wire Wire Line
	18650 9450 18650 9550
Wire Wire Line
	18300 9550 18650 9550
Connection ~ 18650 9550
Wire Wire Line
	18650 9550 18650 9650
$Comp
L schematicProject-rescue:C-device C13
U 1 1 5BB73605
P 3400 5350
F 0 "C13" H 3515 5396 50  0000 L CNN
F 1 "2.2u" H 3515 5305 50  0000 L CNN
F 2 "Capacitor_SMD:C_0603_1608Metric_Pad1.05x0.95mm_HandSolder" H 3438 5200 50  0001 C CNN
F 3 "" H 3400 5350 50  0001 C CNN
	1    3400 5350
	1    0    0    -1  
$EndComp
$Comp
L schematicProject-rescue:C-device C15
U 1 1 5BB73689
P 3800 5450
F 0 "C15" H 3915 5496 50  0000 L CNN
F 1 "2.2u" H 3915 5405 50  0000 L CNN
F 2 "Capacitor_SMD:C_0603_1608Metric_Pad1.05x0.95mm_HandSolder" H 3838 5300 50  0001 C CNN
F 3 "" H 3800 5450 50  0001 C CNN
	1    3800 5450
	1    0    0    -1  
$EndComp
$Comp
L schematicProject-rescue:GND-power #PWR0146
U 1 1 5BB737A2
P 3800 5600
F 0 "#PWR0146" H 3800 5350 50  0001 C CNN
F 1 "GND" H 3805 5427 50  0000 C CNN
F 2 "" H 3800 5600 50  0001 C CNN
F 3 "" H 3800 5600 50  0001 C CNN
	1    3800 5600
	1    0    0    -1  
$EndComp
$Comp
L schematicProject-rescue:GND-power #PWR0147
U 1 1 5BB73804
P 3400 5500
F 0 "#PWR0147" H 3400 5250 50  0001 C CNN
F 1 "GND" H 3405 5327 50  0000 C CNN
F 2 "" H 3400 5500 50  0001 C CNN
F 3 "" H 3400 5500 50  0001 C CNN
	1    3400 5500
	1    0    0    -1  
$EndComp
Wire Wire Line
	3400 5200 4100 5200
Wire Wire Line
	3800 5300 4100 5300
Wire Wire Line
	9200 3750 9400 3750
Wire Wire Line
	9300 3900 9300 3600
Text Label 9300 3600 3    50   ~ 0
VDDA
$Comp
L schematicProject-rescue:L-device L2
U 1 1 5BBB414F
P 5400 2450
F 0 "L2" V 5590 2450 50  0000 C CNN
F 1 "L" V 5499 2450 50  0000 C CNN
F 2 "kicad footprints:R_0805_2012Metric_Pad1.15x1.40mm_HandSolder" H 5400 2450 50  0001 C CNN
F 3 "" H 5400 2450 50  0001 C CNN
	1    5400 2450
	0    -1   -1   0   
$EndComp
Wire Wire Line
	5150 2450 5250 2450
Text Label 5700 2450 0    50   ~ 0
VDDA
Wire Wire Line
	6200 2450 6200 2500
Wire Wire Line
	5550 2450 5700 2450
Wire Wire Line
	5700 2500 5700 2450
Connection ~ 5700 2450
Wire Wire Line
	5700 2450 6200 2450
Wire Wire Line
	5700 2800 5700 2900
Wire Wire Line
	5700 2900 5950 2900
Wire Wire Line
	6200 2800 6200 2900
Wire Wire Line
	5950 2900 6200 2900
$Comp
L schematicProject-rescue:L-device L3
U 1 1 5BC561DA
P 9350 11800
F 0 "L3" V 9540 11800 50  0000 C CNN
F 1 "L" V 9449 11800 50  0000 C CNN
F 2 "kicad footprints:R_0805_2012Metric_Pad1.15x1.40mm_HandSolder" H 9350 11800 50  0001 C CNN
F 3 "" H 9350 11800 50  0001 C CNN
	1    9350 11800
	0    -1   -1   0   
$EndComp
$Comp
L schematicProject-rescue:GND-power #PWR0148
U 1 1 5BC56356
P 9600 11800
F 0 "#PWR0148" H 9600 11550 50  0001 C CNN
F 1 "GND" V 9605 11672 50  0000 R CNN
F 2 "" H 9600 11800 50  0001 C CNN
F 3 "" H 9600 11800 50  0001 C CNN
	1    9600 11800
	0    -1   -1   0   
$EndComp
Wire Wire Line
	9500 11800 9600 11800
Wire Wire Line
	9200 11600 9200 11800
Wire Wire Line
	13600 1250 14450 1250
Wire Wire Line
	12900 1250 13600 1250
Wire Wire Line
	13500 8000 14100 8000
Wire Wire Line
	13500 8100 14100 8100
Wire Wire Line
	13500 7900 14100 7900
Text Label 14100 7900 2    50   ~ 0
CM1C
Text Label 14100 8000 2    50   ~ 0
CM1A
Text Label 14100 8100 2    50   ~ 0
CM1B
Wire Wire Line
	13500 8300 14100 8300
Wire Wire Line
	13500 8400 14100 8400
Wire Wire Line
	13500 8200 14100 8200
Text Label 14100 8200 2    50   ~ 0
CM1D
Text Label 14100 8400 2    50   ~ 0
CM2C
Text Label 14100 8300 2    50   ~ 0
CM2A
Wire Wire Line
	13500 7100 14100 7100
Wire Wire Line
	13500 7000 14100 7000
Text Label 14100 7100 2    50   ~ 0
DIR_M1
Text Label 14100 7000 2    50   ~ 0
SP_M1
Wire Wire Line
	13500 7300 14100 7300
Wire Wire Line
	13500 7200 14100 7200
Text Label 14100 7200 2    50   ~ 0
DIR_M0
Text Label 14100 7300 2    50   ~ 0
SP_M0
$Comp
L schematicProject-rescue:LED-device D4
U 1 1 5BC1E27D
P 14150 9800
F 0 "D4" H 14142 9545 50  0000 C CNN
F 1 "LED" H 14142 9636 50  0000 C CNN
F 2 "LED_SMD:LED_0603_1608Metric" H 14150 9800 50  0001 C CNN
F 3 "~" H 14150 9800 50  0001 C CNN
	1    14150 9800
	-1   0    0    1   
$EndComp
$Comp
L schematicProject-rescue:R-device R9
U 1 1 5BC1E284
P 14500 9800
F 0 "R9" V 14293 9800 50  0000 C CNN
F 1 "1k" V 14384 9800 50  0000 C CNN
F 2 "Resistor_SMD:R_0603_1608Metric_Pad1.05x0.95mm_HandSolder" V 14430 9800 50  0001 C CNN
F 3 "" H 14500 9800 50  0001 C CNN
	1    14500 9800
	0    1    1    0   
$EndComp
$Comp
L schematicProject-rescue:GND-omega-dock-new-cache #PWR0150
U 1 1 5BC1E28C
P 14750 9800
F 0 "#PWR0150" H 14750 9550 50  0001 C CNN
F 1 "GND" V 14755 9672 50  0000 R CNN
F 2 "" H 14750 9800 50  0001 C CNN
F 3 "" H 14750 9800 50  0001 C CNN
	1    14750 9800
	0    -1   -1   0   
$EndComp
Wire Wire Line
	13500 9800 14000 9800
Wire Wire Line
	14300 9800 14350 9800
Wire Wire Line
	14650 9800 14750 9800
Wire Wire Line
	13500 5000 14100 5000
Text Label 14100 5000 2    50   ~ 0
SEN6
Wire Wire Line
	13500 4500 14100 4500
Text Label 14100 4500 2    50   ~ 0
SEN1
Wire Wire Line
	13500 4600 14100 4600
Text Label 14100 4600 2    50   ~ 0
SEN2
Wire Wire Line
	13500 4700 14100 4700
Text Label 14100 4700 2    50   ~ 0
SEN3
Wire Wire Line
	13500 4800 14100 4800
Text Label 14100 4800 2    50   ~ 0
SEN4
Wire Wire Line
	13500 4900 14100 4900
Text Label 14100 4900 2    50   ~ 0
SEN5
Wire Wire Line
	13500 5200 14100 5200
Text Label 14100 5200 2    50   ~ 0
SEN8
Wire Wire Line
	13500 5100 14100 5100
Text Label 14100 5100 2    50   ~ 0
SEN7
$Comp
L schematicProject-rescue:GND-chip_media-cache-2018-09-25-05-03-38 #PWR0152
U 1 1 5BEC0DC7
P 2250 5350
F 0 "#PWR0152" H 2250 5100 50  0001 C CNN
F 1 "GND" H 2255 5177 50  0000 C CNN
F 2 "" H 2250 5350 50  0000 C CNN
F 3 "" H 2250 5350 50  0000 C CNN
	1    2250 5350
	1    0    0    -1  
$EndComp
$Comp
L schematicProject-rescue:C-Device C11
U 1 1 5BEC0F5A
P 2950 5200
F 0 "C11" H 3065 5246 50  0000 L CNN
F 1 "0.1uF" H 3065 5155 50  0000 L CNN
F 2 "Capacitor_SMD:C_0603_1608Metric_Pad1.05x0.95mm_HandSolder" H 2988 5050 50  0001 C CNN
F 3 "" H 2950 5200 50  0000 C CNN
	1    2950 5200
	1    0    0    -1  
$EndComp
$Comp
L schematicProject-rescue:GND-chip_media-cache-2018-09-25-05-03-38 #PWR0153
U 1 1 5BEC11E8
P 2950 5350
F 0 "#PWR0153" H 2950 5100 50  0001 C CNN
F 1 "GND" H 2955 5177 50  0000 C CNN
F 2 "" H 2950 5350 50  0000 C CNN
F 3 "" H 2950 5350 50  0000 C CNN
	1    2950 5350
	1    0    0    -1  
$EndComp
$Comp
L schematicProject-rescue:R-chip_media-cache-2018-09-25-05-03-38 R6
U 1 1 5BEC16BD
P 2600 5000
F 0 "R6" V 2393 5000 50  0000 C CNN
F 1 "0" V 2484 5000 50  0000 C CNN
F 2 "Resistor_SMD:R_0603_1608Metric_Pad1.05x0.95mm_HandSolder" V 2530 5000 50  0001 C CNN
F 3 "" H 2600 5000 50  0000 C CNN
	1    2600 5000
	0    1    1    0   
$EndComp
$Comp
L schematicProject-rescue:R-chip_media-cache-2018-09-25-05-03-38 R5
U 1 1 5BEC1970
P 2600 4650
F 0 "R5" V 2393 4650 50  0000 C CNN
F 1 "1K" V 2484 4650 50  0000 C CNN
F 2 "Resistor_SMD:R_0603_1608Metric_Pad1.05x0.95mm_HandSolder" V 2530 4650 50  0001 C CNN
F 3 "" H 2600 4650 50  0000 C CNN
	1    2600 4650
	0    1    1    0   
$EndComp
Wire Wire Line
	2950 5050 2950 5000
Connection ~ 2950 5000
Wire Wire Line
	2950 5000 2750 5000
Wire Wire Line
	2450 5000 2250 5000
Wire Wire Line
	2250 5000 2250 5050
Wire Wire Line
	2950 5000 4100 5000
Wire Wire Line
	2250 4600 2250 4650
Wire Wire Line
	2250 4650 2450 4650
Wire Wire Line
	2750 4650 2950 4650
Wire Wire Line
	2950 4650 2950 5000
Wire Wire Line
	3450 4600 4100 4600
NoConn ~ 4100 6200
NoConn ~ 4100 6300
NoConn ~ 4100 6400
NoConn ~ 13500 9200
NoConn ~ 4100 6700
NoConn ~ 4100 6800
NoConn ~ 4100 6900
NoConn ~ 4100 7000
Wire Wire Line
	4100 8100 3500 8100
Text Label 3500 8100 0    50   ~ 0
GPIO0
Wire Wire Line
	4100 8200 3500 8200
Text Label 3500 8200 0    50   ~ 0
ADC0
Wire Wire Line
	4100 8300 3500 8300
Text Label 3500 8300 0    50   ~ 0
ADC1
Wire Wire Line
	4100 8400 3500 8400
Text Label 3500 8400 0    50   ~ 0
ADC2
Wire Wire Line
	4100 8700 3500 8700
Text Label 3500 8700 0    50   ~ 0
GPIO1
Wire Wire Line
	4100 8800 3500 8800
Text Label 3500 8800 0    50   ~ 0
GPIO2
Wire Wire Line
	4100 8900 3500 8900
Text Label 3500 8900 0    50   ~ 0
GPIO3
Wire Wire Line
	13500 6200 14100 6200
Text Label 14100 6200 2    50   ~ 0
ADC3
Wire Wire Line
	13500 6300 14100 6300
Text Label 14100 6300 2    50   ~ 0
ADC4
Wire Wire Line
	13500 8700 14100 8700
Wire Wire Line
	13500 8800 14100 8800
Wire Wire Line
	13500 7400 14100 7400
Text Label 14100 7400 2    50   ~ 0
GPIO8
Wire Wire Line
	13500 7500 14100 7500
Text Label 14100 7500 2    50   ~ 0
GPIO9
Wire Wire Line
	13500 7600 14100 7600
Text Label 14100 7600 2    50   ~ 0
GPIO10
Wire Wire Line
	13500 7700 14100 7700
Text Label 14100 7700 2    50   ~ 0
GPIO11
Wire Wire Line
	13500 5300 14100 5300
Wire Wire Line
	13500 5400 14100 5400
Wire Wire Line
	13500 5500 14100 5500
Wire Wire Line
	13500 5600 14100 5600
Wire Wire Line
	13500 5700 14100 5700
Wire Wire Line
	13500 6700 14100 6700
Text Label 14100 6700 2    50   ~ 0
GPIO17
Wire Wire Line
	13500 6800 14100 6800
Text Label 14100 6800 2    50   ~ 0
GPIO18
Wire Wire Line
	4100 8500 3500 8500
Text Label 3500 8500 0    50   ~ 0
GPIO4
Wire Wire Line
	4100 8600 3500 8600
Text Label 3500 8600 0    50   ~ 0
GPIO5
NoConn ~ 4100 6600
NoConn ~ 4100 6500
Text HLabel 10350 1250 0    50   Input ~ 0
STM3V3
Text HLabel 2250 4600 1    50   Input ~ 0
STM3V3
Text HLabel 5550 12550 1    50   Input ~ 0
STM3V3
Text HLabel 12600 12150 1    50   Input ~ 0
STM3V3
Text HLabel 18650 9050 1    50   Input ~ 0
STM3V3
$Comp
L schematicProject-rescue:GND-power #PWR0133
U 1 1 5BDFA57A
P 1400 6000
F 0 "#PWR0133" H 1400 5750 50  0001 C CNN
F 1 "GND" H 1405 5827 50  0000 C CNN
F 2 "" H 1400 6000 50  0001 C CNN
F 3 "" H 1400 6000 50  0001 C CNN
	1    1400 6000
	0    1    1    0   
$EndComp
$Comp
L schematicProject-rescue:C-device C10
U 1 1 5BDFA580
P 1600 6300
F 0 "C10" H 1450 6200 50  0000 C CNN
F 1 "22pF" H 1400 6300 50  0000 C CNN
F 2 "Capacitor_SMD:C_0603_1608Metric_Pad1.05x0.95mm_HandSolder" H 1638 6150 50  0001 C CNN
F 3 "" H 1600 6300 50  0001 C CNN
	1    1600 6300
	0    -1   -1   0   
$EndComp
$Comp
L schematicProject-rescue:C-device C9
U 1 1 5BDFA587
P 1600 5700
F 0 "C9" H 1400 5800 50  0000 C CNN
F 1 "22pF" H 1400 5700 50  0000 C CNN
F 2 "Capacitor_SMD:C_0603_1608Metric_Pad1.05x0.95mm_HandSolder" H 1638 5550 50  0001 C CNN
F 3 "" H 1600 5700 50  0001 C CNN
	1    1600 5700
	0    1    1    0   
$EndComp
Connection ~ 1400 6000
Wire Wire Line
	4100 6000 2650 6000
Wire Wire Line
	4100 5900 2650 5900
$Comp
L schematicProject-rescue:ABM8G-chip_media-cache-2018-09-26-20-57-17 X1
U 1 1 5BDFA591
P 2100 6000
F 0 "X1" H 2050 6150 60  0000 L CNN
F 1 "12M" H 1950 5850 60  0000 L CNN
F 2 "kicad footprints:Crystal_SMD_Abracon_ABM8G-4Pin_3.2x2.5mm" H 2100 6000 60  0001 C CNN
F 3 "" H 2100 6000 60  0001 C CNN
	1    2100 6000
	0    1    1    0   
$EndComp
Wire Wire Line
	2650 6300 2100 6300
Wire Wire Line
	2650 6300 2650 6000
Wire Wire Line
	2650 5700 2100 5700
Wire Wire Line
	2650 5900 2650 5700
Wire Wire Line
	2100 6300 1750 6300
Connection ~ 2100 6300
Wire Wire Line
	2100 5700 1750 5700
Connection ~ 2100 5700
Wire Wire Line
	1700 6050 1700 6000
Wire Wire Line
	1700 6000 1400 6000
Connection ~ 1700 6000
Wire Wire Line
	1700 6000 1700 5950
Wire Wire Line
	1450 6300 1400 6300
Wire Wire Line
	1400 6300 1400 6000
Wire Wire Line
	1400 5700 1450 5700
Wire Wire Line
	1400 6000 1400 5700
Wire Wire Line
	18350 12400 18800 12400
Wire Wire Line
	18350 12500 18800 12500
Wire Wire Line
	18350 12600 18800 12600
Wire Wire Line
	18350 12800 18800 12800
Wire Wire Line
	18350 12900 18800 12900
Wire Wire Line
	18350 13000 18800 13000
Text HLabel 14150 9900 2    60   Output ~ 0
FMC_CLK
Text HLabel 3850 5100 0    50   Input ~ 0
STM3V3
Text HLabel 3450 4600 0    50   Input ~ 0
STM3V3
$Comp
L schematicProject-rescue:GND-omega-dock-new-cache #PWR0164
U 1 1 5C202A06
P 19950 10300
F 0 "#PWR0164" H 19950 10050 50  0001 C CNN
F 1 "GND" H 19955 10127 50  0000 C CNN
F 2 "" H 19950 10300 50  0001 C CNN
F 3 "" H 19950 10300 50  0001 C CNN
	1    19950 10300
	1    0    0    -1  
$EndComp
$Comp
L schematicProject-rescue:R-device R21
U 1 1 5C202A81
P 19950 9050
F 0 "R21" H 20020 9096 50  0000 L CNN
F 1 "1k" H 20020 9005 50  0000 L CNN
F 2 "Resistor_SMD:R_0603_1608Metric_Pad1.05x0.95mm_HandSolder" V 19880 9050 50  0001 C CNN
F 3 "" H 19950 9050 50  0001 C CNN
	1    19950 9050
	1    0    0    -1  
$EndComp
Text HLabel 19950 8750 1    50   Input ~ 0
STM3V3
Wire Wire Line
	19950 8750 19950 8900
Wire Wire Line
	19950 9200 19950 9300
$Comp
L BAT-HLD-001:BAT-HLD-001 U12
U 1 1 5BC168BE
P 2250 5150
F 0 "U12" H 2250 5150 50  0001 L BNN
F 1 "BAT-HLD-001" H 2250 5150 50  0001 L BNN
F 2 "BAT-HLD-001:BAT-HLD-001" H 2250 5150 50  0001 L BNN
F 3 "CR2032 Battery Holder Surface Mount Tape and Reel" H 2250 5150 50  0001 L BNN
F 4 "BAT-HLD-001-TRCT-ND" H 2250 5150 50  0001 L BNN "Field4"
F 5 "Linx Technologies" H 2250 5150 50  0001 L BNN "Field5"
F 6 "BAT-HLD-001-TR" H 2250 5150 50  0001 L BNN "Field6"
F 7 "None" H 2250 5150 50  0001 L BNN "Field7"
F 8 "https://www.digikey.com.co/product-detail/en/linx-technologies-inc/BAT-HLD-001-TR/BAT-HLD-001-TRCT-ND/5803803?utm_source=snapeda&utm_medium=aggregator&utm_campaign=symbol" H 2250 5150 50  0001 L BNN "Field8"
	1    2250 5150
	1    0    0    -1  
$EndComp
Wire Wire Line
	13500 9100 13950 9100
Text Label 13950 9100 2    50   ~ 0
PC12
$Comp
L schematicProject-rescue:STM32F446ZETx-MCU_ST_STM32 U8
U 1 1 5B7EAE11
P 8800 7800
F 0 "U8" H 9850 4050 50  0000 C CNN
F 1 "STM32F446ZETx" H 9850 3950 50  0000 C CNN
F 2 "Package_QFP:TQFP-144_20x20mm_P0.5mm" H 13300 11475 50  0001 R TNN
F 3 "http://www.st.com/st-web-ui/static/active/en/resource/technical/document/datasheet/DM00141306.pdf" H 8800 7800 50  0001 C CNN
	1    8800 7800
	1    0    0    -1  
$EndComp
Wire Wire Line
	4100 7100 3800 7100
Wire Wire Line
	4100 7200 3800 7200
Wire Wire Line
	4100 7300 3800 7300
Wire Wire Line
	4100 7400 3800 7400
Text Label 3800 7100 0    50   ~ 0
PG9
Text Label 3800 7200 0    50   ~ 0
PG10
Text Label 3800 7300 0    50   ~ 0
PG11
Text Label 3800 7400 0    50   ~ 0
PG12
Wire Wire Line
	4100 7600 3800 7600
Wire Wire Line
	4100 7700 3800 7700
Text Label 3800 7600 0    50   ~ 0
PG14
Text Label 3800 7700 0    50   ~ 0
PG15
NoConn ~ 4100 9400
NoConn ~ 4100 9300
NoConn ~ 4100 9200
NoConn ~ 4100 9100
NoConn ~ 4100 9000
Text Label 14100 5300 2    50   ~ 0
PA8
Text Label 14100 5400 2    50   ~ 0
PA9
Text Label 14100 5500 2    50   ~ 0
PA10
Text Label 14100 5600 2    50   ~ 0
PA11
Text Label 14100 5700 2    50   ~ 0
PA12
Text Label 14100 8700 2    50   ~ 0
PC8
Text Label 14100 8800 2    50   ~ 0
PC9
Wire Wire Line
	18350 12700 18800 12700
Text Label 18350 12400 0    50   ~ 0
PC12
Text Label 18350 12500 0    50   ~ 0
PG9
Text Label 18350 12600 0    50   ~ 0
PG10
Text Label 18350 12700 0    50   ~ 0
PG11
Text Label 18350 12800 0    50   ~ 0
PG12
Text Label 18350 12900 0    50   ~ 0
PG14
Text Label 18350 13000 0    50   ~ 0
PG15
$Comp
L Connector_Generic:Conn_01x11 J7
U 1 1 5C10BF32
P 19000 12700
F 0 "J7" H 19080 12742 50  0000 L CNN
F 1 "Conn_01x11" H 19080 12651 50  0000 L CNN
F 2 "kicad footprints:PinHeader_1x11_P2.54mm_Vertical" H 19000 12700 50  0001 C CNN
F 3 "~" H 19000 12700 50  0001 C CNN
	1    19000 12700
	1    0    0    -1  
$EndComp
$Comp
L schematicProject-rescue:GND-chip_media-cache-2018-09-25-05-03-38 #PWR0118
U 1 1 5C1F2672
P 18250 12300
F 0 "#PWR0118" H 18250 12050 50  0001 C CNN
F 1 "GND" H 18255 12127 50  0000 C CNN
F 2 "" H 18250 12300 50  0000 C CNN
F 3 "" H 18250 12300 50  0000 C CNN
	1    18250 12300
	1    0    0    -1  
$EndComp
Wire Wire Line
	18800 12300 18250 12300
Wire Wire Line
	18350 12200 18800 12200
Text HLabel 18350 12200 0    50   Input ~ 0
STM3V3
$Comp
L schematicProject-rescue:GND-chip_media-cache-2018-09-25-05-03-38 #PWR0127
U 1 1 5C220832
P 18250 13200
F 0 "#PWR0127" H 18250 12950 50  0001 C CNN
F 1 "GND" H 18255 13027 50  0000 C CNN
F 2 "" H 18250 13200 50  0000 C CNN
F 3 "" H 18250 13200 50  0000 C CNN
	1    18250 13200
	1    0    0    -1  
$EndComp
Wire Wire Line
	18800 13200 18250 13200
Wire Wire Line
	18350 13100 18800 13100
Text HLabel 18350 13100 0    50   Input ~ 0
STM3V3
Text HLabel 8600 3550 0    50   Input ~ 0
STM3V3
Text HLabel 5150 2450 0    50   Input ~ 0
STM3V3
Wire Wire Line
	4750 13150 5150 13150
Connection ~ 4750 12650
Wire Wire Line
	4750 12650 5150 12650
$Comp
L schematicProject-rescue:C-device C19
U 1 1 5BC725F7
P 5150 12900
F 0 "C19" H 5265 12946 50  0000 L CNN
F 1 "0.1u" H 5265 12855 50  0000 L CNN
F 2 "Capacitor_SMD:C_0603_1608Metric_Pad1.05x0.95mm_HandSolder" H 5188 12750 50  0001 C CNN
F 3 "" H 5150 12900 50  0001 C CNN
	1    5150 12900
	1    0    0    -1  
$EndComp
Wire Wire Line
	5150 12750 5150 12650
Connection ~ 5150 12650
Wire Wire Line
	5150 12650 5550 12650
Wire Wire Line
	5150 13050 5150 13150
Connection ~ 5150 13150
Wire Wire Line
	5150 13150 5550 13150
$Comp
L schematicProject-rescue:C-device C51
U 1 1 5BCAF05A
P 8500 12900
F 0 "C51" H 8615 12946 50  0000 L CNN
F 1 "0.1u" H 8615 12855 50  0000 L CNN
F 2 "Capacitor_SMD:C_0603_1608Metric_Pad1.05x0.95mm_HandSolder" H 8538 12750 50  0001 C CNN
F 3 "" H 8500 12900 50  0001 C CNN
	1    8500 12900
	1    0    0    -1  
$EndComp
Wire Wire Line
	8500 12750 8500 12650
Wire Wire Line
	8500 12650 8100 12650
Connection ~ 8100 12650
Wire Wire Line
	8500 13050 8500 13150
Wire Wire Line
	8500 13150 8100 13150
Connection ~ 8100 13150
$Comp
L NX3215SA-32.768K-STD-MUA-8:NX3215SA-32.768K-STD-MUA-8 Y1
U 1 1 5BC96F8B
P 15450 8900
F 0 "Y1" V 15804 9028 50  0000 L CNN
F 1 "NX3215SA-32.768K-STD-MUA-8" V 15895 9028 50  0000 L CNN
F 2 "NX3215SA" H 16100 9000 50  0001 L CNN
F 3 "http://www.ndk.com/images/products/catalog/c_NX3215SA-STD-MUA-14_e.pdf" H 16100 8900 50  0001 L CNN
F 4 "Crsytal unit for OA/AV/Mobile communications/Automotive" H 16100 8800 50  0001 L CNN "Description"
F 5 "" H 16100 8700 50  0001 L CNN "Height"
F 6 "NDK" H 16100 8600 50  0001 L CNN "Manufacturer_Name"
F 7 "NX3215SA-32.768K-STD-MUA-8" H 16100 8500 50  0001 L CNN "Manufacturer_Part_Number"
F 8 "" H 16100 8400 50  0001 L CNN "RS Part Number"
F 9 "" H 16100 8300 50  0001 L CNN "RS Price/Stock"
F 10 "NX3215SA-32.768K-STD-MUA-8" H 16100 8200 50  0001 L CNN "Arrow Part Number"
F 11 "" H 16100 8100 50  0001 L CNN "Arrow Price/Stock"
	1    15450 8900
	0    1    1    0   
$EndComp
Wire Wire Line
	15450 8900 14950 8900
Wire Wire Line
	14950 8900 14950 9300
Wire Wire Line
	14950 9700 15450 9700
Wire Wire Line
	14950 9400 14950 9700
Wire Wire Line
	15450 9700 15850 9700
Connection ~ 15450 9700
Wire Wire Line
	15450 8900 15850 8900
Connection ~ 15450 8900
Wire Wire Line
	16150 8900 16200 8900
Wire Wire Line
	16150 9700 16200 9700
Wire Wire Line
	16200 9300 16200 9700
Wire Wire Line
	16200 8900 16200 9300
Wire Wire Line
	13500 10900 14150 10900
Wire Wire Line
	13500 10300 14150 10300
Wire Bus Line
	3350 9900 3350 10450
Wire Bus Line
	14250 10550 14250 10950
Wire Bus Line
	13950 9500 13950 11250
Wire Bus Line
	3650 10400 3650 11350
$EndSCHEMATC
