PCBNEW-LibModule-V1  
# encoding utf-8
Units mm
$INDEX
SOT230P700X180-4N
$EndINDEX
$MODULE SOT230P700X180-4N
Po 0 0 0 15 00000000 00000000 ~~
Li SOT230P700X180-4N
Cd 
Sc 00000000
At SMD
Op 0 0 0
.SolderMask 0
.SolderPaste 0
T0 -9.0509 -41.0853 7.12591 7.12591 0 0.05 N V 21 "SOT230P700X180-4N"
T1 -4.5759 41.5702 7.21065 7.21065 0 0.05 N V 21 "VAL**"
DS 3.2766 -1.778 3.2766 1.778 0.2032 21
DS 3.2766 1.778 -3.2766 1.778 0.2032 21
DS -3.2766 1.778 -3.2766 -1.778 0.2032 21
DS -3.2766 -1.778 3.2766 -1.778 0.2032 21
T2 7.037020 29.765200 1 1 0 .05 N V 21 "3"
T2 13.550900 -18.068800 1 1 0 .05 N V 21 "4"
T2 -23.866200 29.851900 1 1 0 .05 N V 21 "1"
T2 -9.691600 32.498400 1 1 0 .05 N V 21 "2"
DP 0 0 0 0 4 0 24
Dl -11.3478 -3.6576
Dl 1.6002 -3.6576
Dl 1.6002 -12.7891
Dl -11.3478 -12.7891
DP 0 0 0 0 4 0 24
Dl -3.12264 1.8034
Dl 0.4318 1.8034
Dl 0.4318 26.4511
Dl -3.12264 26.4511
DP 0 0 0 0 4 0 24
Dl -19.3374 1.8034
Dl -1.8796 1.8034
Dl -1.8796 25.7865
Dl -19.3374 25.7865
DP 0 0 0 0 4 0 24
Dl 13.1452 1.8034
Dl 2.7432 1.8034
Dl 2.7432 25.5825
Dl 13.1452 25.5825
DP 0 0 0 0 4 0 24
Dl -11.2056 -3.6576
Dl 1.6002 -3.6576
Dl 1.6002 -12.6287
Dl -11.2056 -12.6287
DP 0 0 0 0 4 0 24
Dl -3.04381 1.8034
Dl 0.4318 1.8034
Dl 0.4318 25.7807
Dl -3.04381 25.7807
DP 0 0 0 0 4 0 24
Dl -19.5257 1.8034
Dl -1.8796 1.8034
Dl -1.8796 26.0332
Dl -19.5257 26.0332
DP 0 0 0 0 4 0 24
Dl 12.6954 1.8034
Dl 2.7432 1.8034
Dl 2.7432 24.7038
Dl 12.6954 24.7038
$PAD
Sh "1" R 1.2192 2.2352 0 0 0
At SMD N 00888000
.SolderMask 0
.SolderPaste 0
Ne 0 ""
Po -2.3114 3.0988
$EndPAD
$PAD
Sh "2" R 1.2192 2.2352 0 0 0
At SMD N 00888000
.SolderMask 0
.SolderPaste 0
Ne 0 ""
Po 0 3.0988
$EndPAD
$PAD
Sh "3" R 1.2192 2.2352 0 0 0
At SMD N 00888000
.SolderMask 0
.SolderPaste 0
Ne 0 ""
Po 2.3114 3.0988
$EndPAD
$PAD
Sh "4" R 3.6 2.2 0 0 0
At SMD N 00888000
.SolderMask 0
.SolderPaste 0
Ne 0 ""
Po 0 -3.099
$EndPAD
$EndMODULE SOT230P700X180-4N
