EESchema Schematic File Version 4
LIBS:schematicProject-cache
EELAYER 26 0
EELAYER END
$Descr A1 33110 23386
encoding utf-8
Sheet 3 5
Title ""
Date ""
Rev ""
Comp ""
Comment1 ""
Comment2 ""
Comment3 ""
Comment4 ""
$EndDescr
Wire Wire Line
	19050 11650 19150 11650
Text Label 19800 11200 0    60   ~ 0
UD+
Text Label 19800 11300 0    60   ~ 0
UD-
Wire Wire Line
	19150 11650 19150 11750
$Comp
L schematicProject-rescue:GND-omega-dock-new-cache #PWR0102
U 1 1 5BB321BF
P 19150 11750
F 0 "#PWR0102" H 19150 11500 50  0001 C CNN
F 1 "GND" H 19155 11577 50  0000 C CNN
F 2 "" H 19150 11750 50  0001 C CNN
F 3 "" H 19150 11750 50  0001 C CNN
	1    19150 11750
	1    0    0    -1  
$EndComp
$Comp
L schematicProject-rescue:GND-omega-dock-new-cache #PWR0103
U 1 1 5BB321C5
P 20150 11900
F 0 "#PWR0103" H 20150 11650 50  0001 C CNN
F 1 "GND" H 20155 11727 50  0000 C CNN
F 2 "" H 20150 11900 50  0001 C CNN
F 3 "" H 20150 11900 50  0001 C CNN
	1    20150 11900
	1    0    0    -1  
$EndComp
Wire Wire Line
	21000 11200 21350 11200
$Comp
L schematicProject-rescue:Barrel_Jack_Switch-Connector J1
U 1 1 5BB321D6
P 8100 5500
F 0 "J1" H 8155 5817 50  0000 C CNN
F 1 "Barrel_Jack_Switch" H 8155 5726 50  0000 C CNN
F 2 "PJ-002A:CUI_PJ-002A" H 8150 5460 50  0001 C CNN
F 3 "~" H 8150 5460 50  0001 C CNN
	1    8100 5500
	1    0    0    -1  
$EndComp
Wire Wire Line
	8400 5600 8450 5600
Wire Wire Line
	8550 5600 8550 5700
Wire Wire Line
	8400 5500 8450 5500
Wire Wire Line
	8450 5500 8450 5600
Connection ~ 8450 5600
Wire Wire Line
	8450 5600 8550 5600
$Comp
L schematicProject-rescue:GND-power #PWR0104
U 1 1 5BB321E5
P 8550 5700
F 0 "#PWR0104" H 8550 5450 50  0001 C CNN
F 1 "GND" H 8555 5527 50  0000 C CNN
F 2 "" H 8550 5700 50  0001 C CNN
F 3 "" H 8550 5700 50  0001 C CNN
	1    8550 5700
	1    0    0    -1  
$EndComp
$Comp
L schematicProject-rescue:D_Schottky_ALT-Device D1
U 1 1 5BB321F2
P 17450 11000
F 0 "D1" V 17350 10800 50  0000 L CNN
F 1 "DIODE" V 17450 10700 50  0000 L CNN
F 2 "Diode_SMD:D_SOD-123" H 17450 11000 50  0001 C CNN
F 3 "~" H 17450 11000 50  0001 C CNN
	1    17450 11000
	0    1    1    0   
$EndComp
Wire Wire Line
	17450 10850 17450 10600
$Comp
L schematicProject-rescue:CAP-pspice C7
U 1 1 5BB321FA
P 17850 11000
F 0 "C7" H 18028 11046 50  0000 L CNN
F 1 "33uF" H 18028 10955 50  0000 L CNN
F 2 "Capacitor_SMD:C_0603_1608Metric_Pad1.05x0.95mm_HandSolder" H 17850 11000 50  0001 C CNN
F 3 "" H 17850 11000 50  0001 C CNN
	1    17850 11000
	1    0    0    -1  
$EndComp
$Comp
L schematicProject-rescue:CAP-pspice C8
U 1 1 5BB32201
P 18500 11000
F 0 "C8" H 18678 11046 50  0000 L CNN
F 1 "100nF" H 18678 10955 50  0000 L CNN
F 2 "Capacitor_SMD:C_0603_1608Metric_Pad1.05x0.95mm_HandSolder" H 18500 11000 50  0001 C CNN
F 3 "" H 18500 11000 50  0001 C CNN
	1    18500 11000
	1    0    0    -1  
$EndComp
$Comp
L schematicProject-rescue:GND-power #PWR0105
U 1 1 5BB32208
P 17850 11550
F 0 "#PWR0105" H 17850 11300 50  0001 C CNN
F 1 "GND" H 17855 11377 50  0000 C CNN
F 2 "" H 17850 11550 50  0001 C CNN
F 3 "" H 17850 11550 50  0001 C CNN
	1    17850 11550
	1    0    0    -1  
$EndComp
Wire Wire Line
	17450 11150 17450 11400
Wire Wire Line
	18500 11400 18500 11250
Wire Wire Line
	17850 11250 17850 11400
Wire Wire Line
	17450 11400 17850 11400
Connection ~ 17850 11400
Wire Wire Line
	17850 11400 18500 11400
Wire Wire Line
	17850 10750 17850 10600
Wire Wire Line
	17450 10600 17850 10600
Connection ~ 17850 10600
Wire Wire Line
	17850 10600 18500 10600
Wire Wire Line
	18500 10750 18500 10600
Connection ~ 18500 10600
Wire Wire Line
	18500 10600 19150 10600
Wire Wire Line
	17850 11550 17850 11400
$Comp
L schematicProject-rescue:L-Device L1
U 1 1 5BB3221C
P 18100 10300
F 0 "L1" V 17922 10300 50  0000 C CNN
F 1 "L" V 18013 10300 50  0000 C CNN
F 2 "kicad footprints:R_0805_2012Metric_Pad1.15x1.40mm_HandSolder" H 18100 10300 50  0001 C CNN
F 3 "~" H 18100 10300 50  0001 C CNN
	1    18100 10300
	0    1    1    0   
$EndComp
Wire Wire Line
	18500 10600 18500 10300
Wire Wire Line
	18500 10300 18250 10300
Wire Wire Line
	17950 10300 17750 10300
Wire Wire Line
	17750 10300 17750 10050
Wire Notes Line
	5800 4050 12300 4050
Wire Notes Line
	12300 4050 12300 7500
Wire Notes Line
	12300 7500 5800 7500
Wire Notes Line
	5800 4050 5800 7500
Wire Notes Line
	5800 4400 12300 4400
Wire Notes Line
	16150 4050 22650 4050
Wire Notes Line
	22650 4050 22650 7500
Wire Notes Line
	22650 7500 16150 7500
Wire Notes Line
	16150 4050 16150 7500
Wire Notes Line
	16150 4400 22650 4400
Wire Notes Line
	16200 9200 22700 9200
Wire Notes Line
	22700 9200 22700 12650
Wire Notes Line
	22700 12650 16200 12650
Wire Notes Line
	16200 9200 16200 12650
Wire Notes Line
	16200 9550 22700 9550
Wire Notes Line
	5850 9300 12350 9300
Wire Notes Line
	12350 9300 12350 12750
Wire Notes Line
	12350 12750 5850 12750
Wire Notes Line
	5850 9300 5850 12750
Wire Notes Line
	5850 9650 12350 9650
Text Notes 8100 4300 0    118  Italic 24
PRINCIPAL CONNECTOR\n
Text Notes 8200 9550 0    118  Italic 24
POWER SUPPLY ICE40 \n
Text Notes 18550 4300 0    118  Italic 24
ONION SUPPLY STM32-OMEGA2\n
Text Notes 18950 9500 0    118  Italic 24
USB\n
Text GLabel 11750 11200 2    50   Input ~ 0
ICE_1.2V
$Comp
L schematicProject-rescue:C-Device C?
U 1 1 5C0C0FB7
P 9550 11350
AR Path="/5BB72E68/5C0C0FB7" Ref="C?"  Part="1" 
AR Path="/5BB736EF/5C0C0FB7" Ref="C?"  Part="1" 
AR Path="/5BB31CB8/5C0C0FB7" Ref="C5"  Part="1" 
F 0 "C5" H 9300 11400 50  0000 L CNN
F 1 "1uF" H 9300 11300 50  0000 L CNN
F 2 "Capacitor_SMD:C_0603_1608Metric_Pad1.05x0.95mm_HandSolder" H 9588 11200 50  0001 C CNN
F 3 "~" H 9550 11350 50  0001 C CNN
	1    9550 11350
	1    0    0    -1  
$EndComp
$Comp
L schematicProject-rescue:C-Device C?
U 1 1 5C0C0FBE
P 11400 11450
AR Path="/5BB72E68/5C0C0FBE" Ref="C?"  Part="1" 
AR Path="/5BB736EF/5C0C0FBE" Ref="C?"  Part="1" 
AR Path="/5BB31CB8/5C0C0FBE" Ref="C6"  Part="1" 
F 0 "C6" H 11515 11496 50  0000 L CNN
F 1 "1uF" H 11515 11405 50  0000 L CNN
F 2 "Capacitor_SMD:C_0603_1608Metric_Pad1.05x0.95mm_HandSolder" H 11438 11300 50  0001 C CNN
F 3 "~" H 11400 11450 50  0001 C CNN
	1    11400 11450
	1    0    0    -1  
$EndComp
Wire Wire Line
	9550 11200 9550 11100
Connection ~ 9550 11100
Wire Wire Line
	9550 11100 9700 11100
Connection ~ 11400 11200
Wire Wire Line
	11400 11200 11400 11300
$Comp
L schematicProject-rescue:GND-power #PWR?
U 1 1 5C0C0FCE
P 9600 11600
AR Path="/5BB72E68/5C0C0FCE" Ref="#PWR?"  Part="1" 
AR Path="/5BB736EF/5C0C0FCE" Ref="#PWR?"  Part="1" 
AR Path="/5BB31CB8/5C0C0FCE" Ref="#PWR0114"  Part="1" 
F 0 "#PWR0114" H 9600 11350 50  0001 C CNN
F 1 "GND" H 9605 11427 50  0000 C CNN
F 2 "" H 9600 11600 50  0001 C CNN
F 3 "" H 9600 11600 50  0001 C CNN
	1    9600 11600
	1    0    0    -1  
$EndComp
Wire Wire Line
	11400 11200 11750 11200
Wire Wire Line
	9200 11100 9550 11100
$Comp
L schematicProject-rescue:CP_Small-omega-dock-new-rescue C?
U 1 1 5C0E3295
P 6650 11000
AR Path="/5B7D7C2A/5C0E3295" Ref="C?"  Part="1" 
AR Path="/5C0E3295" Ref="C?"  Part="1" 
AR Path="/5BB31CB8/5C0E3295" Ref="C1"  Part="1" 
F 0 "C1" H 6660 11070 50  0000 L CNN
F 1 "1uF" H 6660 10920 50  0000 L CNN
F 2 "Capacitor_SMD:C_0603_1608Metric_Pad1.05x0.95mm_HandSolder" H 6650 11000 50  0001 C CNN
F 3 "" H 6650 11000 50  0001 C CNN
	1    6650 11000
	1    0    0    -1  
$EndComp
$Comp
L schematicProject-rescue:CP_Small-omega-dock-new-rescue C?
U 1 1 5C0E329C
P 7750 11000
AR Path="/5B7D7C2A/5C0E329C" Ref="C?"  Part="1" 
AR Path="/5C0E329C" Ref="C?"  Part="1" 
AR Path="/5BB31CB8/5C0E329C" Ref="C2"  Part="1" 
F 0 "C2" H 7760 11070 50  0000 L CNN
F 1 "1uF" H 7760 10920 50  0000 L CNN
F 2 "Capacitor_SMD:C_0603_1608Metric_Pad1.05x0.95mm_HandSolder" H 7750 11000 50  0001 C CNN
F 3 "" H 7750 11000 50  0001 C CNN
	1    7750 11000
	1    0    0    -1  
$EndComp
Wire Wire Line
	7600 10850 7750 10850
Wire Wire Line
	6650 10900 6650 10850
Connection ~ 6650 10850
Wire Wire Line
	6650 10850 6800 10850
Wire Wire Line
	7750 10850 7750 10900
$Comp
L schematicProject-rescue:GND-omega-dock-new-cache #PWR0115
U 1 1 5C0E32A8
P 7600 11350
F 0 "#PWR0115" H 7600 11100 50  0001 C CNN
F 1 "GND" H 7605 11177 50  0000 C CNN
F 2 "" H 7600 11350 50  0001 C CNN
F 3 "" H 7600 11350 50  0001 C CNN
	1    7600 11350
	1    0    0    -1  
$EndComp
$Comp
L schematicProject-rescue:GND-omega-dock-new-cache #PWR0116
U 1 1 5C0E32AE
P 6650 11100
F 0 "#PWR0116" H 6650 10850 50  0001 C CNN
F 1 "GND" H 6655 10927 50  0000 C CNN
F 2 "" H 6650 11100 50  0001 C CNN
F 3 "" H 6650 11100 50  0001 C CNN
	1    6650 11100
	1    0    0    -1  
$EndComp
$Comp
L schematicProject-rescue:GND-omega-dock-new-cache #PWR0117
U 1 1 5C0E32B4
P 7750 11100
F 0 "#PWR0117" H 7750 10850 50  0001 C CNN
F 1 "GND" H 7755 10927 50  0000 C CNN
F 2 "" H 7750 11100 50  0001 C CNN
F 3 "" H 7750 11100 50  0001 C CNN
	1    7750 11100
	1    0    0    -1  
$EndComp
Wire Wire Line
	6350 10850 6650 10850
Text GLabel 6350 10850 0    50   Input ~ 0
5V
Wire Wire Line
	7750 10850 8050 10850
Connection ~ 7750 10850
$Comp
L AZ1117EH-3.3TRG1:AZ1117EH-3.3TRG1 U1
U 1 1 5BB5DC4D
P 7200 10950
F 0 "U1" H 7200 11315 50  0000 C CNN
F 1 "AZ1117EH-3.3TRG1" H 7200 11224 50  0000 C CNN
F 2 "SOT230P700X180-4N" H 7200 10950 50  0001 L BNN
F 3 "Ldo.Vreg Pos 3, 3v 1a Sot223" H 7200 10950 50  0001 L BNN
F 4 "AZ1117EH-3.3TRG1DICT-ND" H 7200 10950 50  0001 L BNN "Field4"
F 5 "Diodes Inc." H 7200 10950 50  0001 L BNN "Field5"
F 6 "AZ1117EH-3.3TRG1" H 7200 10950 50  0001 L BNN "Field6"
F 7 "SOT-223 Diodes Inc." H 7200 10950 50  0001 L BNN "Field7"
F 8 "https://www.digikey.com.co/product-detail/en/diodes-incorporated/AZ1117EH-3.3TRG1/AZ1117EH-3.3TRG1DICT-ND/5001336?utm_source=snapeda&utm_medium=aggregator&utm_campaign=symbol" H 7200 10950 50  0001 L BNN "Field8"
	1    7200 10950
	1    0    0    -1  
$EndComp
$Comp
L TLV1117-15CDCY:TLV1117-15CDCY U2
U 1 1 5BB5DE17
P 10500 11100
F 0 "U2" H 10500 11470 50  0000 C CNN
F 1 "ZLDO1117" H 10500 11379 50  0000 C CNN
F 2 "SOT230P700X180-4N" H 10500 11100 50  0001 L BNN
F 3 "Single Output LDO, 800mA, Fixed and Adj., Internal Current limit, Thermal Overload Protection 4-SOT-223 0 to 125" H 10500 11100 50  0001 L BNN
F 4 "296-34399-5-ND" H 10500 11100 50  0001 L BNN "Field4"
F 5 "Texas Instruments" H 10500 11100 50  0001 L BNN "Field5"
F 6 "TLV1117-15CDCY" H 10500 11100 50  0001 L BNN "Field6"
F 7 "SOT-223 Texas Instruments" H 10500 11100 50  0001 L BNN "Field7"
F 8 "https://www.digikey.com.co/product-detail/en/texas-instruments/TLV1117-15CDCY/296-34399-5-ND/1677091?utm_source=snapeda&utm_medium=aggregator&utm_campaign=symbol" H 10500 11100 50  0001 L BNN "Field8"
	1    10500 11100
	1    0    0    -1  
$EndComp
Wire Wire Line
	7600 11050 7600 11350
Text GLabel 20350 5650 2    50   Input ~ 0
3V3_PRIN
Wire Wire Line
	9700 11400 9700 11600
Wire Wire Line
	9700 11600 9600 11600
Wire Wire Line
	9550 11600 9550 11500
Connection ~ 9600 11600
Wire Wire Line
	9600 11600 9550 11600
$Comp
L schematicProject-rescue:GND-power #PWR?
U 1 1 5BB7D8F7
P 11400 11600
AR Path="/5BB72E68/5BB7D8F7" Ref="#PWR?"  Part="1" 
AR Path="/5BB736EF/5BB7D8F7" Ref="#PWR?"  Part="1" 
AR Path="/5BB31CB8/5BB7D8F7" Ref="#PWR0109"  Part="1" 
F 0 "#PWR0109" H 11400 11350 50  0001 C CNN
F 1 "GND" H 11405 11427 50  0000 C CNN
F 2 "" H 11400 11600 50  0001 C CNN
F 3 "" H 11400 11600 50  0001 C CNN
	1    11400 11600
	1    0    0    -1  
$EndComp
$Comp
L schematicProject-rescue:CP_Small-omega-dock-new-rescue C?
U 1 1 5BB8C16A
P 18950 5800
AR Path="/5B7D7C2A/5BB8C16A" Ref="C?"  Part="1" 
AR Path="/5BB8C16A" Ref="C?"  Part="1" 
AR Path="/5BB31CB8/5BB8C16A" Ref="C31"  Part="1" 
F 0 "C31" H 18960 5870 50  0000 L CNN
F 1 "1uF" H 18960 5720 50  0000 L CNN
F 2 "Capacitor_SMD:C_0603_1608Metric_Pad1.05x0.95mm_HandSolder" H 18950 5800 50  0001 C CNN
F 3 "" H 18950 5800 50  0001 C CNN
	1    18950 5800
	1    0    0    -1  
$EndComp
$Comp
L schematicProject-rescue:CP_Small-omega-dock-new-rescue C?
U 1 1 5BB8C171
P 20050 5800
AR Path="/5B7D7C2A/5BB8C171" Ref="C?"  Part="1" 
AR Path="/5BB8C171" Ref="C?"  Part="1" 
AR Path="/5BB31CB8/5BB8C171" Ref="C32"  Part="1" 
F 0 "C32" H 20060 5870 50  0000 L CNN
F 1 "1uF" H 20060 5720 50  0000 L CNN
F 2 "Capacitor_SMD:C_0603_1608Metric_Pad1.05x0.95mm_HandSolder" H 20050 5800 50  0001 C CNN
F 3 "" H 20050 5800 50  0001 C CNN
	1    20050 5800
	1    0    0    -1  
$EndComp
Wire Wire Line
	19900 5650 20050 5650
Wire Wire Line
	18950 5700 18950 5650
Connection ~ 18950 5650
Wire Wire Line
	18950 5650 19100 5650
Wire Wire Line
	20050 5650 20050 5700
$Comp
L schematicProject-rescue:GND-omega-dock-new-cache #PWR0110
U 1 1 5BB8C17D
P 19900 6150
F 0 "#PWR0110" H 19900 5900 50  0001 C CNN
F 1 "GND" H 19905 5977 50  0000 C CNN
F 2 "" H 19900 6150 50  0001 C CNN
F 3 "" H 19900 6150 50  0001 C CNN
	1    19900 6150
	1    0    0    -1  
$EndComp
$Comp
L schematicProject-rescue:GND-omega-dock-new-cache #PWR0111
U 1 1 5BB8C183
P 18950 5900
F 0 "#PWR0111" H 18950 5650 50  0001 C CNN
F 1 "GND" H 18955 5727 50  0000 C CNN
F 2 "" H 18950 5900 50  0001 C CNN
F 3 "" H 18950 5900 50  0001 C CNN
	1    18950 5900
	1    0    0    -1  
$EndComp
$Comp
L schematicProject-rescue:GND-omega-dock-new-cache #PWR0165
U 1 1 5BB8C189
P 20050 5900
F 0 "#PWR0165" H 20050 5650 50  0001 C CNN
F 1 "GND" H 20055 5727 50  0000 C CNN
F 2 "" H 20050 5900 50  0001 C CNN
F 3 "" H 20050 5900 50  0001 C CNN
	1    20050 5900
	1    0    0    -1  
$EndComp
Wire Wire Line
	18650 5650 18950 5650
Text GLabel 18650 5650 0    50   Input ~ 0
5V
Wire Wire Line
	20050 5650 20350 5650
Connection ~ 20050 5650
$Comp
L AZ1117EH-3.3TRG1:AZ1117EH-3.3TRG1 U3
U 1 1 5BB8C198
P 19500 5750
F 0 "U3" H 19500 6115 50  0000 C CNN
F 1 "AZ1117EH-3.3TRG1" H 19500 6024 50  0000 C CNN
F 2 "SOT230P700X180-4N" H 19500 5750 50  0001 L BNN
F 3 "Ldo.Vreg Pos 3, 3v 1a Sot223" H 19500 5750 50  0001 L BNN
F 4 "AZ1117EH-3.3TRG1DICT-ND" H 19500 5750 50  0001 L BNN "Field4"
F 5 "Diodes Inc." H 19500 5750 50  0001 L BNN "Field5"
F 6 "AZ1117EH-3.3TRG1" H 19500 5750 50  0001 L BNN "Field6"
F 7 "SOT-223 Diodes Inc." H 19500 5750 50  0001 L BNN "Field7"
F 8 "https://www.digikey.com.co/product-detail/en/diodes-incorporated/AZ1117EH-3.3TRG1/AZ1117EH-3.3TRG1DICT-ND/5001336?utm_source=snapeda&utm_medium=aggregator&utm_campaign=symbol" H 19500 5750 50  0001 L BNN "Field8"
	1    19500 5750
	1    0    0    -1  
$EndComp
Wire Wire Line
	19900 5850 19900 6150
Text GLabel 18650 5650 0    50   Input ~ 0
5V
Text GLabel 17750 10050 1    50   Input ~ 0
5V
Text GLabel 8050 10850 2    50   Input ~ 0
ICE_3.3V
Text GLabel 21350 11200 2    50   Input ~ 0
D+
Text GLabel 21350 11300 2    50   Input ~ 0
D-
$Comp
L Power_Protection:SP0502BAJT D5
U 1 1 5BC43833
P 20150 11700
F 0 "D5" H 20355 11746 50  0000 L CNN
F 1 "SP0502BAHT" H 20355 11655 50  0000 L CNN
F 2 "Package_TO_SOT_SMD:SOT-23" H 20375 11650 50  0001 L CNN
F 3 "http://www.littelfuse.com/~/media/files/littelfuse/technical%20resources/documents/data%20sheets/sp05xxba.pdf" H 20275 11825 50  0001 C CNN
	1    20150 11700
	1    0    0    -1  
$EndComp
$Comp
L UL_SRF2012900YA:SRF2012-900YA L4
U 1 1 5BC43B3D
P 20400 11200
F 0 "L4" H 20700 11489 60  0000 C CNN
F 1 "SRF2012-900YA" H 20700 11383 60  0000 C CNN
F 2 "SRF2012-900YA:SRF2012-900YA" H 20675 10915 60  0001 C CNN
F 3 "" H 20400 11200 60  0000 C CNN
	1    20400 11200
	1    0    0    -1  
$EndComp
Wire Wire Line
	19450 11200 20250 11200
Wire Wire Line
	20050 11500 20050 11300
Connection ~ 20050 11300
Wire Wire Line
	20050 11300 20600 11300
Wire Wire Line
	20250 11200 20250 11500
Connection ~ 20250 11200
Wire Wire Line
	20250 11200 20400 11200
Wire Wire Line
	20800 11300 21350 11300
Text GLabel 9200 11100 0    50   Input ~ 0
5V
Wire Wire Line
	11300 11300 11300 11200
Connection ~ 11300 11200
Wire Wire Line
	11300 11200 11400 11200
$Comp
L schematicProject-rescue:D_Schottky_ALT-Device D3
U 1 1 5BC56C71
P 8950 5800
F 0 "D3" V 8850 5600 50  0000 L CNN
F 1 "DIODE" V 8950 5500 50  0000 L CNN
F 2 "Diode_SMD:D_SOD-123" H 8950 5800 50  0001 C CNN
F 3 "~" H 8950 5800 50  0001 C CNN
	1    8950 5800
	0    1    1    0   
$EndComp
Wire Wire Line
	8950 5650 8950 5400
$Comp
L schematicProject-rescue:CAP-pspice C3
U 1 1 5BC56C79
P 9350 5800
F 0 "C3" H 9528 5846 50  0000 L CNN
F 1 "33uF" H 9528 5755 50  0000 L CNN
F 2 "Capacitor_SMD:C_0603_1608Metric_Pad1.05x0.95mm_HandSolder" H 9350 5800 50  0001 C CNN
F 3 "" H 9350 5800 50  0001 C CNN
	1    9350 5800
	1    0    0    -1  
$EndComp
$Comp
L schematicProject-rescue:CAP-pspice C4
U 1 1 5BC56C80
P 10000 5800
F 0 "C4" H 10178 5846 50  0000 L CNN
F 1 "100nF" H 10178 5755 50  0000 L CNN
F 2 "Capacitor_SMD:C_0603_1608Metric_Pad1.05x0.95mm_HandSolder" H 10000 5800 50  0001 C CNN
F 3 "" H 10000 5800 50  0001 C CNN
	1    10000 5800
	1    0    0    -1  
$EndComp
$Comp
L schematicProject-rescue:GND-power #PWR0101
U 1 1 5BC56C87
P 9350 6350
F 0 "#PWR0101" H 9350 6100 50  0001 C CNN
F 1 "GND" H 9355 6177 50  0000 C CNN
F 2 "" H 9350 6350 50  0001 C CNN
F 3 "" H 9350 6350 50  0001 C CNN
	1    9350 6350
	1    0    0    -1  
$EndComp
Wire Wire Line
	8950 5950 8950 6200
Wire Wire Line
	10000 6200 10000 6050
Wire Wire Line
	9350 6050 9350 6200
Wire Wire Line
	8950 6200 9350 6200
Connection ~ 9350 6200
Wire Wire Line
	9350 6200 10000 6200
Wire Wire Line
	9350 5550 9350 5400
Wire Wire Line
	8950 5400 9350 5400
Connection ~ 9350 5400
Wire Wire Line
	9350 5400 10000 5400
Wire Wire Line
	10000 5550 10000 5400
Wire Wire Line
	9350 6350 9350 6200
Wire Wire Line
	8400 5400 8950 5400
Connection ~ 8950 5400
Wire Wire Line
	9350 5400 9350 5050
Wire Wire Line
	9350 5050 9250 5050
Text GLabel 8750 4900 1    50   Input ~ 0
5V
Wire Wire Line
	8950 5050 8750 5050
Wire Wire Line
	8750 5050 8750 4900
$Comp
L Device:L L5
U 1 1 5BC5EEC7
P 9100 5050
F 0 "L5" V 8922 5050 50  0000 C CNN
F 1 "L" V 9013 5050 50  0000 C CNN
F 2 "kicad footprints:R_0805_2012Metric_Pad1.15x1.40mm_HandSolder" H 9100 5050 50  0001 C CNN
F 3 "~" H 9100 5050 50  0001 C CNN
	1    9100 5050
	0    1    1    0   
$EndComp
$Comp
L UE27AC54100:UE27AC54100 J3
U 1 1 5BC906DE
P 19150 10700
F 0 "J3" V 19504 10828 50  0000 L CNN
F 1 "UE27AC54100" V 19595 10828 50  0000 L CNN
F 2 "UE27AC54100:UE27AC54100" H 19800 10800 50  0001 L CNN
F 3 "https://www.amphenolcanada.com/ProductSearch/drawings/AC/UE27ACX4X0X.pdf" H 19800 10700 50  0001 L CNN
F 4 "AMPHENOL COMMERCIAL PRODUCTS - UE27AC54100 - USB, 2.0 TYPE A, RECEPTACLE, TH" H 19800 10600 50  0001 L CNN "Description"
F 5 "" H 19800 10500 50  0001 L CNN "Height"
F 6 "AMPHENOL COMMERCIAL PRODUCTS" H 19800 10400 50  0001 L CNN "Manufacturer_Name"
F 7 "UE27AC54100" H 19800 10300 50  0001 L CNN "Manufacturer_Part_Number"
F 8 "" H 19800 10200 50  0001 L CNN "RS Part Number"
F 9 "" H 19800 10100 50  0001 L CNN "RS Price/Stock"
F 10 "UE27AC54100" H 19800 10000 50  0001 L CNN "Arrow Part Number"
F 11 "" H 19800 9900 50  0001 L CNN "Arrow Price/Stock"
	1    19150 10700
	0    1    1    0   
$EndComp
Wire Wire Line
	19150 10700 19150 10600
Wire Wire Line
	19350 11300 19350 11500
Wire Wire Line
	19350 11500 19150 11500
Wire Wire Line
	19350 11300 20050 11300
Wire Wire Line
	19450 10700 19450 11200
Wire Wire Line
	19050 11500 19050 11650
Wire Wire Line
	19050 10700 19450 10700
$EndSCHEMATC
