PCBNEW-LibModule-V1  
# encoding utf-8
Units mm
$INDEX
QFP50P2200X2200X160-144N
$EndINDEX
$MODULE QFP50P2200X2200X160-144N
Po 0 0 0 15 00000000 00000000 ~~
Li QFP50P2200X2200X160-144N
Cd 
Sc 00000000
At SMD
Op 0 0 0
.SolderMask 0
.SolderPaste 0
T0 -9.42199 -12.6561 1.00128 1.00128 0 0.05 N V 21 "QFP50P2200X2200X160-144N"
T1 -8.77911 12.6759 1.00046 1.00046 0 0.05 N V 21 "VAL**"
DS -10 -10 -10 10 0.2032 24
DS -10 10 10 10 0.2032 24
DS 10 10 10 -10 0.2032 24
DS 10 -10 -10 -10 0.2032 24
DC -8.5001 -8.5001 -7.75 -8.5001 0.254 21
DP 0 0 0 0 4 0 24
Dl -9.97659 -8.92659
Dl -9.97659 -8.59664
Dl -10.9032 -8.59664
Dl -10.9032 -8.92659
DP 0 0 0 0 4 0 24
Dl -9.97462 -8.42467
Dl -9.97462 -8.09635
Dl -10.9037 -8.09635
Dl -10.9037 -8.42467
DP 0 0 0 0 4 0 24
Dl -9.96838 -7.91838
Dl -9.96838 -7.59649
Dl -10.9033 -7.59649
Dl -10.9033 -7.91838
DP 0 0 0 0 4 0 24
Dl -9.97361 -7.42366
Dl -9.97361 -7.09491
Dl -10.9051 -7.09491
Dl -10.9051 -7.42366
DP 0 0 0 0 4 0 24
Dl -9.96334 -6.91334
Dl -9.96334 -6.59647
Dl -10.9033 -6.59647
Dl -10.9033 -6.91334
DP 0 0 0 0 4 0 24
Dl -9.9664 -6.41645
Dl -9.9664 -6.09526
Dl -10.9048 -6.09526
Dl -10.9048 -6.41645
DP 0 0 0 0 4 0 24
Dl -9.97273 -5.92273
Dl -9.97273 -5.59225
Dl -10.9076 -5.59225
Dl -10.9076 -5.92273
DP 0 0 0 0 4 0 24
Dl -9.9596 -5.40965
Dl -9.9596 -5.09645
Dl -10.9036 -5.09645
Dl -10.9036 -5.40965
DP 0 0 0 0 4 0 24
Dl -9.95443 -4.90443
Dl -9.95443 -4.59799
Dl -10.9018 -4.59799
Dl -10.9018 -4.90443
DP 0 0 0 0 4 0 24
Dl -9.96678 -4.41683
Dl -9.96678 -4.09211
Dl -10.9079 -4.09211
Dl -10.9079 -4.41683
DP 0 0 0 0 4 0 24
Dl -9.97056 -3.92056
Dl -9.97056 -3.58902
Dl -10.9108 -3.58902
Dl -10.9108 -3.92056
DP 0 0 0 0 4 0 24
Dl -9.95957 -3.40962
Dl -9.95957 -3.09449
Dl -10.9056 -3.09449
Dl -10.9056 -3.40962
DP 0 0 0 0 4 0 24
Dl -9.96556 -2.91556
Dl -9.96556 -2.58978
Dl -10.91 -2.58978
Dl -10.91 -2.91556
DP 0 0 0 0 4 0 24
Dl -9.97037 -2.42042
Dl -9.97037 -2.08555
Dl -10.9145 -2.08555
Dl -10.9145 -2.42042
DP 0 0 0 0 4 0 24
Dl -9.96228 -1.91228
Dl -9.96228 -1.59019
Dl -10.9096 -1.59019
Dl -10.9096 -1.91228
DP 0 0 0 0 4 0 24
Dl -9.963 -1.41305
Dl -9.963 -1.08883
Dl -10.9112 -1.08883
Dl -10.9112 -1.41305
DP 0 0 0 0 4 0 24
Dl -9.96296 -0.912961
Dl -9.96296 -0.587501
Dl -10.9123 -0.587501
Dl -10.9123 -0.912961
DP 0 0 0 0 4 0 24
Dl -9.95689 -0.407086
Dl -9.95689 -0.0928107
Dl -10.9072 -0.0928107
Dl -10.9072 -0.407086
DP 0 0 0 0 4 0 24
Dl -9.95863 0.0913659
Dl -9.95863 0.410118
Dl -10.9099 0.410118
Dl -10.9099 0.0913659
DP 0 0 0 0 4 0 24
Dl -9.95725 0.592547
Dl -9.95725 0.909181
Dl -10.9092 0.909181
Dl -10.9092 0.592547
DP 0 0 0 0 4 0 24
Dl -9.95091 1.09914
Dl -9.95091 1.40135
Dl -10.9013 1.40135
Dl -10.9013 1.09914
DP 0 0 0 0 4 0 24
Dl -9.9572 1.5926
Dl -9.9572 1.91109
Dl -10.9111 1.91109
Dl -10.9111 1.5926
DP 0 0 0 0 4 0 24
Dl -9.95512 2.09493
Dl -9.95512 2.40875
Dl -10.9087 2.40875
Dl -10.9087 2.09493
DP 0 0 0 0 4 0 24
Dl -9.95984 2.58996
Dl -9.95984 2.91856
Dl -10.9186 2.91856
Dl -10.9186 2.58996
DP 0 0 0 0 4 0 24
Dl -9.9569 3.09315
Dl -9.9569 3.4145
Dl -10.9145 3.4145
Dl -10.9145 3.09315
DP 0 0 0 0 4 0 24
Dl -9.96194 3.58786
Dl -9.96194 3.92794
Dl -10.9279 3.92794
Dl -10.9279 3.58786
DP 0 0 0 0 4 0 24
Dl -9.95015 4.0999
Dl -9.95015 4.40055
Dl -10.9005 4.40055
Dl -10.9005 4.0999
DP 0 0 0 0 4 0 24
Dl -9.95232 4.59748
Dl -9.95232 4.90707
Dl -10.9071 4.90707
Dl -10.9071 4.59748
DP 0 0 0 0 4 0 24
Dl -9.95522 5.09483
Dl -9.95522 5.41776
Dl -10.9177 5.41776
Dl -10.9177 5.09483
DP 0 0 0 0 4 0 24
Dl -9.95534 5.59446
Dl -9.95534 5.92089
Dl -10.9209 5.92089
Dl -10.9209 5.59446
DP 0 0 0 0 4 0 24
Dl -9.95674 6.09331
Dl -9.95674 6.43053
Dl -10.9305 6.43053
Dl -10.9305 6.09331
DP 0 0 0 0 4 0 24
Dl -9.9549 6.5949
Dl -9.9549 6.92654
Dl -10.9265 6.92654
Dl -10.9265 6.5949
DP 0 0 0 0 4 0 24
Dl -9.95315 7.0969
Dl -9.95315 7.42049
Dl -10.9204 7.42049
Dl -10.9204 7.0969
DP 0 0 0 0 4 0 24
Dl -9.95259 7.59721
Dl -9.95259 7.92125
Dl -10.9212 7.92125
Dl -10.9212 7.59721
DP 0 0 0 0 4 0 24
Dl -9.95183 8.09822
Dl -9.95183 8.41949
Dl -10.9194 8.41949
Dl -10.9194 8.09822
DP 0 0 0 0 4 0 24
Dl -9.9512 8.5986
Dl -9.9512 8.91869
Dl -10.9187 8.91869
Dl -10.9187 8.5986
DP 0 0 0 0 4 0 24
Dl -8.59809 9.95171
Dl -8.59809 10.9262
Dl -8.9262 10.9262
Dl -8.9262 9.95171
DP 0 0 0 0 4 0 24
Dl -8.09865 9.9514
Dl -8.09865 10.9149
Dl -8.41491 10.9149
Dl -8.41491 9.9514
DP 0 0 0 0 4 0 24
Dl -7.59743 9.95237
Dl -7.59743 10.9195
Dl -7.91948 10.9195
Dl -7.91948 9.95237
DP 0 0 0 0 4 0 24
Dl -7.09746 9.95259
Dl -7.09746 10.9167
Dl -7.4168 10.9167
Dl -7.4168 9.95259
DP 0 0 0 0 4 0 24
Dl -6.59546 9.95434
Dl -6.59546 10.9234
Dl -6.92341 10.9234
Dl -6.92341 9.95434
DP 0 0 0 0 4 0 24
Dl -6.09482 9.95523
Dl -6.09482 10.9237
Dl -6.42374 10.9237
Dl -6.42374 9.95523
DP 0 0 0 0 4 0 24
Dl -5.59641 9.95339
Dl -5.59641 10.9134
Dl -5.91338 10.9134
Dl -5.91338 9.95339
DP 0 0 0 0 4 0 24
Dl -5.09451 9.95554
Dl -5.09451 10.9188
Dl -5.41883 10.9188
Dl -5.41883 9.95554
DP 0 0 0 0 4 0 24
Dl -4.59841 9.95139
Dl -4.59841 10.9043
Dl -4.90434 10.9043
Dl -4.90434 9.95139
DP 0 0 0 0 4 0 24
Dl -4.09495 9.9551
Dl -4.09495 10.9134
Dl -4.41349 10.9134
Dl -4.41349 9.9551
DP 0 0 0 0 4 0 24
Dl -3.59396 9.95584
Dl -3.59396 10.9137
Dl -3.91372 10.9137
Dl -3.91372 9.95584
DP 0 0 0 0 4 0 24
Dl -3.09413 9.95592
Dl -3.09413 10.9124
Dl -3.41244 10.9124
Dl -3.41244 9.95592
DP 0 0 0 0 4 0 24
Dl -2.59058 9.95922
Dl -2.59058 10.9174
Dl -2.91742 10.9174
Dl -2.91742 9.95922
DP 0 0 0 0 4 0 24
Dl -2.09194 9.95811
Dl -2.09194 10.9138
Dl -2.41382 10.9138
Dl -2.41382 9.95811
DP 0 0 0 0 4 0 24
Dl -1.59309 9.95671
Dl -1.59309 10.9103
Dl -1.91035 10.9103
Dl -1.91035 9.95671
DP 0 0 0 0 4 0 24
Dl -1.09416 9.95589
Dl -1.09416 10.9082
Dl -1.40825 10.9082
Dl -1.40825 9.95589
DP 0 0 0 0 4 0 24
Dl -0.594303 9.9555
Dl -0.594303 10.907
Dl -0.906964 10.907
Dl -0.906964 9.9555
DP 0 0 0 0 4 0 24
Dl -0.0925417 9.95746
Dl -0.0925417 10.9086
Dl -0.408772 10.9086
Dl -0.408772 9.95746
DP 0 0 0 0 4 0 24
Dl 0.407039 9.95684
Dl 0.407039 10.9071
Dl 0.0928598 10.9071
Dl 0.0928598 9.95684
DP 0 0 0 0 4 0 24
Dl 0.913986 9.96399
Dl 0.913986 10.9133
Dl 0.586529 10.9133
Dl 0.586529 9.96399
DP 0 0 0 0 4 0 24
Dl 1.40669 9.95664
Dl 1.40669 10.9057
Dl 1.09432 10.9057
Dl 1.09432 9.95664
DP 0 0 0 0 4 0 24
Dl 1.92018 9.97018
Dl 1.92018 10.9158
Dl 1.58398 10.9158
Dl 1.58398 9.97018
DP 0 0 0 0 4 0 24
Dl 2.4196 9.96955
Dl 2.4196 10.9139
Dl 2.08613 10.9139
Dl 2.08613 9.96955
DP 0 0 0 0 4 0 24
Dl 2.91106 9.96106
Dl 2.91106 10.9071
Dl 2.59269 10.9071
Dl 2.59269 9.96106
DP 0 0 0 0 4 0 24
Dl 3.41385 9.9638
Dl 3.41385 10.908
Dl 3.092 10.908
Dl 3.092 9.9638
DP 0 0 0 0 4 0 24
Dl 3.91061 9.96061
Dl 3.91061 10.9056
Dl 3.59425 10.9056
Dl 3.59425 9.96061
DP 0 0 0 0 4 0 24
Dl 4.41322 9.96317
Dl 4.41322 10.9062
Dl 4.09384 10.9062
Dl 4.09384 9.96317
DP 0 0 0 0 4 0 24
Dl 4.9172 9.9672
Dl 4.9172 10.9072
Dl 4.59255 10.9072
Dl 4.59255 9.9672
DP 0 0 0 0 4 0 24
Dl 5.4155 9.96545
Dl 5.4155 10.9058
Dl 5.09424 10.9058
Dl 5.09424 9.96545
DP 0 0 0 0 4 0 24
Dl 5.91264 9.96264
Dl 5.91264 10.9042
Dl 5.59564 10.9042
Dl 5.59564 9.96264
DP 0 0 0 0 4 0 24
Dl 6.40982 9.95977
Dl 6.40982 10.9028
Dl 6.09723 10.9028
Dl 6.09723 9.95977
DP 0 0 0 0 4 0 24
Dl 6.92453 9.97453
Dl 6.92453 10.9062
Dl 6.59363 10.9062
Dl 6.59363 9.97453
DP 0 0 0 0 4 0 24
Dl 7.41475 9.9647
Dl 7.41475 10.9032
Dl 7.09687 10.9032
Dl 7.09687 9.9647
DP 0 0 0 0 4 0 24
Dl 7.93384 9.98384
Dl 7.93384 10.9062
Dl 7.59365 10.9062
Dl 7.59365 9.98384
DP 0 0 0 0 4 0 24
Dl 8.42266 9.97261
Dl 8.42266 10.9034
Dl 8.09664 10.9034
Dl 8.09664 9.97261
DP 0 0 0 0 4 0 24
Dl 8.90153 9.95153
Dl 8.90153 10.9001
Dl 8.59972 10.9001
Dl 8.59972 9.95153
DP 0 0 0 0 4 0 24
Dl 10.9061 8.60612
Dl 10.9061 8.89956
Dl 9.95024 8.89956
Dl 9.95024 8.60612
DP 0 0 0 0 4 0 24
Dl 10.9256 8.12572
Dl 10.9256 8.39789
Dl 9.95206 8.39789
Dl 9.95206 8.12572
DP 0 0 0 0 4 0 24
Dl 10.9327 7.6327
Dl 10.9327 7.89625
Dl 9.95355 7.89625
Dl 9.95355 7.6327
DP 0 0 0 0 4 0 24
Dl 10.9185 7.1186
Dl 10.9185 7.39738
Dl 9.95257 7.39738
Dl 9.95257 7.1186
DP 0 0 0 0 4 0 24
Dl 10.9203 6.62035
Dl 10.9203 6.89634
Dl 9.95346 6.89634
Dl 9.95346 6.62035
DP 0 0 0 0 4 0 24
Dl 10.9117 6.11184
Dl 10.9117 6.39757
Dl 9.95238 6.39757
Dl 9.95238 6.11184
DP 0 0 0 0 4 0 24
Dl 10.905 5.60499
Dl 10.905 5.89866
Dl 9.95114 5.89866
Dl 9.95114 5.60499
DP 0 0 0 0 4 0 24
Dl 10.9015 5.10166
Dl 10.9015 5.39957
Dl 9.95038 5.39957
Dl 9.95038 5.10166
DP 0 0 0 0 4 0 24
Dl 10.9012 4.60124
Dl 10.9012 4.89948
Dl 9.95032 4.89948
Dl 9.95032 4.60124
DP 0 0 0 0 4 0 24
Dl 10.9226 4.12275
Dl 10.9226 4.39161
Dl 9.95834 4.39161
Dl 9.95834 4.12275
DP 0 0 0 0 4 0 24
Dl 10.9051 3.60508
Dl 10.9051 3.89774
Dl 9.95206 3.89774
Dl 9.95206 3.60508
DP 0 0 0 0 4 0 24
Dl 10.9076 3.10779
Dl 10.9076 3.39641
Dl 9.95354 3.39641
Dl 9.95354 3.10779
DP 0 0 0 0 4 0 24
Dl 10.9084 2.60843
Dl 10.9084 2.89545
Dl 9.95435 2.89545
Dl 9.95435 2.60843
DP 0 0 0 0 4 0 24
Dl 10.9024 2.10257
Dl 10.9024 2.39857
Dl 9.95138 2.39857
Dl 9.95138 2.10257
DP 0 0 0 0 4 0 24
Dl 10.908 1.60799
Dl 10.908 1.89468
Dl 9.95512 1.89468
Dl 9.95512 1.60799
DP 0 0 0 0 4 0 24
Dl 10.9224 1.12259
Dl 10.9224 1.38397
Dl 9.96598 1.38397
Dl 9.96598 1.12259
DP 0 0 0 0 4 0 24
Dl 10.9048 0.604804
Dl 10.9048 0.896042
Dl 9.95376 0.896042
Dl 9.95376 0.604804
DP 0 0 0 0 4 0 24
Dl 10.9108 0.111002
Dl 10.9108 0.390639
Dl 9.95936 0.390639
Dl 9.95936 0.111002
DP 0 0 0 0 4 0 24
Dl 10.9087 -0.391285
Dl 10.9087 -0.108536
Dl 9.95834 -0.108536
Dl 9.95834 -0.391285
DP 0 0 0 0 4 0 24
Dl 10.9069 -0.892913
Dl 10.9069 -0.607272
Dl 9.95727 -0.607272
Dl 9.95727 -0.892913
DP 0 0 0 0 4 0 24
Dl 10.9071 -1.3928
Dl 10.9071 -1.10847
Dl 9.95832 -1.10847
Dl 9.95832 -1.3928
DP 0 0 0 0 4 0 24
Dl 10.9089 -1.89088
Dl 10.9089 -1.61147
Dl 9.96147 -1.61147
Dl 9.96147 -1.89088
DP 0 0 0 0 4 0 24
Dl 10.9068 -2.39319
Dl 10.9068 -2.10976
Dl 9.95961 -2.10976
Dl 9.95961 -2.39319
DP 0 0 0 0 4 0 24
Dl 10.9074 -2.89242
Dl 10.9074 -2.61163
Dl 9.96163 -2.61163
Dl 9.96163 -2.89242
DP 0 0 0 0 4 0 24
Dl 10.9101 -3.38989
Dl 10.9101 -3.11769
Dl 9.96754 -3.11769
Dl 9.96754 -3.38989
DP 0 0 0 0 4 0 24
Dl 10.9105 -3.8893
Dl 10.9105 -3.62041
Dl 9.97041 -3.62041
Dl 9.97041 -3.8893
DP 0 0 0 0 4 0 24
Dl 10.9064 -4.39355
Dl 10.9064 -4.11403
Dl 9.96388 -4.11403
Dl 9.96388 -4.39355
DP 0 0 0 0 4 0 24
Dl 10.9082 -4.89161
Dl 10.9082 -4.62
Dl 9.97 -4.62
Dl 9.97 -4.89161
DP 0 0 0 0 4 0 24
Dl 10.9075 -5.39244
Dl 10.9075 -5.12081
Dl 9.97066 -5.12081
Dl 9.97066 -5.39244
DP 0 0 0 0 4 0 24
Dl 10.9085 -5.89128
Dl 10.9085 -5.62675
Dl 9.97675 -5.62675
Dl 9.97675 -5.89128
DP 0 0 0 0 4 0 24
Dl 10.9043 -6.39565
Dl 10.9043 -6.11559
Dl 9.96544 -6.11559
Dl 9.96544 -6.39565
DP 0 0 0 0 4 0 24
Dl 10.9028 -6.89699
Dl 10.9028 -6.61191
Dl 9.96191 -6.61191
Dl 9.96191 -6.89699
DP 0 0 0 0 4 0 24
Dl 10.9046 -7.39531
Dl 10.9046 -7.12294
Dl 9.97279 -7.12294
Dl 9.97279 -7.39531
DP 0 0 0 0 4 0 24
Dl 10.9021 -7.89773
Dl 10.9021 -7.61255
Dl 9.96255 -7.61255
Dl 9.96255 -7.89773
DP 0 0 0 0 4 0 24
Dl 10.9006 -8.39932
Dl 10.9006 -8.10513
Dl 9.95498 -8.10513
Dl 9.95498 -8.39932
DP 0 0 0 0 4 0 24
Dl 10.9008 -8.89899
Dl 10.9008 -8.60852
Dl 9.95852 -8.60852
Dl 9.95852 -8.89899
DP 0 0 0 0 4 0 24
Dl 8.89849 -10.9013
Dl 8.89849 -9.96274
Dl 8.61274 -9.96274
Dl 8.61274 -10.9013
DP 0 0 0 0 4 0 24
Dl 8.39749 -10.9025
Dl 8.39749 -9.96798
Dl 8.11813 -9.96798
Dl 8.11813 -10.9025
DP 0 0 0 0 4 0 24
Dl 7.89536 -10.9044
Dl 7.89536 -9.97637
Dl 7.62637 -9.97637
Dl 7.62637 -10.9044
DP 0 0 0 0 4 0 24
Dl 7.39428 -10.9057
Dl 7.39428 -9.97788
Dl 7.12803 -9.97788
Dl 7.12803 -10.9057
DP 0 0 0 0 4 0 24
Dl 6.89604 -10.9038
Dl 6.89604 -9.96594
Dl 6.61594 -9.96594
Dl 6.61594 -10.9038
DP 0 0 0 0 4 0 24
Dl 6.39406 -10.9059
Dl 6.39406 -9.9711
Dl 6.12125 -9.9711
Dl 6.12125 -10.9059
DP 0 0 0 0 4 0 24
Dl 5.89203 -10.9078
Dl 5.89203 -9.97435
Dl 5.62435 -9.97435
Dl 5.62435 -10.9078
DP 0 0 0 0 4 0 24
Dl 5.39226 -10.9077
Dl 5.39226 -9.97114
Dl 5.12129 -9.97114
Dl 5.12129 -10.9077
DP 0 0 0 0 4 0 24
Dl 4.89361 -10.9062
Dl 4.89361 -9.96515
Dl 4.61515 -9.96515
Dl 4.61515 -10.9062
DP 0 0 0 0 4 0 24
Dl 4.38795 -10.912
Dl 4.38795 -9.976
Dl 4.12615 -9.976
Dl 4.12615 -10.912
DP 0 0 0 0 4 0 24
Dl 3.89275 -10.907
Dl 3.89275 -9.96373
Dl 3.61373 -9.96373
Dl 3.61373 -10.907
DP 0 0 0 0 4 0 24
Dl 3.38816 -10.9118
Dl 3.38816 -9.97055
Dl 3.1207 -9.97055
Dl 3.1207 -10.9118
DP 0 0 0 0 4 0 24
Dl 2.8901 -10.9097
Dl 2.8901 -9.96528
Dl 2.61528 -9.96528
Dl 2.61528 -10.9097
DP 0 0 0 0 4 0 24
Dl 2.39107 -10.9089
Dl 2.39107 -9.96261
Dl 2.11276 -9.96261
Dl 2.11276 -10.9089
DP 0 0 0 0 4 0 24
Dl 1.88834 -10.9115
Dl 1.88834 -9.96474
Dl 1.61474 -9.96474
Dl 1.61474 -10.9115
DP 0 0 0 0 4 0 24
Dl 1.39386 -10.9061
Dl 1.39386 -9.95709
Dl 1.10724 -9.95709
Dl 1.10724 -10.9061
DP 0 0 0 0 4 0 24
Dl 0.893913 -10.9059
Dl 0.893913 -9.95621
Dl 0.606215 -9.95621
Dl 0.606215 -10.9059
DP 0 0 0 0 4 0 24
Dl 0.385255 -10.9147
Dl 0.385255 -9.96411
Dl 0.114309 -9.96411
Dl 0.114309 -10.9147
DP 0 0 0 0 4 0 24
Dl -0.116893 -10.9167
Dl -0.116893 -9.96448
Dl -0.385522 -9.96448
Dl -0.385522 -10.9167
DP 0 0 0 0 4 0 24
Dl -0.61333 -10.9133
Dl -0.61333 -9.96047
Dl -0.889334 -9.96047
Dl -0.889334 -10.9133
DP 0 0 0 0 4 0 24
Dl -1.11159 -10.9114
Dl -1.11159 -9.95813
Dl -1.39182 -9.95813
Dl -1.39182 -10.9114
DP 0 0 0 0 4 0 24
Dl -1.61616 -10.9162
Dl -1.61616 -9.96037
Dl -1.88943 -9.96037
Dl -1.88943 -10.9162
DP 0 0 0 0 4 0 24
Dl -2.12031 -10.9202
Dl -2.12031 -9.96169
Dl -2.38826 -9.96169
Dl -2.38826 -10.9202
DP 0 0 0 0 4 0 24
Dl -2.61014 -10.9101
Dl -2.61014 -9.95526
Dl -2.89454 -9.95526
Dl -2.89454 -10.9101
DP 0 0 0 0 4 0 24
Dl -3.11216 -10.912
Dl -3.11216 -9.95561
Dl -3.39434 -9.95561
Dl -3.39434 -10.912
DP 0 0 0 0 4 0 24
Dl -3.60728 -10.9073
Dl -3.60728 -9.95298
Dl -3.89682 -9.95298
Dl -3.89682 -10.9073
DP 0 0 0 0 4 0 24
Dl -4.11665 -10.9165
Dl -4.11665 -9.95607
Dl -4.39388 -9.95607
Dl -4.39388 -10.9165
DP 0 0 0 0 4 0 24
Dl -4.62601 -10.926
Dl -4.62601 -9.95841
Dl -4.89139 -9.95841
Dl -4.89139 -10.926
DP 0 0 0 0 4 0 24
Dl -5.10473 -10.9046
Dl -5.10473 -9.95127
Dl -5.39868 -9.95127
Dl -5.39868 -10.9046
DP 0 0 0 0 4 0 24
Dl -5.61031 -10.9103
Dl -5.61031 -9.95245
Dl -5.89735 -9.95245
Dl -5.89735 -10.9103
DP 0 0 0 0 4 0 24
Dl -6.12502 -10.9249
Dl -6.12502 -9.95515
Dl -6.3948 -9.95515
Dl -6.3948 -10.9249
DP 0 0 0 0 4 0 24
Dl -6.61513 -10.9151
Dl -6.61513 -9.95253
Dl -6.89727 -9.95253
Dl -6.89727 -10.9151
DP 0 0 0 0 4 0 24
Dl -7.13116 -10.931
Dl -7.13116 -9.95434
Dl -7.39561 -9.95434
Dl -7.39561 -10.931
DP 0 0 0 0 4 0 24
Dl -7.62125 -10.9212
Dl -7.62125 -9.95227
Dl -7.89753 -9.95227
Dl -7.89753 -10.9212
DP 0 0 0 0 4 0 24
Dl -8.13187 -10.9317
Dl -8.13187 -9.95254
Dl -8.39741 -9.95254
Dl -8.39741 -10.9317
DP 0 0 0 0 4 0 24
Dl -8.61007 -10.9101
Dl -8.61007 -9.95045
Dl -8.89935 -9.95045
Dl -8.89935 -10.9101
DS -11.875 -11.875 11.875 -11.875 0.05 26
DS 11.875 -11.875 11.875 11.875 0.05 26
DS 11.875 11.875 -11.875 11.875 0.05 26
DS -11.875 11.875 -11.875 -11.875 0.05 26
DS -10 -10 -9.2 -10 0.2032 21
DS -10 -10 -10 -9.2 0.2032 21
DS -10 10 -10 9.2 0.2032 21
DS -10 10 -9.2 10 0.2032 21
DS 10 10 9.2 10 0.2032 21
DS 10 10 10 9.2 0.2032 21
DS 10 -10 10 -9.2 0.2032 21
DS 10 -10 9.2 -10 0.2032 21
DC -11 -10 -10.5 -10 0 21
$PAD
Sh "1" R 1.45 0.3 0 0 0
At SMD N 00888000
.SolderMask 0
.SolderPaste 0
Ne 0 ""
Po -10.7 -8.75
$EndPAD
$PAD
Sh "2" R 1.45 0.3 0 0 0
At SMD N 00888000
.SolderMask 0
.SolderPaste 0
Ne 0 ""
Po -10.7 -8.25
$EndPAD
$PAD
Sh "3" R 1.45 0.3 0 0 0
At SMD N 00888000
.SolderMask 0
.SolderPaste 0
Ne 0 ""
Po -10.7 -7.75
$EndPAD
$PAD
Sh "4" R 1.45 0.3 0 0 0
At SMD N 00888000
.SolderMask 0
.SolderPaste 0
Ne 0 ""
Po -10.7 -7.25
$EndPAD
$PAD
Sh "5" R 1.45 0.3 0 0 0
At SMD N 00888000
.SolderMask 0
.SolderPaste 0
Ne 0 ""
Po -10.7 -6.75
$EndPAD
$PAD
Sh "6" R 1.45 0.3 0 0 0
At SMD N 00888000
.SolderMask 0
.SolderPaste 0
Ne 0 ""
Po -10.7 -6.25
$EndPAD
$PAD
Sh "7" R 1.45 0.3 0 0 0
At SMD N 00888000
.SolderMask 0
.SolderPaste 0
Ne 0 ""
Po -10.7 -5.75
$EndPAD
$PAD
Sh "8" R 1.45 0.3 0 0 0
At SMD N 00888000
.SolderMask 0
.SolderPaste 0
Ne 0 ""
Po -10.7 -5.25
$EndPAD
$PAD
Sh "9" R 1.45 0.3 0 0 0
At SMD N 00888000
.SolderMask 0
.SolderPaste 0
Ne 0 ""
Po -10.7 -4.75
$EndPAD
$PAD
Sh "10" R 1.45 0.3 0 0 0
At SMD N 00888000
.SolderMask 0
.SolderPaste 0
Ne 0 ""
Po -10.7 -4.25
$EndPAD
$PAD
Sh "11" R 1.45 0.3 0 0 0
At SMD N 00888000
.SolderMask 0
.SolderPaste 0
Ne 0 ""
Po -10.7 -3.75
$EndPAD
$PAD
Sh "12" R 1.45 0.3 0 0 0
At SMD N 00888000
.SolderMask 0
.SolderPaste 0
Ne 0 ""
Po -10.7 -3.25
$EndPAD
$PAD
Sh "13" R 1.45 0.3 0 0 0
At SMD N 00888000
.SolderMask 0
.SolderPaste 0
Ne 0 ""
Po -10.7 -2.75
$EndPAD
$PAD
Sh "14" R 1.45 0.3 0 0 0
At SMD N 00888000
.SolderMask 0
.SolderPaste 0
Ne 0 ""
Po -10.7 -2.25
$EndPAD
$PAD
Sh "15" R 1.45 0.3 0 0 0
At SMD N 00888000
.SolderMask 0
.SolderPaste 0
Ne 0 ""
Po -10.7 -1.75
$EndPAD
$PAD
Sh "16" R 1.45 0.3 0 0 0
At SMD N 00888000
.SolderMask 0
.SolderPaste 0
Ne 0 ""
Po -10.7 -1.25
$EndPAD
$PAD
Sh "17" R 1.45 0.3 0 0 0
At SMD N 00888000
.SolderMask 0
.SolderPaste 0
Ne 0 ""
Po -10.7 -0.75
$EndPAD
$PAD
Sh "18" R 1.45 0.3 0 0 0
At SMD N 00888000
.SolderMask 0
.SolderPaste 0
Ne 0 ""
Po -10.7 -0.25
$EndPAD
$PAD
Sh "19" R 1.45 0.3 0 0 0
At SMD N 00888000
.SolderMask 0
.SolderPaste 0
Ne 0 ""
Po -10.7 0.25
$EndPAD
$PAD
Sh "20" R 1.45 0.3 0 0 0
At SMD N 00888000
.SolderMask 0
.SolderPaste 0
Ne 0 ""
Po -10.7 0.75
$EndPAD
$PAD
Sh "21" R 1.45 0.3 0 0 0
At SMD N 00888000
.SolderMask 0
.SolderPaste 0
Ne 0 ""
Po -10.7 1.25
$EndPAD
$PAD
Sh "22" R 1.45 0.3 0 0 0
At SMD N 00888000
.SolderMask 0
.SolderPaste 0
Ne 0 ""
Po -10.7 1.75
$EndPAD
$PAD
Sh "23" R 1.45 0.3 0 0 0
At SMD N 00888000
.SolderMask 0
.SolderPaste 0
Ne 0 ""
Po -10.7 2.25
$EndPAD
$PAD
Sh "24" R 1.45 0.3 0 0 0
At SMD N 00888000
.SolderMask 0
.SolderPaste 0
Ne 0 ""
Po -10.7 2.75
$EndPAD
$PAD
Sh "25" R 1.45 0.3 0 0 0
At SMD N 00888000
.SolderMask 0
.SolderPaste 0
Ne 0 ""
Po -10.7 3.25
$EndPAD
$PAD
Sh "26" R 1.45 0.3 0 0 0
At SMD N 00888000
.SolderMask 0
.SolderPaste 0
Ne 0 ""
Po -10.7 3.75
$EndPAD
$PAD
Sh "27" R 1.45 0.3 0 0 0
At SMD N 00888000
.SolderMask 0
.SolderPaste 0
Ne 0 ""
Po -10.7 4.25
$EndPAD
$PAD
Sh "28" R 1.45 0.3 0 0 0
At SMD N 00888000
.SolderMask 0
.SolderPaste 0
Ne 0 ""
Po -10.7 4.75
$EndPAD
$PAD
Sh "29" R 1.45 0.3 0 0 0
At SMD N 00888000
.SolderMask 0
.SolderPaste 0
Ne 0 ""
Po -10.7 5.25
$EndPAD
$PAD
Sh "30" R 1.45 0.3 0 0 0
At SMD N 00888000
.SolderMask 0
.SolderPaste 0
Ne 0 ""
Po -10.7 5.75
$EndPAD
$PAD
Sh "31" R 1.45 0.3 0 0 0
At SMD N 00888000
.SolderMask 0
.SolderPaste 0
Ne 0 ""
Po -10.7 6.25
$EndPAD
$PAD
Sh "32" R 1.45 0.3 0 0 0
At SMD N 00888000
.SolderMask 0
.SolderPaste 0
Ne 0 ""
Po -10.7 6.75
$EndPAD
$PAD
Sh "33" R 1.45 0.3 0 0 0
At SMD N 00888000
.SolderMask 0
.SolderPaste 0
Ne 0 ""
Po -10.7 7.25
$EndPAD
$PAD
Sh "34" R 1.45 0.3 0 0 0
At SMD N 00888000
.SolderMask 0
.SolderPaste 0
Ne 0 ""
Po -10.7 7.75
$EndPAD
$PAD
Sh "35" R 1.45 0.3 0 0 0
At SMD N 00888000
.SolderMask 0
.SolderPaste 0
Ne 0 ""
Po -10.7 8.25
$EndPAD
$PAD
Sh "36" R 1.45 0.3 0 0 0
At SMD N 00888000
.SolderMask 0
.SolderPaste 0
Ne 0 ""
Po -10.7 8.75
$EndPAD
$PAD
Sh "37" R 1.45 0.3 0 0 2700
At SMD N 00888000
.SolderMask 0
.SolderPaste 0
Ne 0 ""
Po -8.75 10.7
$EndPAD
$PAD
Sh "38" R 1.45 0.3 0 0 2700
At SMD N 00888000
.SolderMask 0
.SolderPaste 0
Ne 0 ""
Po -8.25 10.7
$EndPAD
$PAD
Sh "39" R 1.45 0.3 0 0 2700
At SMD N 00888000
.SolderMask 0
.SolderPaste 0
Ne 0 ""
Po -7.75 10.7
$EndPAD
$PAD
Sh "40" R 1.45 0.3 0 0 2700
At SMD N 00888000
.SolderMask 0
.SolderPaste 0
Ne 0 ""
Po -7.25 10.7
$EndPAD
$PAD
Sh "41" R 1.45 0.3 0 0 2700
At SMD N 00888000
.SolderMask 0
.SolderPaste 0
Ne 0 ""
Po -6.75 10.7
$EndPAD
$PAD
Sh "42" R 1.45 0.3 0 0 2700
At SMD N 00888000
.SolderMask 0
.SolderPaste 0
Ne 0 ""
Po -6.25 10.7
$EndPAD
$PAD
Sh "43" R 1.45 0.3 0 0 2700
At SMD N 00888000
.SolderMask 0
.SolderPaste 0
Ne 0 ""
Po -5.75 10.7
$EndPAD
$PAD
Sh "44" R 1.45 0.3 0 0 2700
At SMD N 00888000
.SolderMask 0
.SolderPaste 0
Ne 0 ""
Po -5.25 10.7
$EndPAD
$PAD
Sh "45" R 1.45 0.3 0 0 2700
At SMD N 00888000
.SolderMask 0
.SolderPaste 0
Ne 0 ""
Po -4.75 10.7
$EndPAD
$PAD
Sh "46" R 1.45 0.3 0 0 2700
At SMD N 00888000
.SolderMask 0
.SolderPaste 0
Ne 0 ""
Po -4.25 10.7
$EndPAD
$PAD
Sh "47" R 1.45 0.3 0 0 2700
At SMD N 00888000
.SolderMask 0
.SolderPaste 0
Ne 0 ""
Po -3.75 10.7
$EndPAD
$PAD
Sh "48" R 1.45 0.3 0 0 2700
At SMD N 00888000
.SolderMask 0
.SolderPaste 0
Ne 0 ""
Po -3.25 10.7
$EndPAD
$PAD
Sh "49" R 1.45 0.3 0 0 2700
At SMD N 00888000
.SolderMask 0
.SolderPaste 0
Ne 0 ""
Po -2.75 10.7
$EndPAD
$PAD
Sh "50" R 1.45 0.3 0 0 2700
At SMD N 00888000
.SolderMask 0
.SolderPaste 0
Ne 0 ""
Po -2.25 10.7
$EndPAD
$PAD
Sh "51" R 1.45 0.3 0 0 2700
At SMD N 00888000
.SolderMask 0
.SolderPaste 0
Ne 0 ""
Po -1.75 10.7
$EndPAD
$PAD
Sh "52" R 1.45 0.3 0 0 2700
At SMD N 00888000
.SolderMask 0
.SolderPaste 0
Ne 0 ""
Po -1.25 10.7
$EndPAD
$PAD
Sh "53" R 1.45 0.3 0 0 2700
At SMD N 00888000
.SolderMask 0
.SolderPaste 0
Ne 0 ""
Po -0.75 10.7
$EndPAD
$PAD
Sh "54" R 1.45 0.3 0 0 2700
At SMD N 00888000
.SolderMask 0
.SolderPaste 0
Ne 0 ""
Po -0.25 10.7
$EndPAD
$PAD
Sh "55" R 1.45 0.3 0 0 2700
At SMD N 00888000
.SolderMask 0
.SolderPaste 0
Ne 0 ""
Po 0.25 10.7
$EndPAD
$PAD
Sh "56" R 1.45 0.3 0 0 2700
At SMD N 00888000
.SolderMask 0
.SolderPaste 0
Ne 0 ""
Po 0.75 10.7
$EndPAD
$PAD
Sh "57" R 1.45 0.3 0 0 2700
At SMD N 00888000
.SolderMask 0
.SolderPaste 0
Ne 0 ""
Po 1.25 10.7
$EndPAD
$PAD
Sh "58" R 1.45 0.3 0 0 2700
At SMD N 00888000
.SolderMask 0
.SolderPaste 0
Ne 0 ""
Po 1.75 10.7
$EndPAD
$PAD
Sh "59" R 1.45 0.3 0 0 2700
At SMD N 00888000
.SolderMask 0
.SolderPaste 0
Ne 0 ""
Po 2.25 10.7
$EndPAD
$PAD
Sh "60" R 1.45 0.3 0 0 2700
At SMD N 00888000
.SolderMask 0
.SolderPaste 0
Ne 0 ""
Po 2.75 10.7
$EndPAD
$PAD
Sh "61" R 1.45 0.3 0 0 2700
At SMD N 00888000
.SolderMask 0
.SolderPaste 0
Ne 0 ""
Po 3.25 10.7
$EndPAD
$PAD
Sh "62" R 1.45 0.3 0 0 2700
At SMD N 00888000
.SolderMask 0
.SolderPaste 0
Ne 0 ""
Po 3.75 10.7
$EndPAD
$PAD
Sh "63" R 1.45 0.3 0 0 2700
At SMD N 00888000
.SolderMask 0
.SolderPaste 0
Ne 0 ""
Po 4.25 10.7
$EndPAD
$PAD
Sh "64" R 1.45 0.3 0 0 2700
At SMD N 00888000
.SolderMask 0
.SolderPaste 0
Ne 0 ""
Po 4.75 10.7
$EndPAD
$PAD
Sh "65" R 1.45 0.3 0 0 2700
At SMD N 00888000
.SolderMask 0
.SolderPaste 0
Ne 0 ""
Po 5.25 10.7
$EndPAD
$PAD
Sh "66" R 1.45 0.3 0 0 2700
At SMD N 00888000
.SolderMask 0
.SolderPaste 0
Ne 0 ""
Po 5.75 10.7
$EndPAD
$PAD
Sh "67" R 1.45 0.3 0 0 2700
At SMD N 00888000
.SolderMask 0
.SolderPaste 0
Ne 0 ""
Po 6.25 10.7
$EndPAD
$PAD
Sh "68" R 1.45 0.3 0 0 2700
At SMD N 00888000
.SolderMask 0
.SolderPaste 0
Ne 0 ""
Po 6.75 10.7
$EndPAD
$PAD
Sh "69" R 1.45 0.3 0 0 2700
At SMD N 00888000
.SolderMask 0
.SolderPaste 0
Ne 0 ""
Po 7.25 10.7
$EndPAD
$PAD
Sh "70" R 1.45 0.3 0 0 2700
At SMD N 00888000
.SolderMask 0
.SolderPaste 0
Ne 0 ""
Po 7.75 10.7
$EndPAD
$PAD
Sh "71" R 1.45 0.3 0 0 2700
At SMD N 00888000
.SolderMask 0
.SolderPaste 0
Ne 0 ""
Po 8.25 10.7
$EndPAD
$PAD
Sh "72" R 1.45 0.3 0 0 2700
At SMD N 00888000
.SolderMask 0
.SolderPaste 0
Ne 0 ""
Po 8.75 10.7
$EndPAD
$PAD
Sh "73" R 1.45 0.3 0 0 0
At SMD N 00888000
.SolderMask 0
.SolderPaste 0
Ne 0 ""
Po 10.7 8.75
$EndPAD
$PAD
Sh "74" R 1.45 0.3 0 0 0
At SMD N 00888000
.SolderMask 0
.SolderPaste 0
Ne 0 ""
Po 10.7 8.25
$EndPAD
$PAD
Sh "75" R 1.45 0.3 0 0 0
At SMD N 00888000
.SolderMask 0
.SolderPaste 0
Ne 0 ""
Po 10.7 7.75
$EndPAD
$PAD
Sh "76" R 1.45 0.3 0 0 0
At SMD N 00888000
.SolderMask 0
.SolderPaste 0
Ne 0 ""
Po 10.7 7.25
$EndPAD
$PAD
Sh "77" R 1.45 0.3 0 0 0
At SMD N 00888000
.SolderMask 0
.SolderPaste 0
Ne 0 ""
Po 10.7 6.75
$EndPAD
$PAD
Sh "78" R 1.45 0.3 0 0 0
At SMD N 00888000
.SolderMask 0
.SolderPaste 0
Ne 0 ""
Po 10.7 6.25
$EndPAD
$PAD
Sh "79" R 1.45 0.3 0 0 0
At SMD N 00888000
.SolderMask 0
.SolderPaste 0
Ne 0 ""
Po 10.7 5.75
$EndPAD
$PAD
Sh "80" R 1.45 0.3 0 0 0
At SMD N 00888000
.SolderMask 0
.SolderPaste 0
Ne 0 ""
Po 10.7 5.25
$EndPAD
$PAD
Sh "81" R 1.45 0.3 0 0 0
At SMD N 00888000
.SolderMask 0
.SolderPaste 0
Ne 0 ""
Po 10.7 4.75
$EndPAD
$PAD
Sh "82" R 1.45 0.3 0 0 0
At SMD N 00888000
.SolderMask 0
.SolderPaste 0
Ne 0 ""
Po 10.7 4.25
$EndPAD
$PAD
Sh "83" R 1.45 0.3 0 0 0
At SMD N 00888000
.SolderMask 0
.SolderPaste 0
Ne 0 ""
Po 10.7 3.75
$EndPAD
$PAD
Sh "84" R 1.45 0.3 0 0 0
At SMD N 00888000
.SolderMask 0
.SolderPaste 0
Ne 0 ""
Po 10.7 3.25
$EndPAD
$PAD
Sh "85" R 1.45 0.3 0 0 0
At SMD N 00888000
.SolderMask 0
.SolderPaste 0
Ne 0 ""
Po 10.7 2.75
$EndPAD
$PAD
Sh "86" R 1.45 0.3 0 0 0
At SMD N 00888000
.SolderMask 0
.SolderPaste 0
Ne 0 ""
Po 10.7 2.25
$EndPAD
$PAD
Sh "87" R 1.45 0.3 0 0 0
At SMD N 00888000
.SolderMask 0
.SolderPaste 0
Ne 0 ""
Po 10.7 1.75
$EndPAD
$PAD
Sh "88" R 1.45 0.3 0 0 0
At SMD N 00888000
.SolderMask 0
.SolderPaste 0
Ne 0 ""
Po 10.7 1.25
$EndPAD
$PAD
Sh "89" R 1.45 0.3 0 0 0
At SMD N 00888000
.SolderMask 0
.SolderPaste 0
Ne 0 ""
Po 10.7 0.75
$EndPAD
$PAD
Sh "90" R 1.45 0.3 0 0 0
At SMD N 00888000
.SolderMask 0
.SolderPaste 0
Ne 0 ""
Po 10.7 0.25
$EndPAD
$PAD
Sh "91" R 1.45 0.3 0 0 0
At SMD N 00888000
.SolderMask 0
.SolderPaste 0
Ne 0 ""
Po 10.7 -0.25
$EndPAD
$PAD
Sh "92" R 1.45 0.3 0 0 0
At SMD N 00888000
.SolderMask 0
.SolderPaste 0
Ne 0 ""
Po 10.7 -0.75
$EndPAD
$PAD
Sh "93" R 1.45 0.3 0 0 0
At SMD N 00888000
.SolderMask 0
.SolderPaste 0
Ne 0 ""
Po 10.7 -1.25
$EndPAD
$PAD
Sh "94" R 1.45 0.3 0 0 0
At SMD N 00888000
.SolderMask 0
.SolderPaste 0
Ne 0 ""
Po 10.7 -1.75
$EndPAD
$PAD
Sh "95" R 1.45 0.3 0 0 0
At SMD N 00888000
.SolderMask 0
.SolderPaste 0
Ne 0 ""
Po 10.7 -2.25
$EndPAD
$PAD
Sh "96" R 1.45 0.3 0 0 0
At SMD N 00888000
.SolderMask 0
.SolderPaste 0
Ne 0 ""
Po 10.7 -2.75
$EndPAD
$PAD
Sh "97" R 1.45 0.3 0 0 0
At SMD N 00888000
.SolderMask 0
.SolderPaste 0
Ne 0 ""
Po 10.7 -3.25
$EndPAD
$PAD
Sh "98" R 1.45 0.3 0 0 0
At SMD N 00888000
.SolderMask 0
.SolderPaste 0
Ne 0 ""
Po 10.7 -3.75
$EndPAD
$PAD
Sh "99" R 1.45 0.3 0 0 0
At SMD N 00888000
.SolderMask 0
.SolderPaste 0
Ne 0 ""
Po 10.7 -4.25
$EndPAD
$PAD
Sh "100" R 1.45 0.3 0 0 0
At SMD N 00888000
.SolderMask 0
.SolderPaste 0
Ne 0 ""
Po 10.7 -4.75
$EndPAD
$PAD
Sh "101" R 1.45 0.3 0 0 0
At SMD N 00888000
.SolderMask 0
.SolderPaste 0
Ne 0 ""
Po 10.7 -5.25
$EndPAD
$PAD
Sh "102" R 1.45 0.3 0 0 0
At SMD N 00888000
.SolderMask 0
.SolderPaste 0
Ne 0 ""
Po 10.7 -5.75
$EndPAD
$PAD
Sh "103" R 1.45 0.3 0 0 0
At SMD N 00888000
.SolderMask 0
.SolderPaste 0
Ne 0 ""
Po 10.7 -6.25
$EndPAD
$PAD
Sh "104" R 1.45 0.3 0 0 0
At SMD N 00888000
.SolderMask 0
.SolderPaste 0
Ne 0 ""
Po 10.7 -6.75
$EndPAD
$PAD
Sh "105" R 1.45 0.3 0 0 0
At SMD N 00888000
.SolderMask 0
.SolderPaste 0
Ne 0 ""
Po 10.7 -7.25
$EndPAD
$PAD
Sh "106" R 1.45 0.3 0 0 0
At SMD N 00888000
.SolderMask 0
.SolderPaste 0
Ne 0 ""
Po 10.7 -7.75
$EndPAD
$PAD
Sh "107" R 1.45 0.3 0 0 0
At SMD N 00888000
.SolderMask 0
.SolderPaste 0
Ne 0 ""
Po 10.7 -8.25
$EndPAD
$PAD
Sh "108" R 1.45 0.3 0 0 0
At SMD N 00888000
.SolderMask 0
.SolderPaste 0
Ne 0 ""
Po 10.7 -8.75
$EndPAD
$PAD
Sh "109" R 1.45 0.3 0 0 2700
At SMD N 00888000
.SolderMask 0
.SolderPaste 0
Ne 0 ""
Po 8.75 -10.7
$EndPAD
$PAD
Sh "110" R 1.45 0.3 0 0 2700
At SMD N 00888000
.SolderMask 0
.SolderPaste 0
Ne 0 ""
Po 8.25 -10.7
$EndPAD
$PAD
Sh "111" R 1.45 0.3 0 0 2700
At SMD N 00888000
.SolderMask 0
.SolderPaste 0
Ne 0 ""
Po 7.75 -10.7
$EndPAD
$PAD
Sh "112" R 1.45 0.3 0 0 2700
At SMD N 00888000
.SolderMask 0
.SolderPaste 0
Ne 0 ""
Po 7.25 -10.7
$EndPAD
$PAD
Sh "113" R 1.45 0.3 0 0 2700
At SMD N 00888000
.SolderMask 0
.SolderPaste 0
Ne 0 ""
Po 6.75 -10.7
$EndPAD
$PAD
Sh "114" R 1.45 0.3 0 0 2700
At SMD N 00888000
.SolderMask 0
.SolderPaste 0
Ne 0 ""
Po 6.25 -10.7
$EndPAD
$PAD
Sh "115" R 1.45 0.3 0 0 2700
At SMD N 00888000
.SolderMask 0
.SolderPaste 0
Ne 0 ""
Po 5.75 -10.7
$EndPAD
$PAD
Sh "116" R 1.45 0.3 0 0 2700
At SMD N 00888000
.SolderMask 0
.SolderPaste 0
Ne 0 ""
Po 5.25 -10.7
$EndPAD
$PAD
Sh "117" R 1.45 0.3 0 0 2700
At SMD N 00888000
.SolderMask 0
.SolderPaste 0
Ne 0 ""
Po 4.75 -10.7
$EndPAD
$PAD
Sh "118" R 1.45 0.3 0 0 2700
At SMD N 00888000
.SolderMask 0
.SolderPaste 0
Ne 0 ""
Po 4.25 -10.7
$EndPAD
$PAD
Sh "119" R 1.45 0.3 0 0 2700
At SMD N 00888000
.SolderMask 0
.SolderPaste 0
Ne 0 ""
Po 3.75 -10.7
$EndPAD
$PAD
Sh "120" R 1.45 0.3 0 0 2700
At SMD N 00888000
.SolderMask 0
.SolderPaste 0
Ne 0 ""
Po 3.25 -10.7
$EndPAD
$PAD
Sh "121" R 1.45 0.3 0 0 2700
At SMD N 00888000
.SolderMask 0
.SolderPaste 0
Ne 0 ""
Po 2.75 -10.7
$EndPAD
$PAD
Sh "122" R 1.45 0.3 0 0 2700
At SMD N 00888000
.SolderMask 0
.SolderPaste 0
Ne 0 ""
Po 2.25 -10.7
$EndPAD
$PAD
Sh "123" R 1.45 0.3 0 0 2700
At SMD N 00888000
.SolderMask 0
.SolderPaste 0
Ne 0 ""
Po 1.75 -10.7
$EndPAD
$PAD
Sh "124" R 1.45 0.3 0 0 2700
At SMD N 00888000
.SolderMask 0
.SolderPaste 0
Ne 0 ""
Po 1.25 -10.7
$EndPAD
$PAD
Sh "125" R 1.45 0.3 0 0 2700
At SMD N 00888000
.SolderMask 0
.SolderPaste 0
Ne 0 ""
Po 0.75 -10.7
$EndPAD
$PAD
Sh "126" R 1.45 0.3 0 0 2700
At SMD N 00888000
.SolderMask 0
.SolderPaste 0
Ne 0 ""
Po 0.25 -10.7
$EndPAD
$PAD
Sh "127" R 1.45 0.3 0 0 2700
At SMD N 00888000
.SolderMask 0
.SolderPaste 0
Ne 0 ""
Po -0.25 -10.7
$EndPAD
$PAD
Sh "128" R 1.45 0.3 0 0 2700
At SMD N 00888000
.SolderMask 0
.SolderPaste 0
Ne 0 ""
Po -0.75 -10.7
$EndPAD
$PAD
Sh "129" R 1.45 0.3 0 0 2700
At SMD N 00888000
.SolderMask 0
.SolderPaste 0
Ne 0 ""
Po -1.25 -10.7
$EndPAD
$PAD
Sh "130" R 1.45 0.3 0 0 2700
At SMD N 00888000
.SolderMask 0
.SolderPaste 0
Ne 0 ""
Po -1.75 -10.7
$EndPAD
$PAD
Sh "131" R 1.45 0.3 0 0 2700
At SMD N 00888000
.SolderMask 0
.SolderPaste 0
Ne 0 ""
Po -2.25 -10.7
$EndPAD
$PAD
Sh "132" R 1.45 0.3 0 0 2700
At SMD N 00888000
.SolderMask 0
.SolderPaste 0
Ne 0 ""
Po -2.75 -10.7
$EndPAD
$PAD
Sh "133" R 1.45 0.3 0 0 2700
At SMD N 00888000
.SolderMask 0
.SolderPaste 0
Ne 0 ""
Po -3.25 -10.7
$EndPAD
$PAD
Sh "134" R 1.45 0.3 0 0 2700
At SMD N 00888000
.SolderMask 0
.SolderPaste 0
Ne 0 ""
Po -3.75 -10.7
$EndPAD
$PAD
Sh "135" R 1.45 0.3 0 0 2700
At SMD N 00888000
.SolderMask 0
.SolderPaste 0
Ne 0 ""
Po -4.25 -10.7
$EndPAD
$PAD
Sh "136" R 1.45 0.3 0 0 2700
At SMD N 00888000
.SolderMask 0
.SolderPaste 0
Ne 0 ""
Po -4.75 -10.7
$EndPAD
$PAD
Sh "137" R 1.45 0.3 0 0 2700
At SMD N 00888000
.SolderMask 0
.SolderPaste 0
Ne 0 ""
Po -5.25 -10.7
$EndPAD
$PAD
Sh "138" R 1.45 0.3 0 0 2700
At SMD N 00888000
.SolderMask 0
.SolderPaste 0
Ne 0 ""
Po -5.75 -10.7
$EndPAD
$PAD
Sh "139" R 1.45 0.3 0 0 2700
At SMD N 00888000
.SolderMask 0
.SolderPaste 0
Ne 0 ""
Po -6.25 -10.7
$EndPAD
$PAD
Sh "140" R 1.45 0.3 0 0 2700
At SMD N 00888000
.SolderMask 0
.SolderPaste 0
Ne 0 ""
Po -6.75 -10.7
$EndPAD
$PAD
Sh "141" R 1.45 0.3 0 0 2700
At SMD N 00888000
.SolderMask 0
.SolderPaste 0
Ne 0 ""
Po -7.25 -10.7
$EndPAD
$PAD
Sh "142" R 1.45 0.3 0 0 2700
At SMD N 00888000
.SolderMask 0
.SolderPaste 0
Ne 0 ""
Po -7.75 -10.7
$EndPAD
$PAD
Sh "143" R 1.45 0.3 0 0 2700
At SMD N 00888000
.SolderMask 0
.SolderPaste 0
Ne 0 ""
Po -8.25 -10.7
$EndPAD
$PAD
Sh "144" R 1.45 0.3 0 0 2700
At SMD N 00888000
.SolderMask 0
.SolderPaste 0
Ne 0 ""
Po -8.75 -10.7
$EndPAD
$EndMODULE QFP50P2200X2200X160-144N
